Containers:
  [+] MainContainer:
   |            ID: 0x0000000000000000
   |        Bounds: IsValid=false, Min=(X=0.000 Y=0.000 Z=0.000), Max=(X=0.000 Y=0.000 Z=0.000)
   |     Transform: 0.000000,0.000000,0.000000|0.000000,0.000000,-0.000000|1.000000,1.000000,1.000000
   |     Container: /Game/FirstPerson/Maps/FirstPersonMap
   |  ActorDescs:
   |      - Guid:00E9E6CC4BFECFB3A52854969EF542DA Class:StaticMeshActor Name:StaticMeshActor_UAID_244BFEDF890F411A01_1967407071 SpatiallyLoaded:true Bounds:IsValid=true, Min=(X=1480.000 Y=3020.000 Z=0.000), Max=(X=1500.000 Y=3600.000 Z=400.000) RuntimeGrid:None EditorOnly:false LevelBoundsRelevant:true HLODRelevant:true FolderPath:Playground FolderGuid:6C02BB504B69D1F3D7A624B130C18E5B Parent:00000000000000000000000000000000
   |      - Guid:0850F2FF4510B90480124D8E909DCD68 Class:StaticMeshActor Name:StaticMeshActor_UAID_244BFEDF890F411A01_1967527078 SpatiallyLoaded:true Bounds:IsValid=true, Min=(X=2600.000 Y=1680.000 Z=0.000), Max=(X=2620.000 Y=2220.000 Z=400.000) RuntimeGrid:None EditorOnly:false LevelBoundsRelevant:true HLODRelevant:true FolderPath:Playground FolderGuid:6C02BB504B69D1F3D7A624B130C18E5B Parent:00000000000000000000000000000000
   |      - Guid:0B46226247500F013AA93183A91526C3 Class:StaticMeshActor Name:StaticMeshActor_UAID_244BFEDF890F301B01_2073575152 SpatiallyLoaded:true Bounds:IsValid=true, Min=(X=2043.302 Y=1028.046 Z=50.741), Max=(X=2075.994 Y=1058.031 Z=159.251) RuntimeGrid:None EditorOnly:false LevelBoundsRelevant:true HLODRelevant:true FolderPath:CadeiraMesa FolderGuid:0DA7D1464550668ACBD977B7FAB9B382 Parent:00000000000000000000000000000000
   |      - Guid:0B9A44DC480CE4D72588638E701CFAD3 Class:StaticMeshActor Name:StaticMeshActor_UAID_244BFEDF890F301B01_1376276135 SpatiallyLoaded:true Bounds:IsValid=true, Min=(X=186.602 Y=778.463 Z=391.663), Max=(X=192.017 Y=783.566 Z=397.064) RuntimeGrid:None EditorOnly:false LevelBoundsRelevant:true HLODRelevant:true FolderPath:Lampadas FolderGuid:933806E048236518BD5F28AFD3B1360B Parent:00000000000000000000000000000000
   |      - Guid:145024FC4EDD5825DBE9E8BCCB100537 Class:StaticMeshActor Name:StaticMeshActor_UAID_244BFEDF890F411A01_1967160058 SpatiallyLoaded:true Bounds:IsValid=true, Min=(X=400.000 Y=1000.000 Z=50.000), Max=(X=1600.000 Y=2600.000 Z=400.000) RuntimeGrid:None EditorOnly:false LevelBoundsRelevant:true HLODRelevant:true FolderPath:Playground FolderGuid:6C02BB504B69D1F3D7A624B130C18E5B Parent:00000000000000000000000000000000
   |      - Guid:167C580E4A41739A4E56728A66596C43 Class:StaticMeshActor Name:StaticMeshActor_UAID_244BFEDF890F301B01_1091661122 SpatiallyLoaded:true Bounds:IsValid=true, Min=(X=1964.961 Y=1872.483 Z=50.422), Max=(X=2286.802 Y=2020.612 Z=355.497) RuntimeGrid:None EditorOnly:false LevelBoundsRelevant:true HLODRelevant:true FolderPath:Cama FolderGuid:A22FDD274F1E20C108F1768A7F414B81 Parent:00000000000000000000000000000000
   |      - Guid:18463F64462307119B2607B03C74A4BC Class:StaticMeshActor Name:StaticMeshActor_UAID_244BFEDF890F411A01_1967260063 SpatiallyLoaded:true Bounds:IsValid=true, Min=(X=-600.000 Y=2200.000 Z=0.000), Max=(X=-20.000 Y=2220.000 Z=400.000) RuntimeGrid:None EditorOnly:false LevelBoundsRelevant:true HLODRelevant:true FolderPath:Playground FolderGuid:6C02BB504B69D1F3D7A624B130C18E5B Parent:00000000000000000000000000000000
   |      - Guid:1ECDA1884C5C759DFF2A798E7854B5CE Class:StaticMeshActor Name:StaticMeshActor_UAID_244BFEDF890F2F1B01_2005041945 SpatiallyLoaded:true Bounds:IsValid=true, Min=(X=2458.576 Y=1421.096 Z=141.010), Max=(X=2568.020 Y=1468.416 Z=164.747) RuntimeGrid:None EditorOnly:false LevelBoundsRelevant:true HLODRelevant:true FolderPath:Cama FolderGuid:A22FDD274F1E20C108F1768A7F414B81 Parent:00000000000000000000000000000000
   |      - Guid:21262252453B37957EF29F82ABA2413B Class:TextRenderActor Name:TextRenderActor_1 SpatiallyLoaded:true Bounds:IsValid=true, Min=(X=-642.522 Y=1100.000 Z=65.013), Max=(X=-642.522 Y=2363.461 Z=215.013) RuntimeGrid:None EditorOnly:false LevelBoundsRelevant:true HLODRelevant:false FolderPath:None FolderGuid:00000000000000000000000000000000 Parent:00000000000000000000000000000000
   |      - Guid:2379121D4B9EC1BB3FF48192EE2066C3 Class:SpotLight Name:SpotLight_UAID_244BFEDF890FFC1701_1513425800 SpatiallyLoaded:true Bounds:IsValid=true, Min=(X=-209.820 Y=-1299.616 Z=-1125.118), Max=(X=3729.412 Y=2639.616 Z=2814.114) RuntimeGrid:None EditorOnly:false LevelBoundsRelevant:false HLODRelevant:false FolderPath:None FolderGuid:00000000000000000000000000000000 Parent:00000000000000000000000000000000
   |      - Guid:23B47D464AFC66C26BC44F988B92AEB4 Class:StaticMeshActor Name:StaticMeshActor_UAID_244BFEDF890F411A01_1967509077 SpatiallyLoaded:true Bounds:IsValid=true, Min=(X=2600.000 Y=980.000 Z=0.000), Max=(X=2620.000 Y=1520.000 Z=400.000) RuntimeGrid:None EditorOnly:false LevelBoundsRelevant:true HLODRelevant:true FolderPath:Playground FolderGuid:6C02BB504B69D1F3D7A624B130C18E5B Parent:00000000000000000000000000000000
   |      - Guid:2464CFD1479C993E82D026A518C80E23 Class:StaticMeshActor Name:StaticMeshActor_UAID_244BFEDF890F301B01_2073603154 SpatiallyLoaded:true Bounds:IsValid=true, Min=(X=2022.843 Y=1003.385 Z=156.337), Max=(X=2152.312 Y=1132.854 Z=163.480) RuntimeGrid:None EditorOnly:false LevelBoundsRelevant:true HLODRelevant:true FolderPath:CadeiraMesa FolderGuid:0DA7D1464550668ACBD977B7FAB9B382 Parent:00000000000000000000000000000000
   |      - Guid:2AB10853478B8D3E0B03CBAE731F11D1 Class:StaticMeshActor Name:StaticMeshActor_UAID_244BFEDF890F411A01_1967581081 SpatiallyLoaded:true Bounds:IsValid=true, Min=(X=-20.000 Y=3600.000 Z=0.000), Max=(X=520.000 Y=3620.000 Z=400.000) RuntimeGrid:None EditorOnly:false LevelBoundsRelevant:true HLODRelevant:true FolderPath:Playground FolderGuid:6C02BB504B69D1F3D7A624B130C18E5B Parent:00000000000000000000000000000000
   |      - Guid:2C8D308C4DFCE87BF666308DEC6A11CE Class:StaticMeshActor Name:StaticMeshActor_UAID_244BFEDF890F301B01_2073687160 SpatiallyLoaded:true Bounds:IsValid=true, Min=(X=2060.677 Y=1040.467 Z=104.047), Max=(X=2122.332 Y=1066.542 Z=121.539) RuntimeGrid:None EditorOnly:false LevelBoundsRelevant:true HLODRelevant:true FolderPath:CadeiraMesa FolderGuid:0DA7D1464550668ACBD977B7FAB9B382 Parent:00000000000000000000000000000000
   |      - Guid:324A8246474DF71A45F956A888FB1F61 Class:StaticMeshActor Name:StaticMeshActor_UAID_244BFEDF890F411A01_1967390070 SpatiallyLoaded:true Bounds:IsValid=true, Min=(X=2020.000 Y=2900.000 Z=0.000), Max=(X=2600.000 Y=2920.000 Z=400.000) RuntimeGrid:None EditorOnly:false LevelBoundsRelevant:true HLODRelevant:true FolderPath:Playground FolderGuid:6C02BB504B69D1F3D7A624B130C18E5B Parent:00000000000000000000000000000000
   |      - Guid:3E06D79840C67608E33AD0B01EB6E211 Class:StaticMeshActor Name:StaticMeshActor_UAID_244BFEDF890F411A01_1967565080 SpatiallyLoaded:true Bounds:IsValid=true, Min=(X=1480.000 Y=3600.000 Z=0.000), Max=(X=2020.000 Y=3620.000 Z=400.000) RuntimeGrid:None EditorOnly:false LevelBoundsRelevant:true HLODRelevant:true FolderPath:Playground FolderGuid:6C02BB504B69D1F3D7A624B130C18E5B Parent:00000000000000000000000000000000
   |      - Guid:41098CA142A3B30B8FB5D08B1B012D10 Class:StaticMeshActor Name:StaticMeshActor_UAID_244BFEDF890F411A01_1967373069 SpatiallyLoaded:true Bounds:IsValid=true, Min=(X=2020.000 Y=2380.000 Z=0.000), Max=(X=2600.000 Y=2400.000 Z=400.000) RuntimeGrid:None EditorOnly:false LevelBoundsRelevant:true HLODRelevant:true FolderPath:Playground FolderGuid:6C02BB504B69D1F3D7A624B130C18E5B Parent:00000000000000000000000000000000
   |      - Guid:4289206141BFC4C1548A31A05C14A55F Class:StaticMeshActor Name:StaticMeshActor_UAID_244BFEDF890F301B01_2073548150 SpatiallyLoaded:true Bounds:IsValid=true, Min=(X=2065.901 Y=1084.883 Z=50.741), Max=(X=2089.261 Y=1120.786 Z=159.251) RuntimeGrid:None EditorOnly:false LevelBoundsRelevant:true HLODRelevant:true FolderPath:CadeiraMesa FolderGuid:0DA7D1464550668ACBD977B7FAB9B382 Parent:00000000000000000000000000000000
   |      - Guid:45AC1C4C443F53CB33CF7A828ABAACFA Class:StaticMeshActor Name:StaticMeshActor_UAID_244BFEDF890F301B01_1871704148 SpatiallyLoaded:true Bounds:IsValid=true, Min=(X=6.762 Y=2087.995 Z=161.356), Max=(X=140.831 Y=2405.303 Z=192.398) RuntimeGrid:None EditorOnly:false LevelBoundsRelevant:true HLODRelevant:true FolderPath:Maca FolderGuid:D0B87D0A42E084B077B4DFAAF8CB7C55 Parent:00000000000000000000000000000000
   |      - Guid:465ABE264E42C8D5C2B4AD8B4D06FD96 Class:StaticMeshActor Name:StaticMeshActor_UAID_244BFEDF890F2F1B01_2004994943 SpatiallyLoaded:true Bounds:IsValid=true, Min=(X=2438.309 Y=1198.270 Z=50.029), Max=(X=2586.439 Y=1488.775 Z=204.515) RuntimeGrid:None EditorOnly:false LevelBoundsRelevant:true HLODRelevant:true FolderPath:Cama FolderGuid:A22FDD274F1E20C108F1768A7F414B81 Parent:00000000000000000000000000000000
   |      - Guid:4AFCEC18483E1E476C5E5396599C6F31 Class:StaticMeshActor Name:StaticMeshActor_UAID_244BFEDF890F411A01_1967202060 SpatiallyLoaded:true Bounds:IsValid=true, Min=(X=-600.000 Y=1680.000 Z=0.000), Max=(X=-20.000 Y=1700.000 Z=400.000) RuntimeGrid:None EditorOnly:false LevelBoundsRelevant:true HLODRelevant:true FolderPath:Playground FolderGuid:6C02BB504B69D1F3D7A624B130C18E5B Parent:00000000000000000000000000000000
   |      - Guid:4D37AEFF47DC349654EE538CCF41FF67 Class:StaticMeshActor Name:StaticMeshActor_UAID_244BFEDF890F301B01_1376262134 SpatiallyLoaded:true Bounds:IsValid=true, Min=(X=186.602 Y=679.022 Z=391.663), Max=(X=192.017 Y=683.653 Z=397.064) RuntimeGrid:None EditorOnly:false LevelBoundsRelevant:true HLODRelevant:true FolderPath:Lampadas FolderGuid:933806E048236518BD5F28AFD3B1360B Parent:00000000000000000000000000000000
   |      - Guid:4F49734E4C20794DA3C667974AE08F81 Class:StaticMeshActor Name:StaticMeshActor_UAID_244BFEDF890F411A01_1967691087 SpatiallyLoaded:true Bounds:IsValid=true, Min=(X=-600.000 Y=0.000 Z=-0.000), Max=(X=2600.000 Y=3600.000 Z=50.000) RuntimeGrid:None EditorOnly:false LevelBoundsRelevant:true HLODRelevant:true FolderPath:Playground FolderGuid:6C02BB504B69D1F3D7A624B130C18E5B Parent:00000000000000000000000000000000
   |      - Guid:531212B94DB90A5F9AF5A9A02645BCB7 Class:StaticMeshActor Name:StaticMeshActor_UAID_244BFEDF890F411A01_1967440073 SpatiallyLoaded:true Bounds:IsValid=true, Min=(X=-620.000 Y=2380.000 Z=0.000), Max=(X=-600.000 Y=2920.000 Z=400.000) RuntimeGrid:None EditorOnly:false LevelBoundsRelevant:true HLODRelevant:true FolderPath:Playground FolderGuid:6C02BB504B69D1F3D7A624B130C18E5B Parent:00000000000000000000000000000000
   |      - Guid:563D70FD4C7653B283925A99A64DECA6 Class:StaticMeshActor Name:StaticMeshActor_UAID_244BFEDF890F411A01_1967490076 SpatiallyLoaded:true Bounds:IsValid=true, Min=(X=-620.000 Y=-20.000 Z=0.000), Max=(X=-600.000 Y=520.000 Z=400.000) RuntimeGrid:None EditorOnly:false LevelBoundsRelevant:true HLODRelevant:true FolderPath:Playground FolderGuid:6C02BB504B69D1F3D7A624B130C18E5B Parent:00000000000000000000000000000000
   |      - Guid:5A31D5B244CD07ABBE909DA355C01434 Class:StaticMeshActor Name:StaticMeshActor_UAID_244BFEDF890F411A01_1967278064 SpatiallyLoaded:true Bounds:IsValid=true, Min=(X=-600.000 Y=500.000 Z=0.000), Max=(X=-20.000 Y=520.000 Z=400.000) RuntimeGrid:None EditorOnly:false LevelBoundsRelevant:true HLODRelevant:true FolderPath:Playground FolderGuid:6C02BB504B69D1F3D7A624B130C18E5B Parent:00000000000000000000000000000000
   |      - Guid:5E201E7C46AC7B902C94169B0749E4D1 Class:StaticMeshActor Name:StaticMeshActor_UAID_244BFEDF890F411A01_1967545079 SpatiallyLoaded:true Bounds:IsValid=true, Min=(X=2600.000 Y=2380.000 Z=0.000), Max=(X=2620.000 Y=2920.000 Z=400.000) RuntimeGrid:None EditorOnly:false LevelBoundsRelevant:true HLODRelevant:true FolderPath:Playground FolderGuid:6C02BB504B69D1F3D7A624B130C18E5B Parent:00000000000000000000000000000000
   |      - Guid:5FD4FDE640900A5BED0DF7B7D6E09451 Class:StaticMeshActor Name:StaticMeshActor_UAID_244BFEDF890F411A01_1967242062 SpatiallyLoaded:true Bounds:IsValid=true, Min=(X=-600.000 Y=980.000 Z=0.000), Max=(X=-20.000 Y=1000.000 Z=400.000) RuntimeGrid:None EditorOnly:false LevelBoundsRelevant:true HLODRelevant:true FolderPath:Playground FolderGuid:6C02BB504B69D1F3D7A624B130C18E5B Parent:00000000000000000000000000000000
   |      - Guid:5FE7584649BB6F09265329A6C57CFD0D Class:VolumetricCloud Name:VolumetricCloud_0 SpatiallyLoaded:false Bounds:IsValid=true, Min=(X=0.000 Y=0.000 Z=820.000), Max=(X=0.000 Y=0.000 Z=820.000) RuntimeGrid:None EditorOnly:false LevelBoundsRelevant:false HLODRelevant:false FolderPath:Lighting FolderGuid:0BA5F0A04EADB18E70D5B180D08FA34B Parent:00000000000000000000000000000000
   |      - Guid:612A1DA947694B66C5991B9CCBC7053A Class:StaticMeshActor Name:StaticMeshActor_UAID_244BFEDF890F411A01_1967180059 SpatiallyLoaded:true Bounds:IsValid=true, Min=(X=-600.000 Y=2380.000 Z=0.000), Max=(X=-20.000 Y=2400.000 Z=400.000) RuntimeGrid:None EditorOnly:false LevelBoundsRelevant:true HLODRelevant:true FolderPath:Playground FolderGuid:6C02BB504B69D1F3D7A624B130C18E5B Parent:00000000000000000000000000000000
   |      - Guid:61391D344900612A77DFC3BA3E354907 Class:ExponentialHeightFog Name:ExponentialHeightFog_0 SpatiallyLoaded:false Bounds:IsValid=true, Min=(X=-5600.000 Y=-50.000 Z=-6850.000), Max=(X=-5600.000 Y=-50.000 Z=-6850.000) RuntimeGrid:None EditorOnly:false LevelBoundsRelevant:false HLODRelevant:false FolderPath:Lighting FolderGuid:0BA5F0A04EADB18E70D5B180D08FA34B Parent:00000000000000000000000000000000
   |      - Guid:6FA7112642D0CEB2BDA6A580FDF473AF Class:StaticMeshActor Name:StaticMeshActor_UAID_244BFEDF890F301B01_1871690147 SpatiallyLoaded:true Bounds:IsValid=true, Min=(X=1.990 Y=2072.158 Z=55.003), Max=(X=145.755 Y=2404.631 Z=195.019) RuntimeGrid:None EditorOnly:false LevelBoundsRelevant:true HLODRelevant:true FolderPath:Maca FolderGuid:D0B87D0A42E084B077B4DFAAF8CB7C55 Parent:00000000000000000000000000000000
   |      - Guid:6FEFB3BD4EB37B849EF0D4AC80F83855 Class:WorldDataLayers Name:WorldDataLayers SpatiallyLoaded:false Bounds:IsValid=true, Min=(X=0.000 Y=0.000 Z=0.000), Max=(X=0.000 Y=0.000 Z=0.000) RuntimeGrid:None EditorOnly:false LevelBoundsRelevant:false HLODRelevant:false FolderPath:None FolderGuid:00000000000000000000000000000000 Parent:00000000000000000000000000000000
   |      - Guid:71C19BAF4DB9AD9778C0F59211A139DC Class:StaticMeshActor Name:StaticMeshActor_UAID_244BFEDF890F301B01_1376290136 SpatiallyLoaded:true Bounds:IsValid=true, Min=(X=188.971 Y=775.398 Z=396.968), Max=(X=189.806 Y=776.231 Z=404.289) RuntimeGrid:None EditorOnly:false LevelBoundsRelevant:true HLODRelevant:true FolderPath:Lampadas FolderGuid:933806E048236518BD5F28AFD3B1360B Parent:00000000000000000000000000000000
   |      - Guid:77F8F7A74ACCA7FA20557CBA3BDB0481 Class:Actor Name:BP_LanternaGrande_C_UAID_244BFEDF890FA31901_1434755248 SpatiallyLoaded:true Bounds:IsValid=true, Min=(X=1066.400 Y=716.400 Z=116.400), Max=(X=1133.600 Y=783.600 Z=183.600) RuntimeGrid:None EditorOnly:false LevelBoundsRelevant:true HLODRelevant:false FolderPath:None FolderGuid:00000000000000000000000000000000 Parent:00000000000000000000000000000000
   |      - Guid:7DEE508B49C69177B3AADF84BDF08FDD Class:RectLight Name:RectLight_UAID_244BFEDF890F301B01_1461906138 SpatiallyLoaded:true Bounds:IsValid=true, Min=(X=-813.785 Y=-266.990 Z=-610.772), Max=(X=1186.215 Y=1733.010 Z=1389.228) RuntimeGrid:None EditorOnly:false LevelBoundsRelevant:false HLODRelevant:false FolderPath:Lampadas FolderGuid:933806E048236518BD5F28AFD3B1360B Parent:E33A85EF4E36A7CF447DD8AEA2FD94D7
   |      - Guid:7F1BB27D498D3C0292890AA58D706902 Class:StaticMeshActor Name:StaticMeshActor_UAID_244BFEDF890F411A01_1967136057 SpatiallyLoaded:true Bounds:IsValid=true, Min=(X=0.000 Y=0.000 Z=-0.000), Max=(X=2000.000 Y=3000.000 Z=50.000) RuntimeGrid:None EditorOnly:false LevelBoundsRelevant:true HLODRelevant:true FolderPath:Playground FolderGuid:6C02BB504B69D1F3D7A624B130C18E5B Parent:00000000000000000000000000000000
   |      - Guid:828A05A745168571EB428C91E3C56AD7 Class:StaticMeshActor Name:StaticMeshActor_UAID_244BFEDF890F301B01_2073631156 SpatiallyLoaded:true Bounds:IsValid=true, Min=(X=2060.591 Y=1045.233 Z=106.981), Max=(X=2077.638 Y=1098.668 Z=118.349) RuntimeGrid:None EditorOnly:false LevelBoundsRelevant:true HLODRelevant:true FolderPath:CadeiraMesa FolderGuid:0DA7D1464550668ACBD977B7FAB9B382 Parent:00000000000000000000000000000000
   |      - Guid:8B8EF684499599EB1D7F8F81FD7DF8A7 Class:StaticMeshActor Name:StaticMeshActor_UAID_244BFEDF890F411A01_1967599082 SpatiallyLoaded:true Bounds:IsValid=true, Min=(X=-20.000 Y=0.000 Z=-0.000), Max=(X=0.000 Y=3600.000 Z=400.000) RuntimeGrid:None EditorOnly:false LevelBoundsRelevant:true HLODRelevant:true FolderPath:Playground FolderGuid:6C02BB504B69D1F3D7A624B130C18E5B Parent:00000000000000000000000000000000
   |      - Guid:8F1261F24A667A48832A84938642394B Class:StaticMeshActor Name:StaticMeshActor_UAID_244BFEDF890F411A01_1967424072 SpatiallyLoaded:true Bounds:IsValid=true, Min=(X=500.000 Y=3020.000 Z=0.000), Max=(X=520.000 Y=3600.000 Z=400.000) RuntimeGrid:None EditorOnly:false LevelBoundsRelevant:true HLODRelevant:true FolderPath:Playground FolderGuid:6C02BB504B69D1F3D7A624B130C18E5B Parent:00000000000000000000000000000000
   |      - Guid:9168B6D749ABC0EA993594BAD52D5DC0 Class:StaticMeshActor Name:StaticMeshActor_UAID_244BFEDF890F301B01_1216227123 SpatiallyLoaded:true Bounds:IsValid=true, Min=(X=176.765 Y=3445.186 Z=237.009), Max=(X=270.470 Y=3452.793 Z=276.948) RuntimeGrid:None EditorOnly:false LevelBoundsRelevant:true HLODRelevant:true FolderPath:None FolderGuid:00000000000000000000000000000000 Parent:00000000000000000000000000000000
   |      - Guid:939BD285497855ADC6ABABB0E039F7B7 Class:StaticMeshActor Name:StaticMeshActor_UAID_244BFEDF890F311B01_1075818337 SpatiallyLoaded:true Bounds:IsValid=true, Min=(X=2163.105 Y=1042.207 Z=114.021), Max=(X=2200.668 Y=1089.272 Z=122.834) RuntimeGrid:None EditorOnly:false LevelBoundsRelevant:true HLODRelevant:true FolderPath:CadeiraMesa FolderGuid:0DA7D1464550668ACBD977B7FAB9B382 Parent:00000000000000000000000000000000
   |      - Guid:950BAC574A10406A5605A7A8B793CE10 Class:StaticMeshActor Name:StaticMeshActor_UAID_244BFEDF890F301B01_1376248133 SpatiallyLoaded:true Bounds:IsValid=true, Min=(X=186.602 Y=683.653 Z=391.663), Max=(X=192.017 Y=778.463 Z=397.064) RuntimeGrid:None EditorOnly:false LevelBoundsRelevant:true HLODRelevant:true FolderPath:Lampadas FolderGuid:933806E048236518BD5F28AFD3B1360B Parent:00000000000000000000000000000000
   |      - Guid:9AA308C248C5CAAAF5EA5ABF899B639B Class:StaticMeshActor Name:StaticMeshActor_UAID_244BFEDF890F411A01_1967315066 SpatiallyLoaded:true Bounds:IsValid=true, Min=(X=2020.000 Y=1500.000 Z=0.000), Max=(X=2600.000 Y=1520.000 Z=400.000) RuntimeGrid:None EditorOnly:false LevelBoundsRelevant:true HLODRelevant:true FolderPath:Playground FolderGuid:6C02BB504B69D1F3D7A624B130C18E5B Parent:00000000000000000000000000000000
   |      - Guid:9D655A144FAEFFD2FE0FEF8672843257 Class:StaticMeshActor Name:StaticMeshActor_UAID_244BFEDF890F301B01_1871649144 SpatiallyLoaded:true Bounds:IsValid=true, Min=(X=135.118 Y=2348.616 Z=57.122), Max=(X=146.099 Y=2352.381 Z=60.887) RuntimeGrid:None EditorOnly:false LevelBoundsRelevant:true HLODRelevant:true FolderPath:Maca FolderGuid:D0B87D0A42E084B077B4DFAAF8CB7C55 Parent:00000000000000000000000000000000
   |      - Guid:9DAAB137485784D72983079F00955760 Class:StaticMeshActor Name:StaticMeshActor_UAID_244BFEDF890F301B01_1871663145 SpatiallyLoaded:true Bounds:IsValid=true, Min=(X=135.929 Y=2340.712 Z=49.442), Max=(X=144.665 Y=2361.477 Z=70.207) RuntimeGrid:None EditorOnly:false LevelBoundsRelevant:true HLODRelevant:true FolderPath:Maca FolderGuid:D0B87D0A42E084B077B4DFAAF8CB7C55 Parent:00000000000000000000000000000000
   |      - Guid:A0201BC849CF2FB1770EE59EDC6F2ACB Class:StaticMeshActor Name:StaticMeshActor_UAID_244BFEDF890F301B01_2073529149 SpatiallyLoaded:true Bounds:IsValid=true, Min=(X=2059.939 Y=1041.884 Z=105.404), Max=(X=2123.070 Y=1065.125 Z=120.183) RuntimeGrid:None EditorOnly:false LevelBoundsRelevant:true HLODRelevant:true FolderPath:CadeiraMesa FolderGuid:0DA7D1464550668ACBD977B7FAB9B382 Parent:00000000000000000000000000000000
   |      - Guid:A0B2882749C6131548C42A9A6F34925F Class:StaticMeshActor Name:StaticMeshActor_UAID_244BFEDF890F411A01_1967474075 SpatiallyLoaded:true Bounds:IsValid=true, Min=(X=-620.000 Y=980.000 Z=0.000), Max=(X=-600.000 Y=1520.000 Z=400.000) RuntimeGrid:None EditorOnly:false LevelBoundsRelevant:true HLODRelevant:true FolderPath:Playground FolderGuid:6C02BB504B69D1F3D7A624B130C18E5B Parent:00000000000000000000000000000000
   |      - Guid:A354B1B24E617A525DC6B48CCDE2417E Class:PlayerStart Name:PlayerStart_0 SpatiallyLoaded:false Bounds:IsValid=true, Min=(X=-285.449 Y=152.489 Z=103.548), Max=(X=-205.449 Y=232.489 Z=287.548) RuntimeGrid:None EditorOnly:false LevelBoundsRelevant:true HLODRelevant:false FolderPath:None FolderGuid:00000000000000000000000000000000 Parent:00000000000000000000000000000000
   |      - Guid:A6ED550F431AD5E34BBA44A21D1D3A4A Class:StaticMeshActor Name:StaticMeshActor_UAID_244BFEDF890F301B01_2073589153 SpatiallyLoaded:true Bounds:IsValid=true, Min=(X=2106.647 Y=1061.644 Z=50.741), Max=(X=2143.483 Y=1071.151 Z=159.251) RuntimeGrid:None EditorOnly:false LevelBoundsRelevant:true HLODRelevant:true FolderPath:CadeiraMesa FolderGuid:0DA7D1464550668ACBD977B7FAB9B382 Parent:00000000000000000000000000000000
   |      - Guid:A75B3E444B2CAFE1DF2AB595CE4E3572 Class:StaticMeshActor Name:StaticMeshActor_UAID_244BFEDF890F411A01_1967457074 SpatiallyLoaded:true Bounds:IsValid=true, Min=(X=-620.000 Y=1680.000 Z=0.000), Max=(X=-600.000 Y=2220.000 Z=400.000) RuntimeGrid:None EditorOnly:false LevelBoundsRelevant:true HLODRelevant:true FolderPath:Playground FolderGuid:6C02BB504B69D1F3D7A624B130C18E5B Parent:00000000000000000000000000000000
   |      - Guid:AA07331D4B48319B1BE7E0A89C463F83 Class:StaticMeshActor Name:StaticMeshActor_UAID_244BFEDF890F411A01_1967656085 SpatiallyLoaded:true Bounds:IsValid=true, Min=(X=-600.000 Y=-20.000 Z=0.000), Max=(X=2000.000 Y=0.000 Z=400.000) RuntimeGrid:None EditorOnly:false LevelBoundsRelevant:true HLODRelevant:true FolderPath:Playground FolderGuid:6C02BB504B69D1F3D7A624B130C18E5B Parent:00000000000000000000000000000000
   |      - Guid:B31891454658565439B30E9ACD98B236 Class:StaticMeshActor Name:StaticMeshActor_UAID_244BFEDF890F301B01_2073646157 SpatiallyLoaded:true Bounds:IsValid=true, Min=(X=2077.309 Y=1069.736 Z=103.394), Max=(X=2124.280 Y=1097.696 Z=125.220) RuntimeGrid:None EditorOnly:false LevelBoundsRelevant:true HLODRelevant:true FolderPath:CadeiraMesa FolderGuid:0DA7D1464550668ACBD977B7FAB9B382 Parent:00000000000000000000000000000000
   |      - Guid:B3EAD48C4AA85F9B8CDD67A0E3B63220 Class:StaticMeshActor Name:StaticMeshActor_UAID_244BFEDF890F2F1B01_2005027944 SpatiallyLoaded:true Bounds:IsValid=true, Min=(X=2443.645 Y=1203.748 Z=137.174), Max=(X=2582.780 Y=1483.590 Z=148.286) RuntimeGrid:None EditorOnly:false LevelBoundsRelevant:true HLODRelevant:true FolderPath:Cama FolderGuid:A22FDD274F1E20C108F1768A7F414B81 Parent:00000000000000000000000000000000
   |      - Guid:BA9C846949EE29CAA8A6F6A7C7BF8F7B Class:StaticMeshActor Name:StaticMeshActor_UAID_244BFEDF890F411A01_1967357068 SpatiallyLoaded:true Bounds:IsValid=true, Min=(X=2020.000 Y=2200.000 Z=0.000), Max=(X=2600.000 Y=2220.000 Z=400.000) RuntimeGrid:None EditorOnly:false LevelBoundsRelevant:true HLODRelevant:true FolderPath:Playground FolderGuid:6C02BB504B69D1F3D7A624B130C18E5B Parent:00000000000000000000000000000000
   |      - Guid:BDDF3AC640154940F9942E9CF5331E56 Class:Actor Name:BP_LanternaMedia_C_UAID_244BFEDF890F331A01_2066503591 SpatiallyLoaded:true Bounds:IsValid=true, Min=(X=1066.400 Y=66.400 Z=116.400), Max=(X=1133.600 Y=133.600 Z=183.600) RuntimeGrid:None EditorOnly:false LevelBoundsRelevant:true HLODRelevant:false FolderPath:None FolderGuid:00000000000000000000000000000000 Parent:00000000000000000000000000000000
   |      - Guid:C0C56B9644AE3D40CAFF6A878DB29844 Class:StaticMeshActor Name:StaticMeshActor_UAID_A4AE111137DC5EFB00_2001720423 SpatiallyLoaded:true Bounds:IsValid=true, Min=(X=-1638400.000 Y=-1638400.000 Z=-1638400.000), Max=(X=1638400.000 Y=1638400.000 Z=1638400.000) RuntimeGrid:None EditorOnly:false LevelBoundsRelevant:true HLODRelevant:true FolderPath:Lighting FolderGuid:0BA5F0A04EADB18E70D5B180D08FA34B Parent:00000000000000000000000000000000
   |      - Guid:C22CE07C4B87D685137FDBBC10FC92C6 Class:SkyAtmosphere Name:SkyAtmosphere_0 SpatiallyLoaded:false Bounds:IsValid=true, Min=(X=0.000 Y=0.000 Z=1020.000), Max=(X=0.000 Y=0.000 Z=1020.000) RuntimeGrid:None EditorOnly:false LevelBoundsRelevant:false HLODRelevant:false FolderPath:Lighting FolderGuid:0BA5F0A04EADB18E70D5B180D08FA34B Parent:00000000000000000000000000000000
   |      - Guid:C3E1909B4410858167CE189253261FD8 Class:StaticMeshActor Name:StaticMeshActor_UAID_244BFEDF890F301B01_1376304137 SpatiallyLoaded:true Bounds:IsValid=true, Min=(X=188.971 Y=685.377 Z=396.968), Max=(X=189.806 Y=686.210 Z=404.289) RuntimeGrid:None EditorOnly:false LevelBoundsRelevant:true HLODRelevant:true FolderPath:Lampadas FolderGuid:933806E048236518BD5F28AFD3B1360B Parent:00000000000000000000000000000000
   |      - Guid:C701FAE2457663E2BBA4718C0F411190 Class:StaticMeshActor Name:StaticMeshActor_UAID_244BFEDF890F301B01_1871580139 SpatiallyLoaded:true Bounds:IsValid=true, Min=(X=135.929 Y=2067.828 Z=50.132), Max=(X=144.665 Y=2088.592 Z=70.896) RuntimeGrid:None EditorOnly:false LevelBoundsRelevant:true HLODRelevant:true FolderPath:Maca FolderGuid:D0B87D0A42E084B077B4DFAAF8CB7C55 Parent:00000000000000000000000000000000
   |      - Guid:C7B1D0604990AAF67AC591B39E6A0A80 Class:StaticMeshActor Name:StaticMeshActor_UAID_244BFEDF890F301B01_2073617155 SpatiallyLoaded:true Bounds:IsValid=true, Min=(X=2060.591 Y=1045.741 Z=104.544), Max=(X=2077.638 Y=1098.160 Z=120.786) RuntimeGrid:None EditorOnly:false LevelBoundsRelevant:true HLODRelevant:true FolderPath:CadeiraMesa FolderGuid:0DA7D1464550668ACBD977B7FAB9B382 Parent:00000000000000000000000000000000
   |      - Guid:C98650644ECEFFB9C957D6AF01996D8B Class:StaticMeshActor Name:StaticMeshActor_UAID_244BFEDF890F411A01_1967223061 SpatiallyLoaded:true Bounds:IsValid=true, Min=(X=-600.000 Y=1500.000 Z=0.000), Max=(X=-20.000 Y=1520.000 Z=400.000) RuntimeGrid:None EditorOnly:false LevelBoundsRelevant:true HLODRelevant:true FolderPath:Playground FolderGuid:6C02BB504B69D1F3D7A624B130C18E5B Parent:00000000000000000000000000000000
   |      - Guid:C99337CC4BD83D04BE1EE9BEC0D4EF6F Class:StaticMeshActor Name:StaticMeshActor_UAID_244BFEDF890F411A01_1967637084 SpatiallyLoaded:true Bounds:IsValid=true, Min=(X=-0.000 Y=3000.000 Z=0.000), Max=(X=2000.000 Y=3020.000 Z=400.000) RuntimeGrid:None EditorOnly:false LevelBoundsRelevant:true HLODRelevant:true FolderPath:Playground FolderGuid:6C02BB504B69D1F3D7A624B130C18E5B Parent:00000000000000000000000000000000
   |      - Guid:CE8D82634660FCDB3120E2B8D547C533 Class:PostProcessVolume Name:PostProcessVolume_0 SpatiallyLoaded:false Bounds:IsValid=true, Min=(X=-100.000 Y=2900.000 Z=-150.000), Max=(X=100.000 Y=3100.000 Z=50.000) RuntimeGrid:None EditorOnly:false LevelBoundsRelevant:false HLODRelevant:false FolderPath:Lighting FolderGuid:0BA5F0A04EADB18E70D5B180D08FA34B Parent:00000000000000000000000000000000
   |      - Guid:CE96A4EE499D3E62C687B3881BBE5DAF Class:StaticMeshActor Name:StaticMeshActor_UAID_244BFEDF890F3D1701_1538614183 SpatiallyLoaded:true Bounds:IsValid=true, Min=(X=-730.000 Y=-600.000 Z=400.000), Max=(X=4270.000 Y=4400.000 Z=450.000) RuntimeGrid:None EditorOnly:false LevelBoundsRelevant:true HLODRelevant:true FolderPath:Playground FolderGuid:6C02BB504B69D1F3D7A624B130C18E5B Parent:00000000000000000000000000000000
   |      - Guid:D3359C9442DD456421EB65A54F91DDDF Class:StaticMeshActor Name:StaticMeshActor_UAID_244BFEDF890F411A01_1967335067 SpatiallyLoaded:true Bounds:IsValid=true, Min=(X=2020.000 Y=1680.000 Z=0.000), Max=(X=2600.000 Y=1700.000 Z=400.000) RuntimeGrid:None EditorOnly:false LevelBoundsRelevant:true HLODRelevant:true FolderPath:Playground FolderGuid:6C02BB504B69D1F3D7A624B130C18E5B Parent:00000000000000000000000000000000
   |      - Guid:D5E0BC3A472C9A5822B2CFBE61E91259 Class:StaticMeshActor Name:StaticMeshActor_UAID_244BFEDF890F301B01_2073673159 SpatiallyLoaded:true Bounds:IsValid=true, Min=(X=2077.309 Y=1067.981 Z=106.340), Max=(X=2124.280 Y=1099.451 Z=122.274) RuntimeGrid:None EditorOnly:false LevelBoundsRelevant:true HLODRelevant:true FolderPath:CadeiraMesa FolderGuid:0DA7D1464550668ACBD977B7FAB9B382 Parent:00000000000000000000000000000000
   |      - Guid:DC877A4F45779BDBA585B6A1B33F1429 Class:StaticMeshActor Name:StaticMeshActor_UAID_244BFEDF890F301B01_1871594140 SpatiallyLoaded:true Bounds:IsValid=true, Min=(X=2.449 Y=2340.712 Z=49.442), Max=(X=11.185 Y=2361.477 Z=70.207) RuntimeGrid:None EditorOnly:false LevelBoundsRelevant:true HLODRelevant:true FolderPath:Maca FolderGuid:D0B87D0A42E084B077B4DFAAF8CB7C55 Parent:00000000000000000000000000000000
   |      - Guid:DC8ACEDD45C0793353403B9DB34A9A4A Class:StaticMeshActor Name:StaticMeshActor_UAID_244BFEDF890F301B01_1871621142 SpatiallyLoaded:true Bounds:IsValid=true, Min=(X=135.118 Y=2075.732 Z=57.812), Max=(X=146.099 Y=2079.497 Z=61.577) RuntimeGrid:None EditorOnly:false LevelBoundsRelevant:true HLODRelevant:true FolderPath:Maca FolderGuid:D0B87D0A42E084B077B4DFAAF8CB7C55 Parent:00000000000000000000000000000000
   |      - Guid:E33A85EF4E36A7CF447DD8AEA2FD94D7 Class:StaticMeshActor Name:StaticMeshActor_UAID_244BFEDF890F301B01_1376234132 SpatiallyLoaded:true Bounds:IsValid=true, Min=(X=187.146 Y=689.849 Z=387.926), Max=(X=191.595 Y=772.741 Z=393.186) RuntimeGrid:None EditorOnly:false LevelBoundsRelevant:true HLODRelevant:true FolderPath:Lampadas FolderGuid:933806E048236518BD5F28AFD3B1360B Parent:00000000000000000000000000000000
   |      - Guid:E34BDC92487D3DBF17927983AF1F1C31 Class:StaticMeshActor Name:StaticMeshActor_UAID_244BFEDF890F301B01_2073660158 SpatiallyLoaded:true Bounds:IsValid=true, Min=(X=2077.309 Y=1067.981 Z=106.340), Max=(X=2124.280 Y=1099.451 Z=122.274) RuntimeGrid:None EditorOnly:false LevelBoundsRelevant:true HLODRelevant:true FolderPath:CadeiraMesa FolderGuid:0DA7D1464550668ACBD977B7FAB9B382 Parent:00000000000000000000000000000000
   |      - Guid:E3AA3D074B16FCB86C952FA8497A8870 Class:StaticMeshActor Name:StaticMeshActor_UAID_244BFEDF890F411A01_1967615083 SpatiallyLoaded:true Bounds:IsValid=true, Min=(X=2000.000 Y=-20.000 Z=-0.000), Max=(X=2020.000 Y=3600.000 Z=400.000) RuntimeGrid:None EditorOnly:false LevelBoundsRelevant:true HLODRelevant:true FolderPath:Playground FolderGuid:6C02BB504B69D1F3D7A624B130C18E5B Parent:00000000000000000000000000000000
   |      - Guid:E5320C1B4FD9764CE7B54D8487AEC613 Class:SkyLight Name:SkyLight_0 SpatiallyLoaded:false Bounds:IsValid=true, Min=(X=0.000 Y=0.000 Z=690.000), Max=(X=0.000 Y=0.000 Z=690.000) RuntimeGrid:None EditorOnly:false LevelBoundsRelevant:false HLODRelevant:false FolderPath:Lighting FolderGuid:0BA5F0A04EADB18E70D5B180D08FA34B Parent:00000000000000000000000000000000
   |      - Guid:E692C52E4289ABCAA4B2199CC47C6458 Class:StaticMeshActor Name:StaticMeshActor_UAID_244BFEDF890F411A01_1967296065 SpatiallyLoaded:true Bounds:IsValid=true, Min=(X=2020.000 Y=980.000 Z=0.000), Max=(X=2600.000 Y=1000.000 Z=400.000) RuntimeGrid:None EditorOnly:false LevelBoundsRelevant:true HLODRelevant:true FolderPath:Playground FolderGuid:6C02BB504B69D1F3D7A624B130C18E5B Parent:00000000000000000000000000000000
   |      - Guid:E7B803CD463962A6F2B6FCAB032A9B76 Class:StaticMeshActor Name:StaticMeshActor_UAID_244BFEDF890F411A01_1967673086 SpatiallyLoaded:true Bounds:IsValid=true, Min=(X=-600.000 Y=2900.000 Z=0.000), Max=(X=-20.000 Y=2920.000 Z=400.000) RuntimeGrid:None EditorOnly:false LevelBoundsRelevant:true HLODRelevant:true FolderPath:Playground FolderGuid:6C02BB504B69D1F3D7A624B130C18E5B Parent:00000000000000000000000000000000
   |      - Guid:EE66F4454A4A9F99393F559AB739C05E Class:Actor Name:BP_Rifle_C_1 SpatiallyLoaded:true Bounds:IsValid=true, Min=(X=1378.000 Y=928.000 Z=968.000), Max=(X=1442.000 Y=992.000 Z=1032.000) RuntimeGrid:None EditorOnly:false LevelBoundsRelevant:true HLODRelevant:false FolderPath:None FolderGuid:00000000000000000000000000000000 Parent:00000000000000000000000000000000
   |      - Guid:F7F491F74134E0769E054997A4E049CA Class:StaticMeshActor Name:StaticMeshActor_UAID_244BFEDF890F301B01_2073561151 SpatiallyLoaded:true Bounds:IsValid=true, Min=(X=2065.901 Y=1084.883 Z=50.741), Max=(X=2089.261 Y=1120.786 Z=159.251) RuntimeGrid:None EditorOnly:false LevelBoundsRelevant:true HLODRelevant:true FolderPath:CadeiraMesa FolderGuid:0DA7D1464550668ACBD977B7FAB9B382 Parent:00000000000000000000000000000000
   |      - Guid:F80621C9446867154938FE81375207DA Class:DirectionalLight Name:DirectionalLight_1 SpatiallyLoaded:false Bounds:IsValid=true, Min=(X=-1048576.000 Y=-1048576.000 Z=-1048576.000), Max=(X=1048576.000 Y=1048576.000 Z=1048576.000) RuntimeGrid:None EditorOnly:false LevelBoundsRelevant:false HLODRelevant:false FolderPath:Lighting FolderGuid:0BA5F0A04EADB18E70D5B180D08FA34B Parent:00000000000000000000000000000000
   |      - Guid:F928480C40E1416E9F7B81B09A1B1F60 Class:StaticMeshActor Name:StaticMeshActor_UAID_244BFEDF890F301B01_1871677146 SpatiallyLoaded:true Bounds:IsValid=true, Min=(X=2.449 Y=2067.828 Z=50.132), Max=(X=11.185 Y=2088.592 Z=70.896) RuntimeGrid:None EditorOnly:false LevelBoundsRelevant:true HLODRelevant:true FolderPath:Maca FolderGuid:D0B87D0A42E084B077B4DFAAF8CB7C55 Parent:00000000000000000000000000000000
   |      - Guid:FA532B90421BEC82BA4279A1362F19C1 Class:StaticMeshActor Name:StaticMeshActor_UAID_244BFEDF890F311B01_1075833338 SpatiallyLoaded:true Bounds:IsValid=true, Min=(X=2205.219 Y=1041.948 Z=154.035), Max=(X=2206.665 Y=1088.961 Z=172.374) RuntimeGrid:None EditorOnly:false LevelBoundsRelevant:true HLODRelevant:true FolderPath:CadeiraMesa FolderGuid:0DA7D1464550668ACBD977B7FAB9B382 Parent:00000000000000000000000000000000
   |      - Guid:FEE454664996A457EA9EEC916E6FF825 Class:StaticMeshActor Name:StaticMeshActor_UAID_244BFEDF890F301B01_1871635143 SpatiallyLoaded:true Bounds:IsValid=true, Min=(X=1.638 Y=2075.732 Z=57.812), Max=(X=12.619 Y=2079.497 Z=61.577) RuntimeGrid:None EditorOnly:false LevelBoundsRelevant:true HLODRelevant:true FolderPath:Maca FolderGuid:D0B87D0A42E084B077B4DFAAF8CB7C55 Parent:00000000000000000000000000000000
   |      - Guid:FF23E65E4FA7EC4166D202A0333A8418 Class:StaticMeshActor Name:StaticMeshActor_UAID_244BFEDF890F301B01_1871608141 SpatiallyLoaded:true Bounds:IsValid=true, Min=(X=1.638 Y=2348.616 Z=57.122), Max=(X=12.619 Y=2352.381 Z=60.887) RuntimeGrid:None EditorOnly:false LevelBoundsRelevant:true HLODRelevant:true FolderPath:Maca FolderGuid:D0B87D0A42E084B077B4DFAAF8CB7C55 Parent:00000000000000000000000000000000
