Containers:
  [+] MainContainer:
   |            ID: 0x0000000000000000
   |        Bounds: IsValid=false, Min=(X=0.000 Y=0.000 Z=0.000), Max=(X=0.000 Y=0.000 Z=0.000)
   |     Transform: 0.000000,0.000000,0.000000|0.000000,0.000000,-0.000000|1.000000,1.000000,1.000000
   |     Container: /Game/FirstPerson/Maps/FirstPersonMap
   |  ActorDescs:
   |      - Guid:008F3B7F4AFB6D4FE4C782A767ABD3C9 Class:StaticMeshActor Name:StaticMeshActor_UAID_244BFEDF890FC71C01_1684268763 SpatiallyLoaded:true Bounds:IsValid=true, Min=(X=2020.000 Y=2380.000 Z=-0.000), Max=(X=2600.000 Y=2400.000 Z=400.000) RuntimeGrid:None EditorOnly:false LevelBoundsRelevant:true HLODRelevant:true FolderPath:Playground FolderGuid:6C02BB504B69D1F3D7A624B130C18E5B Parent:00000000000000000000000000000000
   |      - Guid:0A75C0FE4D02DEAA2B694682E8E3E5EF Class:StaticMeshActor Name:StaticMeshActor_UAID_244BFEDF890FC71C01_1684382771 SpatiallyLoaded:true Bounds:IsValid=true, Min=(X=2600.000 Y=980.000 Z=-0.000), Max=(X=2620.000 Y=1520.000 Z=400.000) RuntimeGrid:None EditorOnly:false LevelBoundsRelevant:true HLODRelevant:true FolderPath:Playground FolderGuid:6C02BB504B69D1F3D7A624B130C18E5B Parent:00000000000000000000000000000000
   |      - Guid:0C027FC64F70B37478BD7EBC95FF0195 Class:StaticMeshActor Name:StaticMeshActor_UAID_244BFEDF890FC71C01_1684510780 SpatiallyLoaded:true Bounds:IsValid=true, Min=(X=-600.000 Y=2900.000 Z=0.000), Max=(X=-20.000 Y=2920.000 Z=400.000) RuntimeGrid:None EditorOnly:false LevelBoundsRelevant:true HLODRelevant:true FolderPath:Playground FolderGuid:6C02BB504B69D1F3D7A624B130C18E5B Parent:00000000000000000000000000000000
   |      - Guid:21262252453B37957EF29F82ABA2413B Class:TextRenderActor Name:TextRenderActor_1 SpatiallyLoaded:true Bounds:IsValid=true, Min=(X=-642.522 Y=1100.000 Z=65.013), Max=(X=-642.522 Y=2363.461 Z=215.013) RuntimeGrid:None EditorOnly:false LevelBoundsRelevant:true HLODRelevant:false FolderPath:None FolderGuid:00000000000000000000000000000000 Parent:00000000000000000000000000000000
   |      - Guid:273C2CC5412D9EB92B7A5F9FA92BCE03 Class:StaticMeshActor Name:StaticMeshActor_UAID_244BFEDF890FC71C01_1684353769 SpatiallyLoaded:true Bounds:IsValid=true, Min=(X=-620.000 Y=980.000 Z=-0.000), Max=(X=-600.000 Y=1520.000 Z=400.000) RuntimeGrid:None EditorOnly:false LevelBoundsRelevant:true HLODRelevant:true FolderPath:Playground FolderGuid:6C02BB504B69D1F3D7A624B130C18E5B Parent:00000000000000000000000000000000
   |      - Guid:2AEA77BC480E3F75D5346C9A9DCE3BAE Class:Actor Name:BP_PortaMetal_C_UAID_244BFEDF890FB71C01_2033554941 SpatiallyLoaded:true Bounds:IsValid=true, Min=(X=1906.000 Y=1859.000 Z=50.000), Max=(X=2114.000 Y=2038.000 Z=325.000) RuntimeGrid:None EditorOnly:false LevelBoundsRelevant:true HLODRelevant:false FolderPath:PortasMetalOposto FolderGuid:BAF1D96E45B523E6867C0F97CFFB56C1 Parent:00000000000000000000000000000000
   |      - Guid:37352E884C99F2E5D58AA78967821FFD Class:Actor Name:BP_PortaMetal_C_UAID_244BFEDF890FB81C01_1428872121 SpatiallyLoaded:true Bounds:IsValid=true, Min=(X=1486.000 Y=2262.000 Z=50.000), Max=(X=1694.000 Y=2441.000 Z=325.000) RuntimeGrid:None EditorOnly:false LevelBoundsRelevant:true HLODRelevant:false FolderPath:PortasMetalNecroterio FolderGuid:8762A59C4EAD95AF9754BA896C3AE7A6 Parent:00000000000000000000000000000000
   |      - Guid:3AC46EA84C719A524D6A5DB493FCC001 Class:StaticMeshActor Name:StaticMeshActor_UAID_244BFEDF890FC71C01_1684197758 SpatiallyLoaded:true Bounds:IsValid=true, Min=(X=-600.000 Y=500.000 Z=-0.000), Max=(X=-20.000 Y=520.000 Z=400.000) RuntimeGrid:None EditorOnly:false LevelBoundsRelevant:true HLODRelevant:true FolderPath:Playground FolderGuid:6C02BB504B69D1F3D7A624B130C18E5B Parent:00000000000000000000000000000000
   |      - Guid:3B5790934D372E137B75AF82C62918D7 Class:StaticMeshActor Name:StaticMeshActor_UAID_244BFEDF890FC71C01_1684425774 SpatiallyLoaded:true Bounds:IsValid=true, Min=(X=1480.000 Y=3600.000 Z=-0.000), Max=(X=2020.000 Y=3620.000 Z=400.000) RuntimeGrid:None EditorOnly:false LevelBoundsRelevant:true HLODRelevant:true FolderPath:Playground FolderGuid:6C02BB504B69D1F3D7A624B130C18E5B Parent:00000000000000000000000000000000
   |      - Guid:40FD2BB24244799A9A2AD9A7C0DBE424 Class:Actor Name:BP_PortaMetal_C_UAID_244BFEDF890FB81C01_1293476120 SpatiallyLoaded:true Bounds:IsValid=true, Min=(X=1664.000 Y=2906.000 Z=50.000), Max=(X=1843.000 Y=3114.000 Z=325.000) RuntimeGrid:None EditorOnly:false LevelBoundsRelevant:true HLODRelevant:false FolderPath:PortasMetalFundo FolderGuid:A67102E142E574C2B23AA387B1C8EBE4 Parent:00000000000000000000000000000000
   |      - Guid:43F2CA084E59DCAB6F3032B41CA1A29F Class:StaticMeshActor Name:StaticMeshActor_UAID_244BFEDF890FC71C01_1684282764 SpatiallyLoaded:true Bounds:IsValid=true, Min=(X=2020.000 Y=2900.000 Z=-0.000), Max=(X=2600.000 Y=2920.000 Z=400.000) RuntimeGrid:None EditorOnly:false LevelBoundsRelevant:true HLODRelevant:true FolderPath:Playground FolderGuid:6C02BB504B69D1F3D7A624B130C18E5B Parent:00000000000000000000000000000000
   |      - Guid:4D537AC94C5D6BFA212CC5BC076CE353 Class:Actor Name:BP_PortaMetal_C_UAID_244BFEDF890FB71C01_1799819937 SpatiallyLoaded:true Bounds:IsValid=true, Min=(X=-114.000 Y=1165.000 Z=50.000), Max=(X=94.000 Y=1344.000 Z=325.000) RuntimeGrid:None EditorOnly:false LevelBoundsRelevant:true HLODRelevant:false FolderPath:PortasMetalSpawn FolderGuid:007B29964E565AD7015CB894A926EA2B Parent:00000000000000000000000000000000
   |      - Guid:51E3A9D247E6C1FD88FAEC9A6DA972D0 Class:StaticMeshActor Name:StaticMeshActor_UAID_244BFEDF890FC71C01_1684211759 SpatiallyLoaded:true Bounds:IsValid=true, Min=(X=2020.000 Y=980.000 Z=-0.000), Max=(X=2600.000 Y=1000.000 Z=400.000) RuntimeGrid:None EditorOnly:false LevelBoundsRelevant:true HLODRelevant:true FolderPath:Playground FolderGuid:6C02BB504B69D1F3D7A624B130C18E5B Parent:00000000000000000000000000000000
   |      - Guid:525A168D4FD670B04C01D3B16DF6A078 Class:StaticMeshActor Name:StaticMeshActor_UAID_244BFEDF890FC71C01_1684254762 SpatiallyLoaded:true Bounds:IsValid=true, Min=(X=2020.000 Y=2200.000 Z=-0.000), Max=(X=2600.000 Y=2220.000 Z=400.000) RuntimeGrid:None EditorOnly:false LevelBoundsRelevant:true HLODRelevant:true FolderPath:Playground FolderGuid:6C02BB504B69D1F3D7A624B130C18E5B Parent:00000000000000000000000000000000
   |      - Guid:5635BEC147B45D365B2AF18360797442 Class:Actor Name:BP_PortaMetal_C_UAID_244BFEDF890FB71C01_1929777940 SpatiallyLoaded:true Bounds:IsValid=true, Min=(X=1906.000 Y=2559.000 Z=50.000), Max=(X=2114.000 Y=2738.000 Z=325.000) RuntimeGrid:None EditorOnly:false LevelBoundsRelevant:true HLODRelevant:false FolderPath:PortasMetalOposto FolderGuid:BAF1D96E45B523E6867C0F97CFFB56C1 Parent:00000000000000000000000000000000
   |      - Guid:5DF161994CC5D7C2DCF4B185C3C7C489 Class:StaticMeshActor Name:StaticMeshActor_UAID_244BFEDF890FC71C01_1684482778 SpatiallyLoaded:true Bounds:IsValid=true, Min=(X=-0.000 Y=3000.000 Z=-0.000), Max=(X=2000.000 Y=3020.000 Z=400.000) RuntimeGrid:None EditorOnly:false LevelBoundsRelevant:true HLODRelevant:true FolderPath:Playground FolderGuid:6C02BB504B69D1F3D7A624B130C18E5B Parent:00000000000000000000000000000000
   |      - Guid:5FE7584649BB6F09265329A6C57CFD0D Class:VolumetricCloud Name:VolumetricCloud_0 SpatiallyLoaded:false Bounds:IsValid=true, Min=(X=0.000 Y=0.000 Z=820.000), Max=(X=0.000 Y=0.000 Z=820.000) RuntimeGrid:None EditorOnly:false LevelBoundsRelevant:false HLODRelevant:false FolderPath:Lighting FolderGuid:0BA5F0A04EADB18E70D5B180D08FA34B Parent:00000000000000000000000000000000
   |      - Guid:61391D344900612A77DFC3BA3E354907 Class:ExponentialHeightFog Name:ExponentialHeightFog_0 SpatiallyLoaded:false Bounds:IsValid=true, Min=(X=-5600.000 Y=-50.000 Z=-6850.000), Max=(X=-5600.000 Y=-50.000 Z=-6850.000) RuntimeGrid:None EditorOnly:false LevelBoundsRelevant:false HLODRelevant:false FolderPath:Lighting FolderGuid:0BA5F0A04EADB18E70D5B180D08FA34B Parent:00000000000000000000000000000000
   |      - Guid:67A1059646642D95E5E44299C7472B69 Class:StaticMeshActor Name:StaticMeshActor_UAID_244BFEDF890FC71C01_1684090751 SpatiallyLoaded:true Bounds:IsValid=true, Min=(X=0.000 Y=0.000 Z=-0.000), Max=(X=2000.000 Y=3000.000 Z=50.000) RuntimeGrid:None EditorOnly:false LevelBoundsRelevant:true HLODRelevant:true FolderPath:Playground FolderGuid:6C02BB504B69D1F3D7A624B130C18E5B Parent:00000000000000000000000000000000
   |      - Guid:6B046BAD4C13FEFC5E0AE1A23EDB6949 Class:Actor Name:BP_PortaMetal_C_UAID_244BFEDF890FB81C01_1203987119 SpatiallyLoaded:true Bounds:IsValid=true, Min=(X=164.000 Y=2906.000 Z=50.000), Max=(X=343.000 Y=3114.000 Z=325.000) RuntimeGrid:None EditorOnly:false LevelBoundsRelevant:true HLODRelevant:false FolderPath:PortasMetalFundo FolderGuid:A67102E142E574C2B23AA387B1C8EBE4 Parent:00000000000000000000000000000000
   |      - Guid:6FEFB3BD4EB37B849EF0D4AC80F83855 Class:WorldDataLayers Name:WorldDataLayers SpatiallyLoaded:false Bounds:IsValid=true, Min=(X=0.000 Y=0.000 Z=0.000), Max=(X=0.000 Y=0.000 Z=0.000) RuntimeGrid:None EditorOnly:false LevelBoundsRelevant:false HLODRelevant:false FolderPath:None FolderGuid:00000000000000000000000000000000 Parent:00000000000000000000000000000000
   |      - Guid:77F8F7A74ACCA7FA20557CBA3BDB0481 Class:Actor Name:BP_LanternaGrande_C_UAID_244BFEDF890FA31901_1434755248 SpatiallyLoaded:true Bounds:IsValid=true, Min=(X=2355.200 Y=1205.200 Z=105.200), Max=(X=2444.800 Y=1294.800 Z=194.800) RuntimeGrid:None EditorOnly:false LevelBoundsRelevant:true HLODRelevant:false FolderPath:None FolderGuid:00000000000000000000000000000000 Parent:00000000000000000000000000000000
   |      - Guid:789728734DA39FCED770838CD00A0619 Class:StaticMeshActor Name:StaticMeshActor_UAID_244BFEDF890FC71C01_1684310766 SpatiallyLoaded:true Bounds:IsValid=true, Min=(X=500.000 Y=3020.000 Z=-0.000), Max=(X=520.000 Y=3600.000 Z=400.000) RuntimeGrid:None EditorOnly:false LevelBoundsRelevant:true HLODRelevant:true FolderPath:Playground FolderGuid:6C02BB504B69D1F3D7A624B130C18E5B Parent:00000000000000000000000000000000
   |      - Guid:78C51267446D4314552E579F683616B7 Class:StaticMeshActor Name:StaticMeshActor_UAID_244BFEDF890FC71C01_1684153755 SpatiallyLoaded:true Bounds:IsValid=true, Min=(X=-600.000 Y=1500.000 Z=-0.000), Max=(X=-20.000 Y=1520.000 Z=400.000) RuntimeGrid:None EditorOnly:false LevelBoundsRelevant:true HLODRelevant:true FolderPath:Playground FolderGuid:6C02BB504B69D1F3D7A624B130C18E5B Parent:00000000000000000000000000000000
   |      - Guid:7AF72EE94C0D8CCFEB273BB931931EF1 Class:StaticMeshActor Name:StaticMeshActor_UAID_244BFEDF890FC71C01_1684140754 SpatiallyLoaded:true Bounds:IsValid=true, Min=(X=-600.000 Y=1680.000 Z=-0.000), Max=(X=-20.000 Y=1700.000 Z=400.000) RuntimeGrid:None EditorOnly:false LevelBoundsRelevant:true HLODRelevant:true FolderPath:Playground FolderGuid:6C02BB504B69D1F3D7A624B130C18E5B Parent:00000000000000000000000000000000
   |      - Guid:818EB3EB49852944833D49BB4F70D492 Class:StaticMeshActor Name:StaticMeshActor_UAID_244BFEDF890FC71C01_1684226760 SpatiallyLoaded:true Bounds:IsValid=true, Min=(X=2020.000 Y=1500.000 Z=-0.000), Max=(X=2600.000 Y=1520.000 Z=400.000) RuntimeGrid:None EditorOnly:false LevelBoundsRelevant:true HLODRelevant:true FolderPath:Playground FolderGuid:6C02BB504B69D1F3D7A624B130C18E5B Parent:00000000000000000000000000000000
   |      - Guid:83BA84BC40F5F4F550BF1DA5B58FDE24 Class:StaticMeshActor Name:StaticMeshActor_UAID_244BFEDF890FC71C01_1684325767 SpatiallyLoaded:true Bounds:IsValid=true, Min=(X=-620.000 Y=2380.000 Z=-0.000), Max=(X=-600.000 Y=2920.000 Z=400.000) RuntimeGrid:None EditorOnly:false LevelBoundsRelevant:true HLODRelevant:true FolderPath:Playground FolderGuid:6C02BB504B69D1F3D7A624B130C18E5B Parent:00000000000000000000000000000000
   |      - Guid:871139334CEE6B8D45EF0CB7B6A8FB13 Class:StaticMeshActor Name:StaticMeshActor_UAID_244BFEDF890FC71C01_1684439775 SpatiallyLoaded:true Bounds:IsValid=true, Min=(X=-20.000 Y=3600.000 Z=-0.000), Max=(X=520.000 Y=3620.000 Z=400.000) RuntimeGrid:None EditorOnly:false LevelBoundsRelevant:true HLODRelevant:true FolderPath:Playground FolderGuid:6C02BB504B69D1F3D7A624B130C18E5B Parent:00000000000000000000000000000000
   |      - Guid:8A21BE7E46E53A0B82DF8D84627B4B78 Class:StaticMeshActor Name:StaticMeshActor_UAID_244BFEDF890FC71C01_1684496779 SpatiallyLoaded:true Bounds:IsValid=true, Min=(X=-600.000 Y=-20.000 Z=-0.000), Max=(X=2000.000 Y=0.000 Z=400.000) RuntimeGrid:None EditorOnly:false LevelBoundsRelevant:true HLODRelevant:true FolderPath:Playground FolderGuid:6C02BB504B69D1F3D7A624B130C18E5B Parent:00000000000000000000000000000000
   |      - Guid:8B4549D84A44462ECA2DDD9B2C83BAF7 Class:StaticMeshActor Name:StaticMeshActor_UAID_244BFEDF890FC71C01_1684367770 SpatiallyLoaded:true Bounds:IsValid=true, Min=(X=-620.000 Y=-20.000 Z=-0.000), Max=(X=-600.000 Y=520.000 Z=400.000) RuntimeGrid:None EditorOnly:false LevelBoundsRelevant:true HLODRelevant:true FolderPath:Playground FolderGuid:6C02BB504B69D1F3D7A624B130C18E5B Parent:00000000000000000000000000000000
   |      - Guid:95C4E6E948F9B338A5FBD79873D6A8D6 Class:StaticMeshActor Name:StaticMeshActor_UAID_244BFEDF890FC71C01_1684467777 SpatiallyLoaded:true Bounds:IsValid=true, Min=(X=2000.000 Y=-20.000 Z=-0.000), Max=(X=2020.000 Y=3600.000 Z=400.000) RuntimeGrid:None EditorOnly:false LevelBoundsRelevant:true HLODRelevant:true FolderPath:Playground FolderGuid:6C02BB504B69D1F3D7A624B130C18E5B Parent:00000000000000000000000000000000
   |      - Guid:998246C24DCB981DAFE175AE4E75C866 Class:StaticMeshActor Name:StaticMeshActor_UAID_244BFEDF890F621C01_1644994979 SpatiallyLoaded:true Bounds:IsValid=true, Min=(X=975.000 Y=-10.000 Z=50.000), Max=(X=1100.000 Y=20.000 Z=300.000) RuntimeGrid:None EditorOnly:false LevelBoundsRelevant:true HLODRelevant:true FolderPath:PortasMadeira FolderGuid:354B99B749BAC3243C0C1D8964C4884C Parent:00000000000000000000000000000000
   |      - Guid:A354B1B24E617A525DC6B48CCDE2417E Class:PlayerStart Name:PlayerStart_0 SpatiallyLoaded:false Bounds:IsValid=true, Min=(X=-570.000 Y=210.000 Z=103.548), Max=(X=-490.000 Y=290.000 Z=287.548) RuntimeGrid:None EditorOnly:false LevelBoundsRelevant:true HLODRelevant:false FolderPath:None FolderGuid:00000000000000000000000000000000 Parent:00000000000000000000000000000000
   |      - Guid:A96686CC47948FECC53CC5887E80806D Class:StaticMeshActor Name:StaticMeshActor_UAID_244BFEDF890FC71C01_1684296765 SpatiallyLoaded:true Bounds:IsValid=true, Min=(X=1480.000 Y=3020.000 Z=-0.000), Max=(X=1500.000 Y=3600.000 Z=400.000) RuntimeGrid:None EditorOnly:false LevelBoundsRelevant:true HLODRelevant:true FolderPath:Playground FolderGuid:6C02BB504B69D1F3D7A624B130C18E5B Parent:00000000000000000000000000000000
   |      - Guid:ADD4B6414151569908702AAD8E0BCA31 Class:StaticMeshActor Name:StaticMeshActor_UAID_244BFEDF890FC71C01_1684168756 SpatiallyLoaded:true Bounds:IsValid=true, Min=(X=-600.000 Y=980.000 Z=-0.000), Max=(X=-20.000 Y=1000.000 Z=400.000) RuntimeGrid:None EditorOnly:false LevelBoundsRelevant:true HLODRelevant:true FolderPath:Playground FolderGuid:6C02BB504B69D1F3D7A624B130C18E5B Parent:00000000000000000000000000000000
   |      - Guid:BCFD90BB475350DEEDEF64B1535D583F Class:StaticMeshActor Name:StaticMeshActor_UAID_244BFEDF890FC71C01_1684109752 SpatiallyLoaded:true Bounds:IsValid=true, Min=(X=400.000 Y=1000.000 Z=50.000), Max=(X=1600.000 Y=2600.000 Z=400.000) RuntimeGrid:None EditorOnly:false LevelBoundsRelevant:true HLODRelevant:true FolderPath:Playground FolderGuid:6C02BB504B69D1F3D7A624B130C18E5B Parent:00000000000000000000000000000000
   |      - Guid:BDDF3AC640154940F9942E9CF5331E56 Class:Actor Name:BP_LanternaMedia_C_UAID_244BFEDF890F331A01_2066503591 SpatiallyLoaded:true Bounds:IsValid=true, Min=(X=-238.080 Y=211.920 Z=111.920), Max=(X=-161.920 Y=288.080 Z=188.080) RuntimeGrid:None EditorOnly:false LevelBoundsRelevant:true HLODRelevant:false FolderPath:None FolderGuid:00000000000000000000000000000000 Parent:00000000000000000000000000000000
   |      - Guid:BF65B1F0465AC151EF652E9A025DA288 Class:Actor Name:BP_PortaMetal_C_UAID_244BFEDF890FB81C01_1459454122 SpatiallyLoaded:true Bounds:IsValid=true, Min=(X=306.000 Y=1159.000 Z=50.000), Max=(X=514.000 Y=1338.000 Z=325.000) RuntimeGrid:None EditorOnly:false LevelBoundsRelevant:true HLODRelevant:false FolderPath:PortasMetalNecroterio FolderGuid:8762A59C4EAD95AF9754BA896C3AE7A6 Parent:00000000000000000000000000000000
   |      - Guid:C06C0A124580ACF8395E3984450EC33B Class:StaticMeshActor Name:StaticMeshActor_UAID_244BFEDF890FC71C01_1684411773 SpatiallyLoaded:true Bounds:IsValid=true, Min=(X=2600.000 Y=2380.000 Z=-0.000), Max=(X=2620.000 Y=2920.000 Z=400.000) RuntimeGrid:None EditorOnly:false LevelBoundsRelevant:true HLODRelevant:true FolderPath:Playground FolderGuid:6C02BB504B69D1F3D7A624B130C18E5B Parent:00000000000000000000000000000000
   |      - Guid:C0C56B9644AE3D40CAFF6A878DB29844 Class:StaticMeshActor Name:StaticMeshActor_UAID_A4AE111137DC5EFB00_2001720423 SpatiallyLoaded:true Bounds:IsValid=true, Min=(X=-1638400.000 Y=-1638400.000 Z=-1638400.000), Max=(X=1638400.000 Y=1638400.000 Z=1638400.000) RuntimeGrid:None EditorOnly:false LevelBoundsRelevant:true HLODRelevant:true FolderPath:Lighting FolderGuid:0BA5F0A04EADB18E70D5B180D08FA34B Parent:00000000000000000000000000000000
   |      - Guid:C139357D446EE08D71B7F79CE740B435 Class:StaticMeshActor Name:StaticMeshActor_UAID_244BFEDF890FC71C01_1684240761 SpatiallyLoaded:true Bounds:IsValid=true, Min=(X=2020.000 Y=1680.000 Z=-0.000), Max=(X=2600.000 Y=1700.000 Z=400.000) RuntimeGrid:None EditorOnly:false LevelBoundsRelevant:true HLODRelevant:true FolderPath:Playground FolderGuid:6C02BB504B69D1F3D7A624B130C18E5B Parent:00000000000000000000000000000000
   |      - Guid:C22CE07C4B87D685137FDBBC10FC92C6 Class:SkyAtmosphere Name:SkyAtmosphere_0 SpatiallyLoaded:false Bounds:IsValid=true, Min=(X=0.000 Y=0.000 Z=1020.000), Max=(X=0.000 Y=0.000 Z=1020.000) RuntimeGrid:None EditorOnly:false LevelBoundsRelevant:false HLODRelevant:false FolderPath:Lighting FolderGuid:0BA5F0A04EADB18E70D5B180D08FA34B Parent:00000000000000000000000000000000
   |      - Guid:C583A5684652258B0C03DA8D1127A9AE Class:StaticMeshActor Name:StaticMeshActor_UAID_244BFEDF890F621C01_1298549975 SpatiallyLoaded:true Bounds:IsValid=true, Min=(X=950.000 Y=-12.750 Z=50.000), Max=(X=1250.000 Y=22.250 Z=325.000) RuntimeGrid:None EditorOnly:false LevelBoundsRelevant:true HLODRelevant:true FolderPath:PortasMadeira FolderGuid:354B99B749BAC3243C0C1D8964C4884C Parent:00000000000000000000000000000000
   |      - Guid:C9B346C3491CACA98D795C8DE9AF294E Class:Actor Name:BP_PortaMetal_C_UAID_244BFEDF890FB71C01_1888597939 SpatiallyLoaded:true Bounds:IsValid=true, Min=(X=-114.000 Y=2564.000 Z=50.000), Max=(X=94.000 Y=2743.000 Z=325.000) RuntimeGrid:None EditorOnly:false LevelBoundsRelevant:true HLODRelevant:false FolderPath:PortasMetalSpawn FolderGuid:007B29964E565AD7015CB894A926EA2B Parent:00000000000000000000000000000000
   |      - Guid:CE8D82634660FCDB3120E2B8D547C533 Class:PostProcessVolume Name:PostProcessVolume_0 SpatiallyLoaded:false Bounds:IsValid=true, Min=(X=-100.000 Y=2900.000 Z=-150.000), Max=(X=100.000 Y=3100.000 Z=50.000) RuntimeGrid:None EditorOnly:false LevelBoundsRelevant:false HLODRelevant:false FolderPath:Lighting FolderGuid:0BA5F0A04EADB18E70D5B180D08FA34B Parent:00000000000000000000000000000000
   |      - Guid:CE96A4EE499D3E62C687B3881BBE5DAF Class:StaticMeshActor Name:StaticMeshActor_UAID_244BFEDF890F3D1701_1538614183 SpatiallyLoaded:true Bounds:IsValid=true, Min=(X=-730.000 Y=-600.000 Z=400.000), Max=(X=4270.000 Y=4400.000 Z=450.000) RuntimeGrid:None EditorOnly:false LevelBoundsRelevant:true HLODRelevant:true FolderPath:Playground FolderGuid:6C02BB504B69D1F3D7A624B130C18E5B Parent:00000000000000000000000000000000
   |      - Guid:D0DCCDE64C00C96C9E9ACD8522CCC8C5 Class:Actor Name:BP_PortaMetal_C_UAID_244BFEDF890FB71C01_1477904936 SpatiallyLoaded:true Bounds:IsValid=true, Min=(X=-114.000 Y=163.000 Z=50.000), Max=(X=94.000 Y=342.000 Z=325.000) RuntimeGrid:None EditorOnly:false LevelBoundsRelevant:true HLODRelevant:false FolderPath:PortasMetalSpawn FolderGuid:007B29964E565AD7015CB894A926EA2B Parent:00000000000000000000000000000000
   |      - Guid:E38B199845C8A6C706D86FA10D1B839B Class:StaticMeshActor Name:StaticMeshActor_UAID_244BFEDF890FC71C01_1684526781 SpatiallyLoaded:true Bounds:IsValid=true, Min=(X=-600.000 Y=0.000 Z=-0.001), Max=(X=2600.000 Y=3600.000 Z=50.000) RuntimeGrid:None EditorOnly:false LevelBoundsRelevant:true HLODRelevant:true FolderPath:Playground FolderGuid:6C02BB504B69D1F3D7A624B130C18E5B Parent:00000000000000000000000000000000
   |      - Guid:E5320C1B4FD9764CE7B54D8487AEC613 Class:SkyLight Name:SkyLight_0 SpatiallyLoaded:false Bounds:IsValid=true, Min=(X=0.000 Y=0.000 Z=690.000), Max=(X=0.000 Y=0.000 Z=690.000) RuntimeGrid:None EditorOnly:false LevelBoundsRelevant:false HLODRelevant:false FolderPath:Lighting FolderGuid:0BA5F0A04EADB18E70D5B180D08FA34B Parent:00000000000000000000000000000000
   |      - Guid:EAE51E414626998FCC24E0959201D58A Class:Actor Name:BP_PortaMetal_C_UAID_244BFEDF890FB71C01_1855327938 SpatiallyLoaded:true Bounds:IsValid=true, Min=(X=-114.000 Y=1864.000 Z=50.000), Max=(X=94.000 Y=2043.000 Z=325.000) RuntimeGrid:None EditorOnly:false LevelBoundsRelevant:true HLODRelevant:false FolderPath:PortasMetalSpawn FolderGuid:007B29964E565AD7015CB894A926EA2B Parent:00000000000000000000000000000000
   |      - Guid:EE66F4454A4A9F99393F559AB739C05E Class:Actor Name:BP_Rifle_C_1 SpatiallyLoaded:true Bounds:IsValid=true, Min=(X=1378.000 Y=928.000 Z=968.000), Max=(X=1442.000 Y=992.000 Z=1032.000) RuntimeGrid:None EditorOnly:false LevelBoundsRelevant:true HLODRelevant:false FolderPath:None FolderGuid:00000000000000000000000000000000 Parent:00000000000000000000000000000000
   |      - Guid:F1698A8B419ED906477449810B9D8060 Class:StaticMeshActor Name:StaticMeshActor_UAID_244BFEDF890FC71C01_1684183757 SpatiallyLoaded:true Bounds:IsValid=true, Min=(X=-600.000 Y=2200.000 Z=-0.000), Max=(X=-20.000 Y=2220.000 Z=400.000) RuntimeGrid:None EditorOnly:false LevelBoundsRelevant:true HLODRelevant:true FolderPath:Playground FolderGuid:6C02BB504B69D1F3D7A624B130C18E5B Parent:00000000000000000000000000000000
   |      - Guid:F1EFEDD54D54AEE415E7BD972E429FE3 Class:StaticMeshActor Name:StaticMeshActor_UAID_244BFEDF890FC71C01_1684339768 SpatiallyLoaded:true Bounds:IsValid=true, Min=(X=-620.000 Y=1680.000 Z=-0.000), Max=(X=-600.000 Y=2220.000 Z=400.000) RuntimeGrid:None EditorOnly:false LevelBoundsRelevant:true HLODRelevant:true FolderPath:Playground FolderGuid:6C02BB504B69D1F3D7A624B130C18E5B Parent:00000000000000000000000000000000
   |      - Guid:F2D437E449BDBECAAD477D9AD83F4656 Class:Actor Name:BP_PortaMetal_C_UAID_244BFEDF890FB81C01_1095687118 SpatiallyLoaded:true Bounds:IsValid=true, Min=(X=1906.000 Y=1159.000 Z=50.000), Max=(X=2114.000 Y=1338.000 Z=325.000) RuntimeGrid:None EditorOnly:false LevelBoundsRelevant:true HLODRelevant:false FolderPath:PortasMetalOposto FolderGuid:BAF1D96E45B523E6867C0F97CFFB56C1 Parent:00000000000000000000000000000000
   |      - Guid:F63450BD4301609FE3341C93350C6008 Class:StaticMeshActor Name:StaticMeshActor_UAID_244BFEDF890FC71C01_1684396772 SpatiallyLoaded:true Bounds:IsValid=true, Min=(X=2600.000 Y=1680.000 Z=-0.000), Max=(X=2620.000 Y=2220.000 Z=400.000) RuntimeGrid:None EditorOnly:false LevelBoundsRelevant:true HLODRelevant:true FolderPath:Playground FolderGuid:6C02BB504B69D1F3D7A624B130C18E5B Parent:00000000000000000000000000000000
   |      - Guid:F80621C9446867154938FE81375207DA Class:DirectionalLight Name:DirectionalLight_1 SpatiallyLoaded:false Bounds:IsValid=true, Min=(X=-1048576.000 Y=-1048576.000 Z=-1048576.000), Max=(X=1048576.000 Y=1048576.000 Z=1048576.000) RuntimeGrid:None EditorOnly:false LevelBoundsRelevant:false HLODRelevant:false FolderPath:Lighting FolderGuid:0BA5F0A04EADB18E70D5B180D08FA34B Parent:00000000000000000000000000000000
   |      - Guid:F8EAED174D63C392B437CA996DD89C8C Class:StaticMeshActor Name:StaticMeshActor_UAID_244BFEDF890FC71C01_1684453776 SpatiallyLoaded:true Bounds:IsValid=true, Min=(X=-20.000 Y=0.000 Z=-0.000), Max=(X=0.000 Y=3600.000 Z=400.000) RuntimeGrid:None EditorOnly:false LevelBoundsRelevant:true HLODRelevant:true FolderPath:Playground FolderGuid:6C02BB504B69D1F3D7A624B130C18E5B Parent:00000000000000000000000000000000
   |      - Guid:FAC6C7024ECA4ACD228A8FAFB6D200D9 Class:StaticMeshActor Name:StaticMeshActor_UAID_244BFEDF890FC71C01_1684125753 SpatiallyLoaded:true Bounds:IsValid=true, Min=(X=-600.000 Y=2380.000 Z=-0.000), Max=(X=-20.000 Y=2400.000 Z=400.000) RuntimeGrid:None EditorOnly:false LevelBoundsRelevant:true HLODRelevant:true FolderPath:Playground FolderGuid:6C02BB504B69D1F3D7A624B130C18E5B Parent:00000000000000000000000000000000
