Containers:
  [+] MainContainer:
   |            ID: 0x0000000000000000
   |        Bounds: IsValid=false, Min=(X=0.000 Y=0.000 Z=0.000), Max=(X=0.000 Y=0.000 Z=0.000)
   |     Transform: 0.000000,0.000000,0.000000|0.000000,0.000000,-0.000000|1.000000,1.000000,1.000000
   |     Container: /Game/FirstPerson/Maps/FirstPersonMap
   |  ActorDescs:
   |      - Guid:014139064B272AE31FF877B819CB5734 Class:StaticMeshActor Name:StaticMeshActor_8 SpatiallyLoaded:true Bounds:IsValid=true, Min=(X=257.548 Y=2127.548 Z=0.063), Max=(X=462.452 Y=2332.452 Z=150.063) RuntimeGrid:None EditorOnly:false LevelBoundsRelevant:true HLODRelevant:false FolderPath:SimulatedCubes FolderGuid:9AEEADCB4DC6C647D6E7C0B4EDA1744F Parent:00000000000000000000000000000000
   |      - Guid:09EB01FE4C96A434E7561793BD6770E5 Class:StaticMeshActor Name:StaticMeshActor_22 SpatiallyLoaded:true Bounds:IsValid=true, Min=(X=600.000 Y=2800.000 Z=0.000), Max=(X=700.000 Y=2900.000 Z=200.000) RuntimeGrid:None EditorOnly:false LevelBoundsRelevant:true HLODRelevant:true FolderPath:Block03 FolderGuid:0C5AB36945998C19C9EA9283402A8E02 Parent:00000000000000000000000000000000
   |      - Guid:0B0C0BA84D9C653015BD4EB3B217F9D6 Class:StaticMeshActor Name:StaticMeshActor_18 SpatiallyLoaded:true Bounds:IsValid=true, Min=(X=1200.000 Y=1600.000 Z=0.000), Max=(X=1300.000 Y=1700.000 Z=200.000) RuntimeGrid:None EditorOnly:false LevelBoundsRelevant:true HLODRelevant:true FolderPath:Block04 FolderGuid:D00C3F324D055BED943FA6B0235C7FA2 Parent:00000000000000000000000000000000
   |      - Guid:0EDB289B45CB7E0977A6DBA74201EE76 Class:StaticMeshActor Name:StaticMeshActor_10 SpatiallyLoaded:true Bounds:IsValid=true, Min=(X=2900.000 Y=100.000 Z=0.000), Max=(X=3000.000 Y=3400.000 Z=400.000) RuntimeGrid:None EditorOnly:false LevelBoundsRelevant:true HLODRelevant:true FolderPath:Playground FolderGuid:6C02BB504B69D1F3D7A624B130C18E5B Parent:00000000000000000000000000000000
   |      - Guid:1E04CC294E8D6348E47366B5ADA71EE9 Class:StaticMeshActor Name:StaticMeshActor_23 SpatiallyLoaded:true Bounds:IsValid=true, Min=(X=600.000 Y=2700.000 Z=0.000), Max=(X=700.000 Y=2800.000 Z=200.000) RuntimeGrid:None EditorOnly:false LevelBoundsRelevant:true HLODRelevant:true FolderPath:Block03 FolderGuid:0C5AB36945998C19C9EA9283402A8E02 Parent:00000000000000000000000000000000
   |      - Guid:21262252453B37957EF29F82ABA2413B Class:TextRenderActor Name:TextRenderActor_1 SpatiallyLoaded:true Bounds:IsValid=true, Min=(X=-0.100 Y=1100.000 Z=65.013), Max=(X=-0.100 Y=2363.461 Z=215.013) RuntimeGrid:None EditorOnly:false LevelBoundsRelevant:true HLODRelevant:false FolderPath:None FolderGuid:00000000000000000000000000000000 Parent:00000000000000000000000000000000
   |      - Guid:254D27654506DA912CEE11965181CEF2 Class:StaticMeshActor Name:StaticMeshActor_27 SpatiallyLoaded:true Bounds:IsValid=true, Min=(X=2100.000 Y=2550.000 Z=0.000), Max=(X=2300.000 Y=2750.000 Z=200.000) RuntimeGrid:None EditorOnly:false LevelBoundsRelevant:true HLODRelevant:true FolderPath:Cylinder FolderGuid:98EA6984416B46BD4E6349A7D9A13307 Parent:00000000000000000000000000000000
   |      - Guid:2A78EF094E089635A07B30AB9A046A81 Class:StaticMeshActor Name:StaticMeshActor_47 SpatiallyLoaded:true Bounds:IsValid=true, Min=(X=250.297 Y=3094.568 Z=100.013), Max=(X=391.180 Y=3235.451 Z=200.013) RuntimeGrid:None EditorOnly:false LevelBoundsRelevant:true HLODRelevant:false FolderPath:SimulatedCubes FolderGuid:9AEEADCB4DC6C647D6E7C0B4EDA1744F Parent:00000000000000000000000000000000
   |      - Guid:35A0C3344CDA5AA8A0AD41853299D3EE Class:StaticMeshActor Name:StaticMeshActor_32 SpatiallyLoaded:true Bounds:IsValid=true, Min=(X=1300.000 Y=2600.000 Z=0.000), Max=(X=1400.000 Y=2700.000 Z=200.000) RuntimeGrid:None EditorOnly:false LevelBoundsRelevant:true HLODRelevant:true FolderPath:Block03 FolderGuid:0C5AB36945998C19C9EA9283402A8E02 Parent:00000000000000000000000000000000
   |      - Guid:373BCADC4E0B3E726ED494AC5627B351 Class:StaticMeshActor Name:StaticMeshActor_40 SpatiallyLoaded:true Bounds:IsValid=true, Min=(X=2313.116 Y=1273.116 Z=0.063), Max=(X=2486.884 Y=1446.884 Z=150.063) RuntimeGrid:None EditorOnly:false LevelBoundsRelevant:true HLODRelevant:false FolderPath:SimulatedCubes FolderGuid:9AEEADCB4DC6C647D6E7C0B4EDA1744F Parent:00000000000000000000000000000000
   |      - Guid:48A9C7094CF7D8B729AC22B7B81DEE05 Class:StaticMeshActor Name:StaticMeshActor_28 SpatiallyLoaded:true Bounds:IsValid=true, Min=(X=2300.000 Y=2550.000 Z=0.000), Max=(X=2500.000 Y=2750.000 Z=200.000) RuntimeGrid:None EditorOnly:false LevelBoundsRelevant:true HLODRelevant:true FolderPath:Cylinder FolderGuid:98EA6984416B46BD4E6349A7D9A13307 Parent:00000000000000000000000000000000
   |      - Guid:4E7B03D240C8095A98E5708F41E1DDD8 Class:StaticMeshActor Name:StaticMeshActor_15 SpatiallyLoaded:true Bounds:IsValid=true, Min=(X=2345.000 Y=1000.000 Z=100.000), Max=(X=2545.000 Y=1100.000 Z=200.000) RuntimeGrid:None EditorOnly:false LevelBoundsRelevant:true HLODRelevant:true FolderPath:Block01 FolderGuid:5710F1034B6DC7FBD588718E283EB93C Parent:00000000000000000000000000000000
   |      - Guid:503301344EDD2580C9B8269BA1FF0C83 Class:StaticMeshActor Name:StaticMeshActor_29 SpatiallyLoaded:true Bounds:IsValid=true, Min=(X=334.338 Y=334.338 Z=0.063), Max=(X=545.662 Y=545.662 Z=150.063) RuntimeGrid:None EditorOnly:false LevelBoundsRelevant:true HLODRelevant:false FolderPath:SimulatedCubes FolderGuid:9AEEADCB4DC6C647D6E7C0B4EDA1744F Parent:00000000000000000000000000000000
   |      - Guid:540E8C5E4191C186DAFA39989A42F977 Class:StaticMeshActor Name:StaticMeshActor_13 SpatiallyLoaded:true Bounds:IsValid=true, Min=(X=2345.000 Y=400.000 Z=0.000), Max=(X=2545.000 Y=1100.000 Z=100.000) RuntimeGrid:None EditorOnly:false LevelBoundsRelevant:true HLODRelevant:true FolderPath:Block01 FolderGuid:5710F1034B6DC7FBD588718E283EB93C Parent:00000000000000000000000000000000
   |      - Guid:573177074D0ADB4DA9A357AE2A5CADA8 Class:StaticMeshActor Name:StaticMeshActor_49 SpatiallyLoaded:true Bounds:IsValid=true, Min=(X=2480.411 Y=2302.371 Z=0.013), Max=(X=2580.411 Y=2402.371 Z=100.013) RuntimeGrid:None EditorOnly:false LevelBoundsRelevant:true HLODRelevant:false FolderPath:SimulatedCubes FolderGuid:9AEEADCB4DC6C647D6E7C0B4EDA1744F Parent:00000000000000000000000000000000
   |      - Guid:5BDD8F884011AE3799B6F286D5D0CB25 Class:StaticMeshActor Name:StaticMeshActor_34 SpatiallyLoaded:true Bounds:IsValid=true, Min=(X=1800.000 Y=1600.000 Z=0.000), Max=(X=2900.000 Y=1900.000 Z=200.000) RuntimeGrid:None EditorOnly:false LevelBoundsRelevant:true HLODRelevant:true FolderPath:Block02 FolderGuid:275232DB4A90E8B2799B29BD69C59B9E Parent:00000000000000000000000000000000
   |      - Guid:5F5F61E8485626C2E11444A275E53585 Class:StaticMeshActor Name:StaticMeshActor_6 SpatiallyLoaded:true Bounds:IsValid=true, Min=(X=1945.000 Y=400.000 Z=0.000), Max=(X=2345.000 Y=600.000 Z=100.000) RuntimeGrid:None EditorOnly:false LevelBoundsRelevant:true HLODRelevant:true FolderPath:Block01 FolderGuid:5710F1034B6DC7FBD588718E283EB93C Parent:00000000000000000000000000000000
   |      - Guid:5FE7584649BB6F09265329A6C57CFD0D Class:VolumetricCloud Name:VolumetricCloud_0 SpatiallyLoaded:false Bounds:IsValid=true, Min=(X=0.000 Y=0.000 Z=820.000), Max=(X=0.000 Y=0.000 Z=820.000) RuntimeGrid:None EditorOnly:false LevelBoundsRelevant:false HLODRelevant:false FolderPath:Lighting FolderGuid:0BA5F0A04EADB18E70D5B180D08FA34B Parent:00000000000000000000000000000000
   |      - Guid:61391D344900612A77DFC3BA3E354907 Class:ExponentialHeightFog Name:ExponentialHeightFog_0 SpatiallyLoaded:false Bounds:IsValid=true, Min=(X=-5600.000 Y=-50.000 Z=-6850.000), Max=(X=-5600.000 Y=-50.000 Z=-6850.000) RuntimeGrid:None EditorOnly:false LevelBoundsRelevant:false HLODRelevant:false FolderPath:Lighting FolderGuid:0BA5F0A04EADB18E70D5B180D08FA34B Parent:00000000000000000000000000000000
   |      - Guid:6198DFE04D11BDEAC638CA8D1AA15F56 Class:StaticMeshActor Name:StaticMeshActor_21 SpatiallyLoaded:true Bounds:IsValid=true, Min=(X=600.000 Y=2600.000 Z=0.000), Max=(X=700.000 Y=2700.000 Z=200.000) RuntimeGrid:None EditorOnly:false LevelBoundsRelevant:true HLODRelevant:true FolderPath:Block03 FolderGuid:0C5AB36945998C19C9EA9283402A8E02 Parent:00000000000000000000000000000000
   |      - Guid:6B9F7C52434CCF99C7551893412C2C21 Class:StaticMeshActor Name:StaticMeshActor_51 SpatiallyLoaded:true Bounds:IsValid=true, Min=(X=2480.411 Y=2247.371 Z=100.013), Max=(X=2580.411 Y=2347.371 Z=200.013) RuntimeGrid:None EditorOnly:false LevelBoundsRelevant:true HLODRelevant:false FolderPath:SimulatedCubes FolderGuid:9AEEADCB4DC6C647D6E7C0B4EDA1744F Parent:00000000000000000000000000000000
   |      - Guid:6FEFB3BD4EB37B849EF0D4AC80F83855 Class:WorldDataLayers Name:WorldDataLayers SpatiallyLoaded:false Bounds:IsValid=true, Min=(X=0.000 Y=0.000 Z=0.000), Max=(X=0.000 Y=0.000 Z=0.000) RuntimeGrid:None EditorOnly:false LevelBoundsRelevant:false HLODRelevant:false FolderPath:None FolderGuid:00000000000000000000000000000000 Parent:00000000000000000000000000000000
   |      - Guid:764666EF4316C7851F06859A678454F2 Class:StaticMeshActor Name:StaticMeshActor_46 SpatiallyLoaded:true Bounds:IsValid=true, Min=(X=204.335 Y=3056.000 Z=0.013), Max=(X=345.218 Y=3196.884 Z=100.013) RuntimeGrid:None EditorOnly:false LevelBoundsRelevant:true HLODRelevant:false FolderPath:SimulatedCubes FolderGuid:9AEEADCB4DC6C647D6E7C0B4EDA1744F Parent:00000000000000000000000000000000
   |      - Guid:78907B824E304E162A9A02B9095F1FA1 Class:StaticMeshActor Name:StaticMeshActor_43 SpatiallyLoaded:true Bounds:IsValid=true, Min=(X=1191.292 Y=329.199 Z=0.013), Max=(X=1327.894 Y=465.801 Z=100.013) RuntimeGrid:None EditorOnly:false LevelBoundsRelevant:true HLODRelevant:false FolderPath:SimulatedCubes FolderGuid:9AEEADCB4DC6C647D6E7C0B4EDA1744F Parent:00000000000000000000000000000000
   |      - Guid:78CAF7514C7533F30BD2F19A017AAB65 Class:StaticMeshActor Name:StaticMeshActor_0 SpatiallyLoaded:true Bounds:IsValid=true, Min=(X=0.000 Y=0.000 Z=-50.000), Max=(X=3000.000 Y=3500.000 Z=0.000) RuntimeGrid:None EditorOnly:false LevelBoundsRelevant:true HLODRelevant:true FolderPath:Playground FolderGuid:6C02BB504B69D1F3D7A624B130C18E5B Parent:00000000000000000000000000000000
   |      - Guid:7D62CD3D479BFB8CD19B998D77A9BF5D Class:StaticMeshActor Name:StaticMeshActor_33 SpatiallyLoaded:true Bounds:IsValid=true, Min=(X=1300.000 Y=2700.000 Z=0.000), Max=(X=1400.000 Y=2800.000 Z=200.000) RuntimeGrid:None EditorOnly:false LevelBoundsRelevant:true HLODRelevant:true FolderPath:Block03 FolderGuid:0C5AB36945998C19C9EA9283402A8E02 Parent:00000000000000000000000000000000
   |      - Guid:7DCFF2144714F0843D87428AC48CE4F4 Class:StaticMeshActor Name:StaticMeshActor_24 SpatiallyLoaded:true Bounds:IsValid=true, Min=(X=364.319 Y=1244.901 Z=0.013), Max=(X=492.491 Y=1373.073 Z=100.013) RuntimeGrid:None EditorOnly:false LevelBoundsRelevant:true HLODRelevant:false FolderPath:SimulatedCubes FolderGuid:9AEEADCB4DC6C647D6E7C0B4EDA1744F Parent:00000000000000000000000000000000
   |      - Guid:819D89374F5F011641B802B797C6545A Class:StaticMeshActor Name:StaticMeshActor_25 SpatiallyLoaded:true Bounds:IsValid=true, Min=(X=2300.000 Y=2750.000 Z=0.000), Max=(X=2500.000 Y=2950.000 Z=200.000) RuntimeGrid:None EditorOnly:false LevelBoundsRelevant:true HLODRelevant:true FolderPath:Cylinder FolderGuid:98EA6984416B46BD4E6349A7D9A13307 Parent:00000000000000000000000000000000
   |      - Guid:82636DFB499224D215E466A53C353A57 Class:StaticMeshActor Name:StaticMeshActor_12 SpatiallyLoaded:true Bounds:IsValid=true, Min=(X=100.000 Y=1600.000 Z=0.000), Max=(X=1200.000 Y=1900.000 Z=200.000) RuntimeGrid:None EditorOnly:false LevelBoundsRelevant:true HLODRelevant:true FolderPath:Block04 FolderGuid:D00C3F324D055BED943FA6B0235C7FA2 Parent:00000000000000000000000000000000
   |      - Guid:8559D1384B14F466E8927697A36C1D78 Class:StaticMeshActor Name:StaticMeshActor_9 SpatiallyLoaded:true Bounds:IsValid=true, Min=(X=-0.000 Y=100.000 Z=0.000), Max=(X=100.000 Y=3400.000 Z=400.000) RuntimeGrid:None EditorOnly:false LevelBoundsRelevant:true HLODRelevant:true FolderPath:Playground FolderGuid:6C02BB504B69D1F3D7A624B130C18E5B Parent:00000000000000000000000000000000
   |      - Guid:8E6120FC40B0C2384F6E528EAFC19C5A Class:StaticMeshActor Name:StaticMeshActor_36 SpatiallyLoaded:true Bounds:IsValid=true, Min=(X=1700.000 Y=1800.000 Z=0.000), Max=(X=1800.000 Y=1900.000 Z=200.000) RuntimeGrid:None EditorOnly:false LevelBoundsRelevant:true HLODRelevant:true FolderPath:Block02 FolderGuid:275232DB4A90E8B2799B29BD69C59B9E Parent:00000000000000000000000000000000
   |      - Guid:8E9EA0F84D0FC901D6ABCF911C08AEE3 Class:StaticMeshActor Name:StaticMeshActor_50 SpatiallyLoaded:true Bounds:IsValid=true, Min=(X=2480.411 Y=2187.371 Z=0.013), Max=(X=2580.411 Y=2287.371 Z=100.013) RuntimeGrid:None EditorOnly:false LevelBoundsRelevant:true HLODRelevant:false FolderPath:SimulatedCubes FolderGuid:9AEEADCB4DC6C647D6E7C0B4EDA1744F Parent:00000000000000000000000000000000
   |      - Guid:90B7B8D3420C2EABA931D3A6A69DF696 Class:StaticMeshActor Name:StaticMeshActor_3 SpatiallyLoaded:true Bounds:IsValid=true, Min=(X=0.000 Y=0.000 Z=0.000), Max=(X=3000.000 Y=100.000 Z=400.000) RuntimeGrid:None EditorOnly:false LevelBoundsRelevant:true HLODRelevant:true FolderPath:Playground FolderGuid:6C02BB504B69D1F3D7A624B130C18E5B Parent:00000000000000000000000000000000
   |      - Guid:91C63FB14CD98AB7B8FBF4873FDE4B43 Class:StaticMeshActor Name:StaticMeshActor_42 SpatiallyLoaded:true Bounds:IsValid=true, Min=(X=1800.000 Y=1900.000 Z=0.000), Max=(X=2900.000 Y=2000.000 Z=200.000) RuntimeGrid:None EditorOnly:false LevelBoundsRelevant:true HLODRelevant:true FolderPath:Block02 FolderGuid:275232DB4A90E8B2799B29BD69C59B9E Parent:00000000000000000000000000000000
   |      - Guid:92B3F9C347C268347AA620AA591B7483 Class:StaticMeshActor Name:StaticMeshActor_31 SpatiallyLoaded:true Bounds:IsValid=true, Min=(X=1300.000 Y=2800.000 Z=0.000), Max=(X=1400.000 Y=2900.000 Z=200.000) RuntimeGrid:None EditorOnly:false LevelBoundsRelevant:true HLODRelevant:true FolderPath:Block03 FolderGuid:0C5AB36945998C19C9EA9283402A8E02 Parent:00000000000000000000000000000000
   |      - Guid:9A7871D843B8842620BCB8B891DEBD6C Class:StaticMeshActor Name:StaticMeshActor_37 SpatiallyLoaded:true Bounds:IsValid=true, Min=(X=1700.000 Y=1700.000 Z=0.000), Max=(X=1800.000 Y=1800.000 Z=200.000) RuntimeGrid:None EditorOnly:false LevelBoundsRelevant:true HLODRelevant:true FolderPath:Block02 FolderGuid:275232DB4A90E8B2799B29BD69C59B9E Parent:00000000000000000000000000000000
   |      - Guid:A354B1B24E617A525DC6B48CCDE2417E Class:PlayerStart Name:PlayerStart_0 SpatiallyLoaded:false Bounds:IsValid=true, Min=(X=860.000 Y=810.000 Z=0.013), Max=(X=940.000 Y=890.000 Z=184.013) RuntimeGrid:None EditorOnly:false LevelBoundsRelevant:true HLODRelevant:false FolderPath:None FolderGuid:00000000000000000000000000000000 Parent:00000000000000000000000000000000
   |      - Guid:B0718D6846706384220C03973177EDC1 Class:StaticMeshActor Name:StaticMeshActor_44 SpatiallyLoaded:true Bounds:IsValid=true, Min=(X=1139.330 Y=299.199 Z=100.013), Max=(X=1275.933 Y=435.801 Z=200.013) RuntimeGrid:None EditorOnly:false LevelBoundsRelevant:true HLODRelevant:false FolderPath:SimulatedCubes FolderGuid:9AEEADCB4DC6C647D6E7C0B4EDA1744F Parent:00000000000000000000000000000000
   |      - Guid:B1E356C04D0CD1605DCFE9B7A83B3E98 Class:StaticMeshActor Name:StaticMeshActor_5 SpatiallyLoaded:true Bounds:IsValid=true, Min=(X=1745.000 Y=600.000 Z=0.000), Max=(X=2345.000 Y=1100.000 Z=200.000) RuntimeGrid:None EditorOnly:false LevelBoundsRelevant:true HLODRelevant:true FolderPath:Block01 FolderGuid:5710F1034B6DC7FBD588718E283EB93C Parent:00000000000000000000000000000000
   |      - Guid:B4B79A3843F8C09301E1F99BDF616576 Class:StaticMeshActor Name:StaticMeshActor_41 SpatiallyLoaded:true Bounds:IsValid=true, Min=(X=100.000 Y=1500.000 Z=0.000), Max=(X=1200.000 Y=1600.000 Z=200.000) RuntimeGrid:None EditorOnly:false LevelBoundsRelevant:true HLODRelevant:true FolderPath:Block04 FolderGuid:D00C3F324D055BED943FA6B0235C7FA2 Parent:00000000000000000000000000000000
   |      - Guid:B5427D164DB484C7C1A5FB87B93EC67B Class:SpotLight Name:SpotLight_UAID_244BFEDF890F671101_1684051241 SpatiallyLoaded:true Bounds:IsValid=true, Min=(X=-4.214 Y=892.000 Z=-1308.214), Max=(X=2824.214 Y=3720.427 Z=1520.214) RuntimeGrid:None EditorOnly:false LevelBoundsRelevant:false HLODRelevant:false FolderPath:None FolderGuid:00000000000000000000000000000000 Parent:EE66F4454A4A9F99393F559AB739C05E
   |      - Guid:BD7867C645DF0388304E3EB7CF2BBB37 Class:StaticMeshActor Name:StaticMeshActor_17 SpatiallyLoaded:true Bounds:IsValid=true, Min=(X=1200.000 Y=1800.000 Z=0.000), Max=(X=1300.000 Y=1900.000 Z=200.000) RuntimeGrid:None EditorOnly:false LevelBoundsRelevant:true HLODRelevant:true FolderPath:Block04 FolderGuid:D00C3F324D055BED943FA6B0235C7FA2 Parent:00000000000000000000000000000000
   |      - Guid:C0C56B9644AE3D40CAFF6A878DB29844 Class:StaticMeshActor Name:StaticMeshActor_UAID_A4AE111137DC5EFB00_2001720423 SpatiallyLoaded:true Bounds:IsValid=true, Min=(X=-1638400.000 Y=-1638400.000 Z=-1638400.000), Max=(X=1638400.000 Y=1638400.000 Z=1638400.000) RuntimeGrid:None EditorOnly:false LevelBoundsRelevant:true HLODRelevant:true FolderPath:Lighting FolderGuid:0BA5F0A04EADB18E70D5B180D08FA34B Parent:00000000000000000000000000000000
   |      - Guid:C22CE07C4B87D685137FDBBC10FC92C6 Class:SkyAtmosphere Name:SkyAtmosphere_0 SpatiallyLoaded:false Bounds:IsValid=true, Min=(X=0.000 Y=0.000 Z=1020.000), Max=(X=0.000 Y=0.000 Z=1020.000) RuntimeGrid:None EditorOnly:false LevelBoundsRelevant:false HLODRelevant:false FolderPath:Lighting FolderGuid:0BA5F0A04EADB18E70D5B180D08FA34B Parent:00000000000000000000000000000000
   |      - Guid:C32AE4DE4D7967D1B19C8492D9C4AA36 Class:StaticMeshActor Name:StaticMeshActor_16 SpatiallyLoaded:true Bounds:IsValid=true, Min=(X=700.000 Y=2600.000 Z=0.000), Max=(X=1300.000 Y=2900.000 Z=200.000) RuntimeGrid:None EditorOnly:false LevelBoundsRelevant:true HLODRelevant:true FolderPath:Block03 FolderGuid:0C5AB36945998C19C9EA9283402A8E02 Parent:00000000000000000000000000000000
   |      - Guid:C96EA9F84CAB52BA0FE483B12D76F8BF Class:StaticMeshActor Name:StaticMeshActor_26 SpatiallyLoaded:true Bounds:IsValid=true, Min=(X=2100.000 Y=2750.000 Z=0.000), Max=(X=2300.000 Y=2950.000 Z=200.000) RuntimeGrid:None EditorOnly:false LevelBoundsRelevant:true HLODRelevant:true FolderPath:Cylinder FolderGuid:98EA6984416B46BD4E6349A7D9A13307 Parent:00000000000000000000000000000000
   |      - Guid:CE8D82634660FCDB3120E2B8D547C533 Class:PostProcessVolume Name:PostProcessVolume_0 SpatiallyLoaded:false Bounds:IsValid=true, Min=(X=0.000 Y=0.000 Z=400.000), Max=(X=200.000 Y=200.000 Z=600.000) RuntimeGrid:None EditorOnly:false LevelBoundsRelevant:false HLODRelevant:false FolderPath:Lighting FolderGuid:0BA5F0A04EADB18E70D5B180D08FA34B Parent:00000000000000000000000000000000
   |      - Guid:CE96A4EE499D3E62C687B3881BBE5DAF Class:StaticMeshActor Name:StaticMeshActor_UAID_244BFEDF890F3D1701_1538614183 SpatiallyLoaded:true Bounds:IsValid=true, Min=(X=0.000 Y=0.000 Z=2100.000), Max=(X=3000.000 Y=3500.000 Z=2150.000) RuntimeGrid:None EditorOnly:false LevelBoundsRelevant:true HLODRelevant:true FolderPath:Playground FolderGuid:6C02BB504B69D1F3D7A624B130C18E5B Parent:00000000000000000000000000000000
   |      - Guid:D44940D943955A5965276FBBEA044017 Class:StaticMeshActor Name:StaticMeshActor_20 SpatiallyLoaded:true Bounds:IsValid=true, Min=(X=324.987 Y=1136.837 Z=0.013), Max=(X=453.158 Y=1265.008 Z=100.013) RuntimeGrid:None EditorOnly:false LevelBoundsRelevant:true HLODRelevant:false FolderPath:SimulatedCubes FolderGuid:9AEEADCB4DC6C647D6E7C0B4EDA1744F Parent:00000000000000000000000000000000
   |      - Guid:D65CE26D4543AB64D3E1CE82A79B39D9 Class:StaticMeshActor Name:StaticMeshActor_45 SpatiallyLoaded:true Bounds:IsValid=true, Min=(X=292.430 Y=3129.921 Z=0.013), Max=(X=433.313 Y=3270.804 Z=100.013) RuntimeGrid:None EditorOnly:false LevelBoundsRelevant:true HLODRelevant:false FolderPath:SimulatedCubes FolderGuid:9AEEADCB4DC6C647D6E7C0B4EDA1744F Parent:00000000000000000000000000000000
   |      - Guid:D935740A490176EB4702AF96F92450E8 Class:StaticMeshActor Name:StaticMeshActor_38 SpatiallyLoaded:true Bounds:IsValid=true, Min=(X=343.798 Y=1188.520 Z=100.013), Max=(X=471.969 Y=1316.691 Z=200.013) RuntimeGrid:None EditorOnly:false LevelBoundsRelevant:true HLODRelevant:false FolderPath:SimulatedCubes FolderGuid:9AEEADCB4DC6C647D6E7C0B4EDA1744F Parent:00000000000000000000000000000000
   |      - Guid:DA4819164DD702010F80EABD674EDB8A Class:StaticMeshActor Name:StaticMeshActor_19 SpatiallyLoaded:true Bounds:IsValid=true, Min=(X=1200.000 Y=1700.000 Z=0.000), Max=(X=1300.000 Y=1800.000 Z=200.000) RuntimeGrid:None EditorOnly:false LevelBoundsRelevant:true HLODRelevant:true FolderPath:Block04 FolderGuid:D00C3F324D055BED943FA6B0235C7FA2 Parent:00000000000000000000000000000000
   |      - Guid:E051597541B4C998010633A0C1018139 Class:StaticMeshActor Name:StaticMeshActor_30 SpatiallyLoaded:true Bounds:IsValid=true, Min=(X=1765.431 Y=2937.543 Z=0.063), Max=(X=1976.756 Y=3148.868 Z=150.063) RuntimeGrid:None EditorOnly:false LevelBoundsRelevant:true HLODRelevant:false FolderPath:SimulatedCubes FolderGuid:9AEEADCB4DC6C647D6E7C0B4EDA1744F Parent:00000000000000000000000000000000
   |      - Guid:E5320C1B4FD9764CE7B54D8487AEC613 Class:SkyLight Name:SkyLight_0 SpatiallyLoaded:false Bounds:IsValid=true, Min=(X=0.000 Y=0.000 Z=690.000), Max=(X=0.000 Y=0.000 Z=690.000) RuntimeGrid:None EditorOnly:false LevelBoundsRelevant:false HLODRelevant:false FolderPath:Lighting FolderGuid:0BA5F0A04EADB18E70D5B180D08FA34B Parent:00000000000000000000000000000000
   |      - Guid:EB260A4343402177EF2FA8AA9CCA795D Class:StaticMeshActor Name:StaticMeshActor_14 SpatiallyLoaded:true Bounds:IsValid=true, Min=(X=2345.000 Y=600.000 Z=100.000), Max=(X=2545.000 Y=1000.000 Z=200.000) RuntimeGrid:None EditorOnly:false LevelBoundsRelevant:true HLODRelevant:true FolderPath:Block01 FolderGuid:5710F1034B6DC7FBD588718E283EB93C Parent:00000000000000000000000000000000
   |      - Guid:EE66F4454A4A9F99393F559AB739C05E Class:Actor Name:BP_Rifle_C_1 SpatiallyLoaded:true Bounds:IsValid=true, Min=(X=1378.000 Y=818.000 Z=64.000), Max=(X=1442.000 Y=905.000 Z=128.000) RuntimeGrid:None EditorOnly:false LevelBoundsRelevant:true HLODRelevant:false FolderPath:None FolderGuid:00000000000000000000000000000000 Parent:00000000000000000000000000000000
   |      - Guid:F07F1AF64C7C7C238EE1B4BF8C122DD8 Class:StaticMeshActor Name:StaticMeshActor_4 SpatiallyLoaded:true Bounds:IsValid=true, Min=(X=0.000 Y=3400.000 Z=0.000), Max=(X=3000.000 Y=3500.000 Z=400.000) RuntimeGrid:None EditorOnly:false LevelBoundsRelevant:true HLODRelevant:true FolderPath:Playground FolderGuid:6C02BB504B69D1F3D7A624B130C18E5B Parent:00000000000000000000000000000000
   |      - Guid:F80621C9446867154938FE81375207DA Class:DirectionalLight Name:DirectionalLight_1 SpatiallyLoaded:false Bounds:IsValid=true, Min=(X=-1048576.000 Y=-1048576.000 Z=-1048576.000), Max=(X=1048576.000 Y=1048576.000 Z=1048576.000) RuntimeGrid:None EditorOnly:false LevelBoundsRelevant:false HLODRelevant:false FolderPath:Lighting FolderGuid:0BA5F0A04EADB18E70D5B180D08FA34B Parent:00000000000000000000000000000000
   |      - Guid:F959EF0D4D97FD8AB016389E6BCFA562 Class:StaticMeshActor Name:StaticMeshActor_35 SpatiallyLoaded:true Bounds:IsValid=true, Min=(X=1700.000 Y=1600.000 Z=0.000), Max=(X=1800.000 Y=1700.000 Z=200.000) RuntimeGrid:None EditorOnly:false LevelBoundsRelevant:true HLODRelevant:true FolderPath:Block02 FolderGuid:275232DB4A90E8B2799B29BD69C59B9E Parent:00000000000000000000000000000000
   |      - Guid:FE369CF94A071F9176E524A237CA92AA Class:StaticMeshActor Name:StaticMeshActor_1 SpatiallyLoaded:true Bounds:IsValid=true, Min=(X=1091.699 Y=271.699 Z=0.013), Max=(X=1228.301 Y=408.301 Z=100.013) RuntimeGrid:None EditorOnly:false LevelBoundsRelevant:true HLODRelevant:false FolderPath:SimulatedCubes FolderGuid:9AEEADCB4DC6C647D6E7C0B4EDA1744F Parent:00000000000000000000000000000000
