Containers:
  [+] MainContainer:
   |            ID: 0x0000000000000000
   |        Bounds: IsValid=false, Min=(X=0.000 Y=0.000 Z=0.000), Max=(X=0.000 Y=0.000 Z=0.000)
   |     Transform: 0.000000,0.000000,0.000000|0.000000,0.000000,-0.000000|1.000000,1.000000,1.000000
   |     Container: /Game/FirstPerson/Maps/FirstPersonMap
   |  ActorDescs:
   |      - Guid:008F3B7F4AFB6D4FE4C782A767ABD3C9 Class:StaticMeshActor Name:StaticMeshActor_UAID_244BFEDF890FC71C01_1684268763 SpatiallyLoaded:true Bounds:IsValid=true, Min=(X=2020.000 Y=2380.000 Z=-0.000), Max=(X=2600.000 Y=2400.000 Z=400.000) RuntimeGrid:None EditorOnly:false LevelBoundsRelevant:true HLODRelevant:true FolderPath:Playground FolderGuid:6C02BB504B69D1F3D7A624B130C18E5B Parent:00000000000000000000000000000000
   |      - Guid:0A75C0FE4D02DEAA2B694682E8E3E5EF Class:StaticMeshActor Name:StaticMeshActor_UAID_244BFEDF890FC71C01_1684382771 SpatiallyLoaded:true Bounds:IsValid=true, Min=(X=2600.000 Y=980.000 Z=-0.000), Max=(X=2620.000 Y=1520.000 Z=400.000) RuntimeGrid:None EditorOnly:false LevelBoundsRelevant:true HLODRelevant:true FolderPath:Playground FolderGuid:6C02BB504B69D1F3D7A624B130C18E5B Parent:00000000000000000000000000000000
   |      - Guid:0C027FC64F70B37478BD7EBC95FF0195 Class:StaticMeshActor Name:StaticMeshActor_UAID_244BFEDF890FC71C01_1684510780 SpatiallyLoaded:true Bounds:IsValid=true, Min=(X=-600.000 Y=2900.000 Z=0.000), Max=(X=-20.000 Y=2920.000 Z=400.000) RuntimeGrid:None EditorOnly:false LevelBoundsRelevant:true HLODRelevant:true FolderPath:Playground FolderGuid:6C02BB504B69D1F3D7A624B130C18E5B Parent:00000000000000000000000000000000
   |      - Guid:19CD13D444A98538BB0134BBC4830E65 Class:StaticMeshActor Name:StaticMeshActor_UAID_244BFEDF890F321E01_1527829642 SpatiallyLoaded:true Bounds:IsValid=true, Min=(X=2400.000 Y=0.000 Z=219.999), Max=(X=2600.000 Y=980.000 Z=230.000) RuntimeGrid:None EditorOnly:false LevelBoundsRelevant:true HLODRelevant:true FolderPath:Playground FolderGuid:6C02BB504B69D1F3D7A624B130C18E5B Parent:00000000000000000000000000000000
   |      - Guid:1B7C390F427F3E999D8610AC8A3AD650 Class:TargetPoint Name:TargetPoint_UAID_244BFEDF890FA01E01_1340904006 SpatiallyLoaded:true Bounds:IsValid=true, Min=(X=1821.734 Y=2783.877 Z=50.000), Max=(X=1821.734 Y=2783.877 Z=50.000) RuntimeGrid:None EditorOnly:false LevelBoundsRelevant:true HLODRelevant:false FolderPath:ThePoliEyedBeast FolderGuid:37FDFF2E45D440B018DCF1B46B4EDEB2 Parent:00000000000000000000000000000000
   |      - Guid:1E20D37D44798D9EC54EF894C1FE99A6 Class:StaticMeshActor Name:StaticMeshActor_UAID_244BFEDF890FDF1E01_1471742108 SpatiallyLoaded:true Bounds:IsValid=true, Min=(X=1930.194 Y=210.870 Z=74.984), Max=(X=2243.306 Y=502.320 Z=317.565) RuntimeGrid:None EditorOnly:false LevelBoundsRelevant:true HLODRelevant:false FolderPath:Escada FolderGuid:80A67A0944616CF20983BB9C071AE86A Parent:00000000000000000000000000000000
   |      - Guid:21262252453B37957EF29F82ABA2413B Class:TextRenderActor Name:TextRenderActor_1 SpatiallyLoaded:true Bounds:IsValid=true, Min=(X=-642.522 Y=1100.000 Z=65.013), Max=(X=-642.522 Y=2363.461 Z=215.013) RuntimeGrid:None EditorOnly:false LevelBoundsRelevant:true HLODRelevant:false FolderPath:None FolderGuid:00000000000000000000000000000000 Parent:00000000000000000000000000000000
   |      - Guid:273C2CC5412D9EB92B7A5F9FA92BCE03 Class:StaticMeshActor Name:StaticMeshActor_UAID_244BFEDF890FC71C01_1684353769 SpatiallyLoaded:true Bounds:IsValid=true, Min=(X=-620.000 Y=980.000 Z=-0.000), Max=(X=-600.000 Y=1520.000 Z=400.000) RuntimeGrid:None EditorOnly:false LevelBoundsRelevant:true HLODRelevant:true FolderPath:Playground FolderGuid:6C02BB504B69D1F3D7A624B130C18E5B Parent:00000000000000000000000000000000
   |      - Guid:2A83DB2540AFFA7DC9AD7489FC45796E Class:StaticMeshActor Name:StaticMeshActor_UAID_244BFEDF890F321E01_1527843643 SpatiallyLoaded:true Bounds:IsValid=true, Min=(X=2000.000 Y=0.000 Z=50.000), Max=(X=2400.000 Y=490.000 Z=230.000) RuntimeGrid:None EditorOnly:false LevelBoundsRelevant:true HLODRelevant:true FolderPath:Playground FolderGuid:6C02BB504B69D1F3D7A624B130C18E5B Parent:00000000000000000000000000000000
   |      - Guid:2AEA77BC480E3F75D5346C9A9DCE3BAE Class:Actor Name:BP_PortaMetal_C_UAID_244BFEDF890FB71C01_2033554941 SpatiallyLoaded:true Bounds:IsValid=true, Min=(X=1906.000 Y=1859.000 Z=50.000), Max=(X=2114.000 Y=2038.000 Z=325.000) RuntimeGrid:None EditorOnly:false LevelBoundsRelevant:true HLODRelevant:false FolderPath:AssetsMapa/PortasMetalOposto FolderGuid:BAF1D96E45B523E6867C0F97CFFB56C1 Parent:00000000000000000000000000000000
   |      - Guid:2B991A4D4C59B2FD599DFB9E93AC104C Class:StaticMeshActor Name:StaticMeshActor_UAID_244BFEDF890FDE1E01_1327473928 SpatiallyLoaded:true Bounds:IsValid=true, Min=(X=2332.663 Y=2052.666 Z=49.926), Max=(X=2594.117 Y=2185.983 Z=188.963) RuntimeGrid:None EditorOnly:false LevelBoundsRelevant:true HLODRelevant:true FolderPath:AssetsMapa/Cama FolderGuid:A22FDD274F1E20C108F1768A7F414B81 Parent:00000000000000000000000000000000
   |      - Guid:2F8D5E8B43626C7034E288B450739D59 Class:TargetPoint Name:TargetPoint_UAID_244BFEDF890F9E1E01_1943634649 SpatiallyLoaded:true Bounds:IsValid=true, Min=(X=205.321 Y=2796.464 Z=50.000), Max=(X=205.321 Y=2796.464 Z=50.000) RuntimeGrid:None EditorOnly:false LevelBoundsRelevant:true HLODRelevant:false FolderPath:ThePoliEyedBeast FolderGuid:37FDFF2E45D440B018DCF1B46B4EDEB2 Parent:00000000000000000000000000000000
   |      - Guid:37352E884C99F2E5D58AA78967821FFD Class:Actor Name:BP_PortaMetal_C_UAID_244BFEDF890FB81C01_1428872121 SpatiallyLoaded:true Bounds:IsValid=true, Min=(X=1486.000 Y=2262.000 Z=50.000), Max=(X=1694.000 Y=2441.000 Z=325.000) RuntimeGrid:None EditorOnly:false LevelBoundsRelevant:true HLODRelevant:false FolderPath:AssetsMapa/PortasMetalNecroterio FolderGuid:8762A59C4EAD95AF9754BA896C3AE7A6 Parent:00000000000000000000000000000000
   |      - Guid:3AC46EA84C719A524D6A5DB493FCC001 Class:StaticMeshActor Name:StaticMeshActor_UAID_244BFEDF890FC71C01_1684197758 SpatiallyLoaded:true Bounds:IsValid=true, Min=(X=-600.000 Y=500.000 Z=-0.000), Max=(X=-20.000 Y=520.000 Z=400.000) RuntimeGrid:None EditorOnly:false LevelBoundsRelevant:true HLODRelevant:true FolderPath:Playground FolderGuid:6C02BB504B69D1F3D7A624B130C18E5B Parent:00000000000000000000000000000000
   |      - Guid:3B5790934D372E137B75AF82C62918D7 Class:StaticMeshActor Name:StaticMeshActor_UAID_244BFEDF890FC71C01_1684425774 SpatiallyLoaded:true Bounds:IsValid=true, Min=(X=1480.000 Y=3600.000 Z=-0.000), Max=(X=2020.000 Y=3620.000 Z=400.000) RuntimeGrid:None EditorOnly:false LevelBoundsRelevant:true HLODRelevant:true FolderPath:Playground FolderGuid:6C02BB504B69D1F3D7A624B130C18E5B Parent:00000000000000000000000000000000
   |      - Guid:3DD38A1B4C64667242755BADC7FE96E0 Class:StaticMeshActor Name:StaticMeshActor_UAID_244BFEDF890FE11E01_1530329466 SpatiallyLoaded:true Bounds:IsValid=true, Min=(X=-567.854 Y=2521.910 Z=0.274), Max=(X=-379.011 Y=2663.304 Z=197.890) RuntimeGrid:None EditorOnly:false LevelBoundsRelevant:true HLODRelevant:true FolderPath:AssetsMapa/CadeiraMesa FolderGuid:0DA7D1464550668ACBD977B7FAB9B382 Parent:00000000000000000000000000000000
   |      - Guid:40FD2BB24244799A9A2AD9A7C0DBE424 Class:Actor Name:BP_PortaMetal_C_UAID_244BFEDF890FB81C01_1293476120 SpatiallyLoaded:true Bounds:IsValid=true, Min=(X=1664.000 Y=2906.000 Z=50.000), Max=(X=1843.000 Y=3114.000 Z=325.000) RuntimeGrid:None EditorOnly:false LevelBoundsRelevant:true HLODRelevant:false FolderPath:AssetsMapa/PortasMetalFundo FolderGuid:A67102E142E574C2B23AA387B1C8EBE4 Parent:00000000000000000000000000000000
   |      - Guid:4149CFE24DF9E23FD1E2F88DF634B620 Class:StaticMeshActor Name:StaticMeshActor_UAID_244BFEDF890FAC1E01_1493173111 SpatiallyLoaded:true Bounds:IsValid=true, Min=(X=1100.000 Y=-10.000 Z=50.000), Max=(X=1225.000 Y=20.000 Z=300.000) RuntimeGrid:None EditorOnly:false LevelBoundsRelevant:true HLODRelevant:true FolderPath:AssetsMapa/PortasMadeira FolderGuid:354B99B749BAC3243C0C1D8964C4884C Parent:00000000000000000000000000000000
   |      - Guid:43F2CA084E59DCAB6F3032B41CA1A29F Class:StaticMeshActor Name:StaticMeshActor_UAID_244BFEDF890FC71C01_1684282764 SpatiallyLoaded:true Bounds:IsValid=true, Min=(X=2020.000 Y=2900.000 Z=-0.000), Max=(X=2600.000 Y=2920.000 Z=400.000) RuntimeGrid:None EditorOnly:false LevelBoundsRelevant:true HLODRelevant:true FolderPath:Playground FolderGuid:6C02BB504B69D1F3D7A624B130C18E5B Parent:00000000000000000000000000000000
   |      - Guid:480B636F402228D078ABDE92E4A0D4EA Class:Character Name:BP_Monstro_C_UAID_244BFEDF890FF51E01_1464220959 SpatiallyLoaded:true Bounds:IsValid=true, Min=(X=902.102 Y=2599.665 Z=21.864), Max=(X=1179.062 Y=3017.747 Z=241.864) RuntimeGrid:None EditorOnly:false LevelBoundsRelevant:true HLODRelevant:false FolderPath:None FolderGuid:00000000000000000000000000000000 Parent:00000000000000000000000000000000
   |      - Guid:4D537AC94C5D6BFA212CC5BC076CE353 Class:Actor Name:BP_PortaMetal_C_UAID_244BFEDF890FB71C01_1799819937 SpatiallyLoaded:true Bounds:IsValid=true, Min=(X=-114.000 Y=1165.000 Z=50.000), Max=(X=94.000 Y=1344.000 Z=325.000) RuntimeGrid:None EditorOnly:false LevelBoundsRelevant:true HLODRelevant:false FolderPath:AssetsMapa/PortasMetalSpawn FolderGuid:007B29964E565AD7015CB894A926EA2B Parent:00000000000000000000000000000000
   |      - Guid:51E3A9D247E6C1FD88FAEC9A6DA972D0 Class:StaticMeshActor Name:StaticMeshActor_UAID_244BFEDF890FC71C01_1684211759 SpatiallyLoaded:true Bounds:IsValid=true, Min=(X=2020.000 Y=980.000 Z=-0.000), Max=(X=2600.000 Y=1000.000 Z=400.000) RuntimeGrid:None EditorOnly:false LevelBoundsRelevant:true HLODRelevant:true FolderPath:Playground FolderGuid:6C02BB504B69D1F3D7A624B130C18E5B Parent:00000000000000000000000000000000
   |      - Guid:525A168D4FD670B04C01D3B16DF6A078 Class:StaticMeshActor Name:StaticMeshActor_UAID_244BFEDF890FC71C01_1684254762 SpatiallyLoaded:true Bounds:IsValid=true, Min=(X=2020.000 Y=2200.000 Z=-0.000), Max=(X=2600.000 Y=2220.000 Z=400.000) RuntimeGrid:None EditorOnly:false LevelBoundsRelevant:true HLODRelevant:true FolderPath:Playground FolderGuid:6C02BB504B69D1F3D7A624B130C18E5B Parent:00000000000000000000000000000000
   |      - Guid:5635BEC147B45D365B2AF18360797442 Class:Actor Name:BP_PortaMetal_C_UAID_244BFEDF890FB71C01_1929777940 SpatiallyLoaded:true Bounds:IsValid=true, Min=(X=1906.000 Y=2559.000 Z=50.000), Max=(X=2114.000 Y=2738.000 Z=325.000) RuntimeGrid:None EditorOnly:false LevelBoundsRelevant:true HLODRelevant:false FolderPath:AssetsMapa/PortasMetalOposto FolderGuid:BAF1D96E45B523E6867C0F97CFFB56C1 Parent:00000000000000000000000000000000
   |      - Guid:564B1096493FA0D41A7BDEBDC2617971 Class:StaticMeshActor Name:StaticMeshActor_UAID_244BFEDF890FDD1E01_1535281740 SpatiallyLoaded:true Bounds:IsValid=true, Min=(X=1375.668 Y=1057.456 Z=43.641), Max=(X=1505.683 Y=1361.183 Z=174.660) RuntimeGrid:None EditorOnly:false LevelBoundsRelevant:true HLODRelevant:true FolderPath:AssetsMapa/Maca FolderGuid:D0B87D0A42E084B077B4DFAAF8CB7C55 Parent:00000000000000000000000000000000
   |      - Guid:56DF8CAC42451DDFEF180C80C32B9F97 Class:TargetPoint Name:TargetPoint_UAID_244BFEDF890FAD1E01_1196103289 SpatiallyLoaded:true Bounds:IsValid=true, Min=(X=-284.979 Y=1905.909 Z=52.877), Max=(X=-284.979 Y=1905.909 Z=52.877) RuntimeGrid:None EditorOnly:false LevelBoundsRelevant:true HLODRelevant:false FolderPath:Chaves FolderGuid:99194F1542A5ED8A8277B78F1D034CBF Parent:00000000000000000000000000000000
   |      - Guid:597C383F4ED66D47B728A5AC61312135 Class:TargetPoint Name:TargetPoint_UAID_244BFEDF890FAD1E01_1276911292 SpatiallyLoaded:true Bounds:IsValid=true, Min=(X=1934.782 Y=3338.614 Z=54.532), Max=(X=1934.782 Y=3338.614 Z=54.532) RuntimeGrid:None EditorOnly:false LevelBoundsRelevant:true HLODRelevant:false FolderPath:Chaves FolderGuid:99194F1542A5ED8A8277B78F1D034CBF Parent:00000000000000000000000000000000
   |      - Guid:5DF161994CC5D7C2DCF4B185C3C7C489 Class:StaticMeshActor Name:StaticMeshActor_UAID_244BFEDF890FC71C01_1684482778 SpatiallyLoaded:true Bounds:IsValid=true, Min=(X=-0.000 Y=3000.000 Z=-0.000), Max=(X=2000.000 Y=3020.000 Z=400.000) RuntimeGrid:None EditorOnly:false LevelBoundsRelevant:true HLODRelevant:true FolderPath:Playground FolderGuid:6C02BB504B69D1F3D7A624B130C18E5B Parent:00000000000000000000000000000000
   |      - Guid:5FE7584649BB6F09265329A6C57CFD0D Class:VolumetricCloud Name:VolumetricCloud_0 SpatiallyLoaded:false Bounds:IsValid=true, Min=(X=0.000 Y=0.000 Z=820.000), Max=(X=0.000 Y=0.000 Z=820.000) RuntimeGrid:None EditorOnly:false LevelBoundsRelevant:false HLODRelevant:false FolderPath:Lighting FolderGuid:0BA5F0A04EADB18E70D5B180D08FA34B Parent:00000000000000000000000000000000
   |      - Guid:61391D344900612A77DFC3BA3E354907 Class:ExponentialHeightFog Name:ExponentialHeightFog_0 SpatiallyLoaded:false Bounds:IsValid=true, Min=(X=-5600.000 Y=-50.000 Z=-6850.000), Max=(X=-5600.000 Y=-50.000 Z=-6850.000) RuntimeGrid:None EditorOnly:false LevelBoundsRelevant:false HLODRelevant:false FolderPath:Lighting FolderGuid:0BA5F0A04EADB18E70D5B180D08FA34B Parent:00000000000000000000000000000000
   |      - Guid:6219DCBA481AE786917CE7A0C6123207 Class:Actor Name:BP_Lampada_C_UAID_244BFEDF890FDB1E01_1815451383 SpatiallyLoaded:true Bounds:IsValid=true, Min=(X=845.528 Y=518.382 Z=376.454), Max=(X=1155.141 Y=531.922 Z=417.363) RuntimeGrid:None EditorOnly:false LevelBoundsRelevant:true HLODRelevant:false FolderPath:AssetsMapa/Lampadas FolderGuid:933806E048236518BD5F28AFD3B1360B Parent:00000000000000000000000000000000
   |      - Guid:678FF3EE42F7737DC1B1ADB90516D032 Class:StaticMeshActor Name:StaticMeshActor_UAID_244BFEDF890FDE1E01_1319491926 SpatiallyLoaded:true Bounds:IsValid=true, Min=(X=2462.823 Y=2408.327 Z=49.926), Max=(X=2596.139 Y=2669.781 Z=188.963) RuntimeGrid:None EditorOnly:false LevelBoundsRelevant:true HLODRelevant:true FolderPath:AssetsMapa/Cama FolderGuid:A22FDD274F1E20C108F1768A7F414B81 Parent:00000000000000000000000000000000
   |      - Guid:67A1059646642D95E5E44299C7472B69 Class:StaticMeshActor Name:StaticMeshActor_UAID_244BFEDF890FC71C01_1684090751 SpatiallyLoaded:true Bounds:IsValid=true, Min=(X=0.000 Y=0.000 Z=-0.000), Max=(X=2000.000 Y=3000.000 Z=50.000) RuntimeGrid:None EditorOnly:false LevelBoundsRelevant:true HLODRelevant:true FolderPath:Playground FolderGuid:6C02BB504B69D1F3D7A624B130C18E5B Parent:00000000000000000000000000000000
   |      - Guid:6903B08F4D29453AF61E5CB36B9A3456 Class:NavMeshBoundsVolume Name:NavMeshBoundsVolume_UAID_244BFEDF890F9F1E01_1892799829 SpatiallyLoaded:false Bounds:IsValid=true, Min=(X=17.127 Y=-132.000 Z=50.000), Max=(X=2152.627 Y=3146.000 Z=250.000) RuntimeGrid:None EditorOnly:false LevelBoundsRelevant:false HLODRelevant:false FolderPath:ThePoliEyedBeast FolderGuid:37FDFF2E45D440B018DCF1B46B4EDEB2 Parent:00000000000000000000000000000000
   |      - Guid:6A5F13CA417075A249E16BB4D173109F Class:StaticMeshActor Name:StaticMeshActor_UAID_244BFEDF890FE21E01_1741541647 SpatiallyLoaded:true Bounds:IsValid=true, Min=(X=390.603 Y=3484.067 Z=50.040), Max=(X=488.959 Y=3582.423 Z=184.442) RuntimeGrid:None EditorOnly:false LevelBoundsRelevant:true HLODRelevant:true FolderPath:AssetsMapa/CadeiraMesa FolderGuid:0DA7D1464550668ACBD977B7FAB9B382 Parent:00000000000000000000000000000000
   |      - Guid:6B046BAD4C13FEFC5E0AE1A23EDB6949 Class:Actor Name:BP_PortaMetal_C_UAID_244BFEDF890FB81C01_1203987119 SpatiallyLoaded:true Bounds:IsValid=true, Min=(X=164.000 Y=2906.000 Z=50.000), Max=(X=343.000 Y=3114.000 Z=325.000) RuntimeGrid:None EditorOnly:false LevelBoundsRelevant:true HLODRelevant:false FolderPath:AssetsMapa/PortasMetalFundo FolderGuid:A67102E142E574C2B23AA387B1C8EBE4 Parent:00000000000000000000000000000000
   |      - Guid:6BDF47254B242EC1225678B74226F3FE Class:StaticMeshActor Name:StaticMeshActor_UAID_244BFEDF890FE21E01_1699100646 SpatiallyLoaded:true Bounds:IsValid=true, Min=(X=2498.984 Y=1004.899 Z=50.040), Max=(X=2569.244 Y=1073.734 Z=184.442) RuntimeGrid:None EditorOnly:false LevelBoundsRelevant:true HLODRelevant:true FolderPath:AssetsMapa/CadeiraMesa FolderGuid:0DA7D1464550668ACBD977B7FAB9B382 Parent:00000000000000000000000000000000
   |      - Guid:6FEFB3BD4EB37B849EF0D4AC80F83855 Class:WorldDataLayers Name:WorldDataLayers SpatiallyLoaded:false Bounds:IsValid=true, Min=(X=0.000 Y=0.000 Z=0.000), Max=(X=0.000 Y=0.000 Z=0.000) RuntimeGrid:None EditorOnly:false LevelBoundsRelevant:false HLODRelevant:false FolderPath:None FolderGuid:00000000000000000000000000000000 Parent:00000000000000000000000000000000
   |      - Guid:72BEE6274EDD9487ED1FC2BD8A2DBC2D Class:TargetPoint Name:TargetPoint_UAID_244BFEDF890FAD1E01_1203936290 SpatiallyLoaded:true Bounds:IsValid=true, Min=(X=-318.514 Y=2469.026 Z=55.249), Max=(X=-318.514 Y=2469.026 Z=55.249) RuntimeGrid:None EditorOnly:false LevelBoundsRelevant:true HLODRelevant:false FolderPath:Chaves FolderGuid:99194F1542A5ED8A8277B78F1D034CBF Parent:00000000000000000000000000000000
   |      - Guid:77C92B10449F2FF2B7C8AE937C81D332 Class:StaticMeshActor Name:StaticMeshActor_UAID_244BFEDF890FDD1E01_1627780741 SpatiallyLoaded:true Bounds:IsValid=true, Min=(X=1075.668 Y=1056.525 Z=43.641), Max=(X=1205.683 Y=1360.252 Z=174.660) RuntimeGrid:None EditorOnly:false LevelBoundsRelevant:true HLODRelevant:true FolderPath:AssetsMapa/Maca FolderGuid:D0B87D0A42E084B077B4DFAAF8CB7C55 Parent:00000000000000000000000000000000
   |      - Guid:789728734DA39FCED770838CD00A0619 Class:StaticMeshActor Name:StaticMeshActor_UAID_244BFEDF890FC71C01_1684310766 SpatiallyLoaded:true Bounds:IsValid=true, Min=(X=500.000 Y=3020.000 Z=-0.000), Max=(X=520.000 Y=3600.000 Z=400.000) RuntimeGrid:None EditorOnly:false LevelBoundsRelevant:true HLODRelevant:true FolderPath:Playground FolderGuid:6C02BB504B69D1F3D7A624B130C18E5B Parent:00000000000000000000000000000000
   |      - Guid:78A7CB13465538675D51A7A0E2D0EBBC Class:StaticMeshActor Name:StaticMeshActor_UAID_244BFEDF890FE21E01_1777353648 SpatiallyLoaded:true Bounds:IsValid=true, Min=(X=1040.893 Y=713.221 Z=50.040), Max=(X=1111.153 Y=782.056 Z=184.442) RuntimeGrid:None EditorOnly:false LevelBoundsRelevant:true HLODRelevant:true FolderPath:Recepcao FolderGuid:4770039447234DAB00D233B3759C83BE Parent:00000000000000000000000000000000
   |      - Guid:78C51267446D4314552E579F683616B7 Class:StaticMeshActor Name:StaticMeshActor_UAID_244BFEDF890FC71C01_1684153755 SpatiallyLoaded:true Bounds:IsValid=true, Min=(X=-600.000 Y=1500.000 Z=-0.000), Max=(X=-20.000 Y=1520.000 Z=400.000) RuntimeGrid:None EditorOnly:false LevelBoundsRelevant:true HLODRelevant:true FolderPath:Playground FolderGuid:6C02BB504B69D1F3D7A624B130C18E5B Parent:00000000000000000000000000000000
   |      - Guid:798CF70649EDBEEBF1EB0BB681ABD72D Class:StaticMeshActor Name:StaticMeshActor_UAID_244BFEDF890FDF1E01_1225871107 SpatiallyLoaded:true Bounds:IsValid=true, Min=(X=831.682 Y=615.059 Z=50.000), Max=(X=1335.682 Y=943.059 Z=176.000) RuntimeGrid:None EditorOnly:false LevelBoundsRelevant:true HLODRelevant:true FolderPath:Recepcao FolderGuid:4770039447234DAB00D233B3759C83BE Parent:00000000000000000000000000000000
   |      - Guid:7AF72EE94C0D8CCFEB273BB931931EF1 Class:StaticMeshActor Name:StaticMeshActor_UAID_244BFEDF890FC71C01_1684140754 SpatiallyLoaded:true Bounds:IsValid=true, Min=(X=-600.000 Y=1680.000 Z=-0.000), Max=(X=-20.000 Y=1700.000 Z=400.000) RuntimeGrid:None EditorOnly:false LevelBoundsRelevant:true HLODRelevant:true FolderPath:Playground FolderGuid:6C02BB504B69D1F3D7A624B130C18E5B Parent:00000000000000000000000000000000
   |      - Guid:7B1A90B9435D743EB225788ECC8EAD04 Class:TargetPoint Name:TargetPoint_UAID_244BFEDF890FAD1E01_1229427291 SpatiallyLoaded:true Bounds:IsValid=true, Min=(X=280.111 Y=3358.759 Z=141.749), Max=(X=280.111 Y=3358.759 Z=141.749) RuntimeGrid:None EditorOnly:false LevelBoundsRelevant:true HLODRelevant:false FolderPath:Chaves FolderGuid:99194F1542A5ED8A8277B78F1D034CBF Parent:00000000000000000000000000000000
   |      - Guid:7B2D7A2D4E706453586F7B886D90A19B Class:TargetPoint Name:TargetPoint_UAID_244BFEDF890F9E1E01_2023967651 SpatiallyLoaded:true Bounds:IsValid=true, Min=(X=1774.346 Y=693.569 Z=50.000), Max=(X=1774.346 Y=693.569 Z=50.000) RuntimeGrid:None EditorOnly:false LevelBoundsRelevant:true HLODRelevant:false FolderPath:ThePoliEyedBeast FolderGuid:37FDFF2E45D440B018DCF1B46B4EDEB2 Parent:00000000000000000000000000000000
   |      - Guid:7B6E94854AEEC83048FFCF8ADF640370 Class:StaticMeshActor Name:StaticMeshActor_UAID_244BFEDF890FE21E01_1876364650 SpatiallyLoaded:true Bounds:IsValid=true, Min=(X=2023.562 Y=767.108 Z=49.242), Max=(X=2092.397 Y=901.511 Z=119.502) RuntimeGrid:None EditorOnly:false LevelBoundsRelevant:true HLODRelevant:true FolderPath:Escada FolderGuid:80A67A0944616CF20983BB9C071AE86A Parent:00000000000000000000000000000000
   |      - Guid:7E530FFA4466B25ECC204782F355082E Class:StaticMeshActor Name:StaticMeshActor_UAID_244BFEDF890F321E01_1901270648 SpatiallyLoaded:true Bounds:IsValid=true, Min=(X=1970.000 Y=-600.000 Z=450.000), Max=(X=2020.000 Y=1400.000 Z=1070.000) RuntimeGrid:None EditorOnly:false LevelBoundsRelevant:true HLODRelevant:true FolderPath:Playground FolderGuid:6C02BB504B69D1F3D7A624B130C18E5B Parent:00000000000000000000000000000000
   |      - Guid:7EA47A164BE06922FF5EC7B327013C13 Class:StaticMeshActor Name:StaticMeshActor_UAID_244BFEDF890FE11E01_1233053464 SpatiallyLoaded:true Bounds:IsValid=true, Min=(X=-595.025 Y=1359.443 Z=49.164), Max=(X=-465.556 Y=1488.912 Z=161.903) RuntimeGrid:None EditorOnly:false LevelBoundsRelevant:true HLODRelevant:true FolderPath:AssetsMapa/CadeiraMesa FolderGuid:0DA7D1464550668ACBD977B7FAB9B382 Parent:00000000000000000000000000000000
   |      - Guid:818EB3EB49852944833D49BB4F70D492 Class:StaticMeshActor Name:StaticMeshActor_UAID_244BFEDF890FC71C01_1684226760 SpatiallyLoaded:true Bounds:IsValid=true, Min=(X=2020.000 Y=1500.000 Z=-0.000), Max=(X=2600.000 Y=1520.000 Z=400.000) RuntimeGrid:None EditorOnly:false LevelBoundsRelevant:true HLODRelevant:true FolderPath:Playground FolderGuid:6C02BB504B69D1F3D7A624B130C18E5B Parent:00000000000000000000000000000000
   |      - Guid:8355EF614E084B8A807FAC93C6EECFF0 Class:StaticMeshActor Name:StaticMeshActor_UAID_244BFEDF890FDE1E01_1319066925 SpatiallyLoaded:true Bounds:IsValid=true, Min=(X=1859.466 Y=3029.670 Z=49.926), Max=(X=1992.782 Y=3291.124 Z=188.963) RuntimeGrid:None EditorOnly:false LevelBoundsRelevant:true HLODRelevant:true FolderPath:AssetsMapa/Cama FolderGuid:A22FDD274F1E20C108F1768A7F414B81 Parent:00000000000000000000000000000000
   |      - Guid:83BA84BC40F5F4F550BF1DA5B58FDE24 Class:StaticMeshActor Name:StaticMeshActor_UAID_244BFEDF890FC71C01_1684325767 SpatiallyLoaded:true Bounds:IsValid=true, Min=(X=-620.000 Y=2380.000 Z=-0.000), Max=(X=-600.000 Y=2920.000 Z=400.000) RuntimeGrid:None EditorOnly:false LevelBoundsRelevant:true HLODRelevant:true FolderPath:Playground FolderGuid:6C02BB504B69D1F3D7A624B130C18E5B Parent:00000000000000000000000000000000
   |      - Guid:83EF03A54F6B42F7DB4F1BB512C015B9 Class:StaticMeshActor Name:StaticMeshActor_UAID_244BFEDF890FE21E01_1788495649 SpatiallyLoaded:true Bounds:IsValid=true, Min=(X=2056.143 Y=168.838 Z=101.661), Max=(X=2206.956 Y=239.098 Z=228.476) RuntimeGrid:None EditorOnly:false LevelBoundsRelevant:true HLODRelevant:true FolderPath:Escada FolderGuid:80A67A0944616CF20983BB9C071AE86A Parent:00000000000000000000000000000000
   |      - Guid:84B05EFE47F306F60CD47E9E7488B2D8 Class:StaticMeshActor Name:StaticMeshActor_UAID_244BFEDF890F321E01_1527782639 SpatiallyLoaded:true Bounds:IsValid=true, Min=(X=2000.000 Y=0.000 Z=-300.000), Max=(X=2400.000 Y=490.000 Z=-120.000) RuntimeGrid:None EditorOnly:false LevelBoundsRelevant:true HLODRelevant:true FolderPath:Playground FolderGuid:6C02BB504B69D1F3D7A624B130C18E5B Parent:00000000000000000000000000000000
   |      - Guid:871139334CEE6B8D45EF0CB7B6A8FB13 Class:StaticMeshActor Name:StaticMeshActor_UAID_244BFEDF890FC71C01_1684439775 SpatiallyLoaded:true Bounds:IsValid=true, Min=(X=-20.000 Y=3600.000 Z=-0.000), Max=(X=520.000 Y=3620.000 Z=400.000) RuntimeGrid:None EditorOnly:false LevelBoundsRelevant:true HLODRelevant:true FolderPath:Playground FolderGuid:6C02BB504B69D1F3D7A624B130C18E5B Parent:00000000000000000000000000000000
   |      - Guid:8A21BE7E46E53A0B82DF8D84627B4B78 Class:StaticMeshActor Name:StaticMeshActor_UAID_244BFEDF890FC71C01_1684496779 SpatiallyLoaded:true Bounds:IsValid=true, Min=(X=-600.000 Y=-20.000 Z=-0.000), Max=(X=2000.000 Y=0.000 Z=400.000) RuntimeGrid:None EditorOnly:false LevelBoundsRelevant:true HLODRelevant:true FolderPath:Playground FolderGuid:6C02BB504B69D1F3D7A624B130C18E5B Parent:00000000000000000000000000000000
   |      - Guid:8B4549D84A44462ECA2DDD9B2C83BAF7 Class:StaticMeshActor Name:StaticMeshActor_UAID_244BFEDF890FC71C01_1684367770 SpatiallyLoaded:true Bounds:IsValid=true, Min=(X=-620.000 Y=-20.000 Z=-0.000), Max=(X=-600.000 Y=520.000 Z=400.000) RuntimeGrid:None EditorOnly:false LevelBoundsRelevant:true HLODRelevant:true FolderPath:Playground FolderGuid:6C02BB504B69D1F3D7A624B130C18E5B Parent:00000000000000000000000000000000
   |      - Guid:8BD585EC480FE5EB54B121B1CA771171 Class:StaticMeshActor Name:StaticMeshActor_UAID_244BFEDF890F321E01_1527885646 SpatiallyLoaded:true Bounds:IsValid=true, Min=(X=2600.000 Y=-20.000 Z=-130.000), Max=(X=2620.000 Y=980.000 Z=800.000) RuntimeGrid:None EditorOnly:false LevelBoundsRelevant:true HLODRelevant:true FolderPath:Playground FolderGuid:6C02BB504B69D1F3D7A624B130C18E5B Parent:00000000000000000000000000000000
   |      - Guid:8EC4ADA74A2E6CE8DFEAFF8D633F99BB Class:Actor Name:BP_Lampada_C_UAID_244BFEDF890FDC1E01_1849786561 SpatiallyLoaded:true Bounds:IsValid=true, Min=(X=213.078 Y=1589.447 Z=376.454), Max=(X=226.618 Y=1899.060 Z=417.363) RuntimeGrid:None EditorOnly:false LevelBoundsRelevant:true HLODRelevant:false FolderPath:AssetsMapa/Lampadas FolderGuid:933806E048236518BD5F28AFD3B1360B Parent:00000000000000000000000000000000
   |      - Guid:8F741C7A4F38008A3FDE5799CB820406 Class:StaticMeshActor Name:StaticMeshActor_UAID_244BFEDF890FDE1E01_1331117929 SpatiallyLoaded:true Bounds:IsValid=true, Min=(X=-270.400 Y=1232.185 Z=49.926), Max=(X=-137.083 Y=1493.639 Z=188.963) RuntimeGrid:None EditorOnly:false LevelBoundsRelevant:true HLODRelevant:true FolderPath:AssetsMapa/Cama FolderGuid:A22FDD274F1E20C108F1768A7F414B81 Parent:00000000000000000000000000000000
   |      - Guid:93CAFDCC487F60EF8E9BDA85B366315F Class:StaticMeshActor Name:StaticMeshActor_UAID_244BFEDF890FE11E01_1660555467 SpatiallyLoaded:true Bounds:IsValid=true, Min=(X=1863.616 Y=3156.007 Z=128.933), Max=(X=1993.086 Y=3285.476 Z=241.672) RuntimeGrid:None EditorOnly:false LevelBoundsRelevant:true HLODRelevant:true FolderPath:AssetsMapa/CadeiraMesa FolderGuid:0DA7D1464550668ACBD977B7FAB9B382 Parent:00000000000000000000000000000000
   |      - Guid:95C4E6E948F9B338A5FBD79873D6A8D6 Class:StaticMeshActor Name:StaticMeshActor_UAID_244BFEDF890FC71C01_1684467777 SpatiallyLoaded:true Bounds:IsValid=true, Min=(X=2000.000 Y=-20.000 Z=-0.000), Max=(X=2020.000 Y=3600.000 Z=400.000) RuntimeGrid:None EditorOnly:false LevelBoundsRelevant:true HLODRelevant:true FolderPath:Playground FolderGuid:6C02BB504B69D1F3D7A624B130C18E5B Parent:00000000000000000000000000000000
   |      - Guid:964AE062422B24656AD7C7A6F774E36D Class:StaticMeshActor Name:StaticMeshActor_UAID_244BFEDF890F321E01_1527816641 SpatiallyLoaded:true Bounds:IsValid=true, Min=(X=2400.000 Y=0.000 Z=-129.988), Max=(X=2600.000 Y=980.000 Z=-119.988) RuntimeGrid:None EditorOnly:false LevelBoundsRelevant:true HLODRelevant:true FolderPath:Playground FolderGuid:6C02BB504B69D1F3D7A624B130C18E5B Parent:00000000000000000000000000000000
   |      - Guid:998246C24DCB981DAFE175AE4E75C866 Class:StaticMeshActor Name:StaticMeshActor_UAID_244BFEDF890F621C01_1644994979 SpatiallyLoaded:true Bounds:IsValid=true, Min=(X=975.000 Y=-10.000 Z=50.000), Max=(X=1100.000 Y=20.000 Z=300.000) RuntimeGrid:None EditorOnly:false LevelBoundsRelevant:true HLODRelevant:true FolderPath:AssetsMapa/PortasMadeira FolderGuid:354B99B749BAC3243C0C1D8964C4884C Parent:00000000000000000000000000000000
   |      - Guid:A354B1B24E617A525DC6B48CCDE2417E Class:PlayerStart Name:PlayerStart_0 SpatiallyLoaded:false Bounds:IsValid=true, Min=(X=-570.000 Y=210.000 Z=103.548), Max=(X=-490.000 Y=290.000 Z=287.548) RuntimeGrid:None EditorOnly:false LevelBoundsRelevant:true HLODRelevant:false FolderPath:None FolderGuid:00000000000000000000000000000000 Parent:00000000000000000000000000000000
   |      - Guid:A8DA24C54BAB278DE3CCF2AFA4CF8DEE Class:StaticMeshActor Name:StaticMeshActor_UAID_244BFEDF890F321E01_1527801640 SpatiallyLoaded:true Bounds:IsValid=true, Min=(X=2000.000 Y=490.000 Z=-119.988), Max=(X=2400.000 Y=980.000 Z=50.012) RuntimeGrid:None EditorOnly:false LevelBoundsRelevant:true HLODRelevant:true FolderPath:Playground FolderGuid:6C02BB504B69D1F3D7A624B130C18E5B Parent:00000000000000000000000000000000
   |      - Guid:A96686CC47948FECC53CC5887E80806D Class:StaticMeshActor Name:StaticMeshActor_UAID_244BFEDF890FC71C01_1684296765 SpatiallyLoaded:true Bounds:IsValid=true, Min=(X=1480.000 Y=3020.000 Z=-0.000), Max=(X=1500.000 Y=3600.000 Z=400.000) RuntimeGrid:None EditorOnly:false LevelBoundsRelevant:true HLODRelevant:true FolderPath:Playground FolderGuid:6C02BB504B69D1F3D7A624B130C18E5B Parent:00000000000000000000000000000000
   |      - Guid:AAEA1519418A052C9515FA9C34A4199C Class:StaticMeshActor Name:StaticMeshActor_UAID_244BFEDF890FDD1E01_1659632743 SpatiallyLoaded:true Bounds:IsValid=true, Min=(X=474.317 Y=2228.817 Z=43.641), Max=(X=604.332 Y=2532.544 Z=174.660) RuntimeGrid:None EditorOnly:false LevelBoundsRelevant:true HLODRelevant:true FolderPath:AssetsMapa/Maca FolderGuid:D0B87D0A42E084B077B4DFAAF8CB7C55 Parent:00000000000000000000000000000000
   |      - Guid:AC04B9B5406A8C302E05FBBCF94EE6DB Class:StaticMeshActor Name:StaticMeshActor_UAID_244BFEDF890F321E01_1527871645 SpatiallyLoaded:true Bounds:IsValid=true, Min=(X=2000.000 Y=-19.818 Z=-300.000), Max=(X=2600.000 Y=0.182 Z=800.000) RuntimeGrid:None EditorOnly:false LevelBoundsRelevant:true HLODRelevant:true FolderPath:Playground FolderGuid:6C02BB504B69D1F3D7A624B130C18E5B Parent:00000000000000000000000000000000
   |      - Guid:ADD4B6414151569908702AAD8E0BCA31 Class:StaticMeshActor Name:StaticMeshActor_UAID_244BFEDF890FC71C01_1684168756 SpatiallyLoaded:true Bounds:IsValid=true, Min=(X=-600.000 Y=980.000 Z=-0.000), Max=(X=-20.000 Y=1000.000 Z=400.000) RuntimeGrid:None EditorOnly:false LevelBoundsRelevant:true HLODRelevant:true FolderPath:Playground FolderGuid:6C02BB504B69D1F3D7A624B130C18E5B Parent:00000000000000000000000000000000
   |      - Guid:AE5C1E7C48108CDE997E20AFF9FC400E Class:TargetPoint Name:TargetPoint_UAID_244BFEDF890FAD1E01_1357165295 SpatiallyLoaded:true Bounds:IsValid=true, Min=(X=2350.515 Y=1406.727 Z=164.458), Max=(X=2350.515 Y=1406.727 Z=164.458) RuntimeGrid:None EditorOnly:false LevelBoundsRelevant:true HLODRelevant:false FolderPath:Chaves FolderGuid:99194F1542A5ED8A8277B78F1D034CBF Parent:00000000000000000000000000000000
   |      - Guid:B0B51B5A413AE0D595DA0B9FC3464FB7 Class:TargetPoint Name:TargetPoint_UAID_244BFEDF890FAD1E01_1158837288 SpatiallyLoaded:true Bounds:IsValid=true, Min=(X=-535.691 Y=1373.774 Z=164.709), Max=(X=-535.691 Y=1373.774 Z=164.709) RuntimeGrid:None EditorOnly:false LevelBoundsRelevant:true HLODRelevant:false FolderPath:Chaves FolderGuid:99194F1542A5ED8A8277B78F1D034CBF Parent:00000000000000000000000000000000
   |      - Guid:B2DA85B3435215CD322E24AF97D40070 Class:StaticMeshActor Name:StaticMeshActor_UAID_244BFEDF890FDD1E01_2059153746 SpatiallyLoaded:true Bounds:IsValid=true, Min=(X=2457.509 Y=1232.185 Z=49.926), Max=(X=2590.826 Y=1493.639 Z=188.963) RuntimeGrid:None EditorOnly:false LevelBoundsRelevant:true HLODRelevant:true FolderPath:AssetsMapa/Cama FolderGuid:A22FDD274F1E20C108F1768A7F414B81 Parent:00000000000000000000000000000000
   |      - Guid:B3EADAD94F4ABD73D6DD89AA40D58FAA Class:TargetPoint Name:TargetPoint_UAID_244BFEDF890FAD1E01_1319468293 SpatiallyLoaded:true Bounds:IsValid=true, Min=(X=2476.367 Y=2616.647 Z=131.842), Max=(X=2476.367 Y=2616.647 Z=131.842) RuntimeGrid:None EditorOnly:false LevelBoundsRelevant:true HLODRelevant:false FolderPath:Chaves FolderGuid:99194F1542A5ED8A8277B78F1D034CBF Parent:00000000000000000000000000000000
   |      - Guid:B5EC5DD14CCB4A498E3705960C1D2B43 Class:StaticMeshActor Name:StaticMeshActor_UAID_244BFEDF890FDD1E01_2066787747 SpatiallyLoaded:true Bounds:IsValid=true, Min=(X=-302.785 Y=2412.514 Z=51.179), Max=(X=-19.595 Y=2545.831 Z=334.370) RuntimeGrid:None EditorOnly:false LevelBoundsRelevant:true HLODRelevant:false FolderPath:AssetsMapa/Cama FolderGuid:A22FDD274F1E20C108F1768A7F414B81 Parent:00000000000000000000000000000000
   |      - Guid:BB5D10E642656472036AD4AF96B0BD90 Class:StaticMeshActor Name:StaticMeshActor_UAID_244BFEDF890FE21E01_1506235645 SpatiallyLoaded:true Bounds:IsValid=true, Min=(X=-430.698 Y=1409.598 Z=50.040), Max=(X=-360.438 Y=1478.434 Z=184.442) RuntimeGrid:None EditorOnly:false LevelBoundsRelevant:true HLODRelevant:true FolderPath:AssetsMapa/CadeiraMesa FolderGuid:0DA7D1464550668ACBD977B7FAB9B382 Parent:00000000000000000000000000000000
   |      - Guid:BCB621A444EBE7E047FD968849B49946 Class:TriggerVolume Name:TriggerVolume_UAID_244BFEDF890FA11E01_1926000185 SpatiallyLoaded:true Bounds:IsValid=true, Min=(X=913.294 Y=-88.817 Z=50.896), Max=(X=1243.294 Y=89.683 Z=391.896) RuntimeGrid:None EditorOnly:false LevelBoundsRelevant:false HLODRelevant:false FolderPath:AssetsMapa/PortasMadeira FolderGuid:354B99B749BAC3243C0C1D8964C4884C Parent:00000000000000000000000000000000
   |      - Guid:BCFD90BB475350DEEDEF64B1535D583F Class:StaticMeshActor Name:StaticMeshActor_UAID_244BFEDF890FC71C01_1684109752 SpatiallyLoaded:true Bounds:IsValid=true, Min=(X=400.000 Y=1000.000 Z=50.000), Max=(X=1600.000 Y=2600.000 Z=400.000) RuntimeGrid:None EditorOnly:false LevelBoundsRelevant:true HLODRelevant:true FolderPath:Playground FolderGuid:6C02BB504B69D1F3D7A624B130C18E5B Parent:00000000000000000000000000000000
   |      - Guid:BD9A52594E5E02E8567301804A682CB7 Class:Actor Name:BP_Lampada_C_UAID_244BFEDF890FDC1E01_1952631562 SpatiallyLoaded:true Bounds:IsValid=true, Min=(X=1793.078 Y=1589.447 Z=376.454), Max=(X=1806.618 Y=1899.060 Z=417.363) RuntimeGrid:None EditorOnly:false LevelBoundsRelevant:true HLODRelevant:false FolderPath:AssetsMapa/Lampadas FolderGuid:933806E048236518BD5F28AFD3B1360B Parent:00000000000000000000000000000000
   |      - Guid:BDDF3AC640154940F9942E9CF5331E56 Class:Actor Name:BP_LanternaMedia_C_UAID_244BFEDF890F331A01_2066503591 SpatiallyLoaded:true Bounds:IsValid=true, Min=(X=-238.080 Y=211.920 Z=111.920), Max=(X=-161.920 Y=288.080 Z=188.080) RuntimeGrid:None EditorOnly:false LevelBoundsRelevant:true HLODRelevant:false FolderPath:None FolderGuid:00000000000000000000000000000000 Parent:00000000000000000000000000000000
   |      - Guid:BF65B1F0465AC151EF652E9A025DA288 Class:Actor Name:BP_PortaMetal_C_UAID_244BFEDF890FB81C01_1459454122 SpatiallyLoaded:true Bounds:IsValid=true, Min=(X=306.000 Y=1159.000 Z=50.000), Max=(X=514.000 Y=1338.000 Z=325.000) RuntimeGrid:None EditorOnly:false LevelBoundsRelevant:true HLODRelevant:false FolderPath:AssetsMapa/PortasMetalNecroterio FolderGuid:8762A59C4EAD95AF9754BA896C3AE7A6 Parent:00000000000000000000000000000000
   |      - Guid:C06C0A124580ACF8395E3984450EC33B Class:StaticMeshActor Name:StaticMeshActor_UAID_244BFEDF890FC71C01_1684411773 SpatiallyLoaded:true Bounds:IsValid=true, Min=(X=2600.000 Y=2380.000 Z=-0.000), Max=(X=2620.000 Y=2920.000 Z=400.000) RuntimeGrid:None EditorOnly:false LevelBoundsRelevant:true HLODRelevant:true FolderPath:Playground FolderGuid:6C02BB504B69D1F3D7A624B130C18E5B Parent:00000000000000000000000000000000
   |      - Guid:C0C56B9644AE3D40CAFF6A878DB29844 Class:StaticMeshActor Name:StaticMeshActor_UAID_A4AE111137DC5EFB00_2001720423 SpatiallyLoaded:true Bounds:IsValid=true, Min=(X=-1638400.000 Y=-1638400.000 Z=-1638400.000), Max=(X=1638400.000 Y=1638400.000 Z=1638400.000) RuntimeGrid:None EditorOnly:false LevelBoundsRelevant:true HLODRelevant:true FolderPath:Lighting FolderGuid:0BA5F0A04EADB18E70D5B180D08FA34B Parent:00000000000000000000000000000000
   |      - Guid:C139357D446EE08D71B7F79CE740B435 Class:StaticMeshActor Name:StaticMeshActor_UAID_244BFEDF890FC71C01_1684240761 SpatiallyLoaded:true Bounds:IsValid=true, Min=(X=2020.000 Y=1680.000 Z=-0.000), Max=(X=2600.000 Y=1700.000 Z=400.000) RuntimeGrid:None EditorOnly:false LevelBoundsRelevant:true HLODRelevant:true FolderPath:Playground FolderGuid:6C02BB504B69D1F3D7A624B130C18E5B Parent:00000000000000000000000000000000
   |      - Guid:C22CE07C4B87D685137FDBBC10FC92C6 Class:SkyAtmosphere Name:SkyAtmosphere_0 SpatiallyLoaded:false Bounds:IsValid=true, Min=(X=0.000 Y=0.000 Z=1020.000), Max=(X=0.000 Y=0.000 Z=1020.000) RuntimeGrid:None EditorOnly:false LevelBoundsRelevant:false HLODRelevant:false FolderPath:Lighting FolderGuid:0BA5F0A04EADB18E70D5B180D08FA34B Parent:00000000000000000000000000000000
   |      - Guid:C2C7A528433ABCBC93EEB6A07038A3CD Class:StaticMeshActor Name:StaticMeshActor_UAID_244BFEDF890FDE1E01_1326192927 SpatiallyLoaded:true Bounds:IsValid=true, Min=(X=148.977 Y=3271.453 Z=49.926), Max=(X=428.122 Y=3550.598 Z=188.963) RuntimeGrid:None EditorOnly:false LevelBoundsRelevant:true HLODRelevant:true FolderPath:AssetsMapa/Cama FolderGuid:A22FDD274F1E20C108F1768A7F414B81 Parent:00000000000000000000000000000000
   |      - Guid:C33DB312428632E6A0A8A384B958B7B8 Class:StaticMeshActor Name:StaticMeshActor_UAID_244BFEDF890FDD1E01_1690855744 SpatiallyLoaded:true Bounds:IsValid=true, Min=(X=774.317 Y=2228.817 Z=43.641), Max=(X=904.332 Y=2532.544 Z=174.660) RuntimeGrid:None EditorOnly:false LevelBoundsRelevant:true HLODRelevant:true FolderPath:AssetsMapa/Maca FolderGuid:D0B87D0A42E084B077B4DFAAF8CB7C55 Parent:00000000000000000000000000000000
   |      - Guid:C583A5684652258B0C03DA8D1127A9AE Class:StaticMeshActor Name:StaticMeshActor_UAID_244BFEDF890F621C01_1298549975 SpatiallyLoaded:true Bounds:IsValid=true, Min=(X=950.000 Y=-12.750 Z=50.000), Max=(X=1250.000 Y=22.250 Z=325.000) RuntimeGrid:None EditorOnly:false LevelBoundsRelevant:true HLODRelevant:true FolderPath:AssetsMapa/PortasMadeira FolderGuid:354B99B749BAC3243C0C1D8964C4884C Parent:00000000000000000000000000000000
   |      - Guid:C7DEC5CF4E743AAAAA07D7B6802C20A5 Class:StaticMeshActor Name:StaticMeshActor_UAID_244BFEDF890FDF1E01_1861308110 SpatiallyLoaded:true Bounds:IsValid=true, Min=(X=2033.671 Y=407.385 Z=-163.456), Max=(X=2577.542 Y=990.117 Z=178.762) RuntimeGrid:None EditorOnly:false LevelBoundsRelevant:true HLODRelevant:true FolderPath:Escada FolderGuid:80A67A0944616CF20983BB9C071AE86A Parent:00000000000000000000000000000000
   |      - Guid:C9577B0C4763306325A7488200E3CC86 Class:StaticMeshActor Name:StaticMeshActor_UAID_244BFEDF890FE11E01_1494124465 SpatiallyLoaded:true Bounds:IsValid=true, Min=(X=-154.651 Y=1717.704 Z=49.164), Max=(X=-25.182 Y=1847.173 Z=161.903) RuntimeGrid:None EditorOnly:false LevelBoundsRelevant:true HLODRelevant:true FolderPath:AssetsMapa/CadeiraMesa FolderGuid:0DA7D1464550668ACBD977B7FAB9B382 Parent:00000000000000000000000000000000
   |      - Guid:C9B346C3491CACA98D795C8DE9AF294E Class:Actor Name:BP_PortaMetal_C_UAID_244BFEDF890FB71C01_1888597939 SpatiallyLoaded:true Bounds:IsValid=true, Min=(X=-114.000 Y=2564.000 Z=50.000), Max=(X=94.000 Y=2743.000 Z=325.000) RuntimeGrid:None EditorOnly:false LevelBoundsRelevant:true HLODRelevant:false FolderPath:AssetsMapa/PortasMetalSpawn FolderGuid:007B29964E565AD7015CB894A926EA2B Parent:00000000000000000000000000000000
   |      - Guid:CB6CC6834A8BFF557E4859910864C57F Class:StaticMeshActor Name:StaticMeshActor_UAID_244BFEDF890FDF1E01_1735652109 SpatiallyLoaded:true Bounds:IsValid=true, Min=(X=2010.102 Y=-3.791 Z=105.096), Max=(X=2327.762 Y=265.031 Z=318.122) RuntimeGrid:None EditorOnly:false LevelBoundsRelevant:true HLODRelevant:false FolderPath:Escada FolderGuid:80A67A0944616CF20983BB9C071AE86A Parent:00000000000000000000000000000000
   |      - Guid:CE6E2CDD4E7B42012F2432A93EEF75B6 Class:StaticMeshActor Name:StaticMeshActor_UAID_244BFEDF890F321E01_1763078647 SpatiallyLoaded:true Bounds:IsValid=true, Min=(X=2000.000 Y=-600.000 Z=800.000), Max=(X=2620.000 Y=1400.000 Z=850.000) RuntimeGrid:None EditorOnly:false LevelBoundsRelevant:true HLODRelevant:true FolderPath:Playground FolderGuid:6C02BB504B69D1F3D7A624B130C18E5B Parent:00000000000000000000000000000000
   |      - Guid:CE8D82634660FCDB3120E2B8D547C533 Class:PostProcessVolume Name:PostProcessVolume_0 SpatiallyLoaded:false Bounds:IsValid=true, Min=(X=-100.000 Y=2900.000 Z=-150.000), Max=(X=100.000 Y=3100.000 Z=50.000) RuntimeGrid:None EditorOnly:false LevelBoundsRelevant:false HLODRelevant:false FolderPath:Lighting FolderGuid:0BA5F0A04EADB18E70D5B180D08FA34B Parent:00000000000000000000000000000000
   |      - Guid:CE96A4EE499D3E62C687B3881BBE5DAF Class:StaticMeshActor Name:StaticMeshActor_UAID_244BFEDF890F3D1701_1538614183 SpatiallyLoaded:true Bounds:IsValid=true, Min=(X=-730.000 Y=-600.000 Z=4000.000), Max=(X=2020.000 Y=3900.000 Z=4050.000) RuntimeGrid:None EditorOnly:false LevelBoundsRelevant:true HLODRelevant:true FolderPath:Playground FolderGuid:6C02BB504B69D1F3D7A624B130C18E5B Parent:00000000000000000000000000000000
   |      - Guid:D0DCCDE64C00C96C9E9ACD8522CCC8C5 Class:Actor Name:BP_PortaMetal_C_UAID_244BFEDF890FB71C01_1477904936 SpatiallyLoaded:true Bounds:IsValid=true, Min=(X=-114.000 Y=163.000 Z=50.000), Max=(X=94.000 Y=342.000 Z=325.000) RuntimeGrid:None EditorOnly:false LevelBoundsRelevant:true HLODRelevant:false FolderPath:AssetsMapa/PortasMetalSpawn FolderGuid:007B29964E565AD7015CB894A926EA2B Parent:00000000000000000000000000000000
   |      - Guid:D11AF4964FFCC45F151DD0B01A611927 Class:StaticMeshActor Name:StaticMeshActor_UAID_244BFEDF890FDE1E01_1189397924 SpatiallyLoaded:true Bounds:IsValid=true, Min=(X=-404.359 Y=1892.572 Z=49.926), Max=(X=-142.905 Y=2025.888 Z=188.963) RuntimeGrid:None EditorOnly:false LevelBoundsRelevant:true HLODRelevant:true FolderPath:AssetsMapa/Cama FolderGuid:A22FDD274F1E20C108F1768A7F414B81 Parent:00000000000000000000000000000000
   |      - Guid:D5815FF6446B28C1E00E45B1C18963B7 Class:StaticMeshActor Name:StaticMeshActor_UAID_244BFEDF890F321E01_1527857644 SpatiallyLoaded:true Bounds:IsValid=true, Min=(X=2000.000 Y=490.000 Z=230.000), Max=(X=2400.000 Y=980.000 Z=400.000) RuntimeGrid:None EditorOnly:false LevelBoundsRelevant:true HLODRelevant:true FolderPath:Playground FolderGuid:6C02BB504B69D1F3D7A624B130C18E5B Parent:00000000000000000000000000000000
   |      - Guid:D6DF7C1E4A9DF425BBE2C4A61EEFC522 Class:StaticMeshActor Name:StaticMeshActor_UAID_244BFEDF890F321E01_2012739649 SpatiallyLoaded:true Bounds:IsValid=true, Min=(X=2020.000 Y=1000.000 Z=400.000), Max=(X=2620.000 Y=3000.000 Z=450.000) RuntimeGrid:None EditorOnly:false LevelBoundsRelevant:true HLODRelevant:true FolderPath:Playground FolderGuid:6C02BB504B69D1F3D7A624B130C18E5B Parent:00000000000000000000000000000000
   |      - Guid:E38B199845C8A6C706D86FA10D1B839B Class:StaticMeshActor Name:StaticMeshActor_UAID_244BFEDF890FC71C01_1684526781 SpatiallyLoaded:true Bounds:IsValid=true, Min=(X=-600.000 Y=0.000 Z=-0.001), Max=(X=2600.000 Y=3600.000 Z=50.000) RuntimeGrid:None EditorOnly:false LevelBoundsRelevant:true HLODRelevant:true FolderPath:Playground FolderGuid:6C02BB504B69D1F3D7A624B130C18E5B Parent:00000000000000000000000000000000
   |      - Guid:E5320C1B4FD9764CE7B54D8487AEC613 Class:SkyLight Name:SkyLight_0 SpatiallyLoaded:false Bounds:IsValid=true, Min=(X=0.000 Y=0.000 Z=690.000), Max=(X=0.000 Y=0.000 Z=690.000) RuntimeGrid:None EditorOnly:false LevelBoundsRelevant:false HLODRelevant:false FolderPath:Lighting FolderGuid:330DD0C24ABF5C9593AF29A1C7DC2EFB Parent:00000000000000000000000000000000
   |      - Guid:EAE51E414626998FCC24E0959201D58A Class:Actor Name:BP_PortaMetal_C_UAID_244BFEDF890FB71C01_1855327938 SpatiallyLoaded:true Bounds:IsValid=true, Min=(X=-114.000 Y=1864.000 Z=50.000), Max=(X=94.000 Y=2043.000 Z=325.000) RuntimeGrid:None EditorOnly:false LevelBoundsRelevant:true HLODRelevant:false FolderPath:AssetsMapa/PortasMetalSpawn FolderGuid:007B29964E565AD7015CB894A926EA2B Parent:00000000000000000000000000000000
   |      - Guid:ED0596C248F2CA507178DE812FDB7F02 Class:Actor Name:BP_Lampada_C_UAID_244BFEDF890FDC1E01_1989635563 SpatiallyLoaded:true Bounds:IsValid=true, Min=(X=854.004 Y=1793.218 Z=376.454), Max=(X=1163.617 Y=1806.757 Z=417.363) RuntimeGrid:None EditorOnly:false LevelBoundsRelevant:true HLODRelevant:false FolderPath:AssetsMapa/Lampadas FolderGuid:933806E048236518BD5F28AFD3B1360B Parent:00000000000000000000000000000000
   |      - Guid:EEBD71024302D2AD934298B2FA11E825 Class:TargetPoint Name:TargetPoint_UAID_244BFEDF890F9E1E01_2011766650 SpatiallyLoaded:true Bounds:IsValid=true, Min=(X=185.110 Y=575.472 Z=50.000), Max=(X=185.110 Y=575.472 Z=50.000) RuntimeGrid:None EditorOnly:false LevelBoundsRelevant:true HLODRelevant:false FolderPath:ThePoliEyedBeast FolderGuid:37FDFF2E45D440B018DCF1B46B4EDEB2 Parent:00000000000000000000000000000000
   |      - Guid:F1698A8B419ED906477449810B9D8060 Class:StaticMeshActor Name:StaticMeshActor_UAID_244BFEDF890FC71C01_1684183757 SpatiallyLoaded:true Bounds:IsValid=true, Min=(X=-600.000 Y=2200.000 Z=-0.000), Max=(X=-20.000 Y=2220.000 Z=400.000) RuntimeGrid:None EditorOnly:false LevelBoundsRelevant:true HLODRelevant:true FolderPath:Playground FolderGuid:6C02BB504B69D1F3D7A624B130C18E5B Parent:00000000000000000000000000000000
   |      - Guid:F19449934E1A5F0C29E0C4BF21C65CB9 Class:StaticMeshActor Name:StaticMeshActor_UAID_244BFEDF890FE11E01_1703018468 SpatiallyLoaded:true Bounds:IsValid=true, Min=(X=2311.426 Y=1360.956 Z=48.937), Max=(X=2440.895 Y=1490.425 Z=161.676) RuntimeGrid:None EditorOnly:false LevelBoundsRelevant:true HLODRelevant:true FolderPath:AssetsMapa/CadeiraMesa FolderGuid:0DA7D1464550668ACBD977B7FAB9B382 Parent:00000000000000000000000000000000
   |      - Guid:F1EFEDD54D54AEE415E7BD972E429FE3 Class:StaticMeshActor Name:StaticMeshActor_UAID_244BFEDF890FC71C01_1684339768 SpatiallyLoaded:true Bounds:IsValid=true, Min=(X=-620.000 Y=1680.000 Z=-0.000), Max=(X=-600.000 Y=2220.000 Z=400.000) RuntimeGrid:None EditorOnly:false LevelBoundsRelevant:true HLODRelevant:true FolderPath:Playground FolderGuid:6C02BB504B69D1F3D7A624B130C18E5B Parent:00000000000000000000000000000000
   |      - Guid:F2D437E449BDBECAAD477D9AD83F4656 Class:Actor Name:BP_PortaMetal_C_UAID_244BFEDF890FB81C01_1095687118 SpatiallyLoaded:true Bounds:IsValid=true, Min=(X=1906.000 Y=1159.000 Z=50.000), Max=(X=2114.000 Y=1338.000 Z=325.000) RuntimeGrid:None EditorOnly:false LevelBoundsRelevant:true HLODRelevant:false FolderPath:AssetsMapa/PortasMetalOposto FolderGuid:BAF1D96E45B523E6867C0F97CFFB56C1 Parent:00000000000000000000000000000000
   |      - Guid:F3E9294641F656F5CBE58C8A4F89E951 Class:StaticMeshActor Name:StaticMeshActor_UAID_244BFEDF890FDD1E01_1787110745 SpatiallyLoaded:true Bounds:IsValid=true, Min=(X=1074.317 Y=2228.817 Z=43.641), Max=(X=1204.332 Y=2532.544 Z=174.660) RuntimeGrid:None EditorOnly:false LevelBoundsRelevant:true HLODRelevant:true FolderPath:AssetsMapa/Maca FolderGuid:D0B87D0A42E084B077B4DFAAF8CB7C55 Parent:00000000000000000000000000000000
   |      - Guid:F4AB0A7A47A477266E794CAFD47AABB5 Class:TargetPoint Name:TargetPoint_UAID_244BFEDF890FAD1E01_1348375294 SpatiallyLoaded:true Bounds:IsValid=true, Min=(X=2374.700 Y=2093.045 Z=154.597), Max=(X=2374.700 Y=2093.045 Z=154.597) RuntimeGrid:None EditorOnly:false LevelBoundsRelevant:true HLODRelevant:false FolderPath:Chaves FolderGuid:99194F1542A5ED8A8277B78F1D034CBF Parent:00000000000000000000000000000000
   |      - Guid:F63450BD4301609FE3341C93350C6008 Class:StaticMeshActor Name:StaticMeshActor_UAID_244BFEDF890FC71C01_1684396772 SpatiallyLoaded:true Bounds:IsValid=true, Min=(X=2600.000 Y=1680.000 Z=-0.000), Max=(X=2620.000 Y=2220.000 Z=400.000) RuntimeGrid:None EditorOnly:false LevelBoundsRelevant:true HLODRelevant:true FolderPath:Playground FolderGuid:6C02BB504B69D1F3D7A624B130C18E5B Parent:00000000000000000000000000000000
   |      - Guid:F7EF639B4C87272499A6B4B1A2CDB8F1 Class:Actor Name:BP_ChaveReal_C_UAID_244BFEDF890FA11E01_1711280184 SpatiallyLoaded:true Bounds:IsValid=true, Min=(X=852.145 Y=625.367 Z=104.755), Max=(X=916.145 Y=695.185 Z=151.300) RuntimeGrid:None EditorOnly:false LevelBoundsRelevant:true HLODRelevant:false FolderPath:None FolderGuid:00000000000000000000000000000000 Parent:00000000000000000000000000000000
   |      - Guid:F80621C9446867154938FE81375207DA Class:DirectionalLight Name:DirectionalLight_1 SpatiallyLoaded:false Bounds:IsValid=true, Min=(X=-1048576.000 Y=-1048576.000 Z=-1048576.000), Max=(X=1048576.000 Y=1048576.000 Z=1048576.000) RuntimeGrid:None EditorOnly:false LevelBoundsRelevant:false HLODRelevant:false FolderPath:Lighting FolderGuid:0BA5F0A04EADB18E70D5B180D08FA34B Parent:00000000000000000000000000000000
   |      - Guid:F8EAED174D63C392B437CA996DD89C8C Class:StaticMeshActor Name:StaticMeshActor_UAID_244BFEDF890FC71C01_1684453776 SpatiallyLoaded:true Bounds:IsValid=true, Min=(X=-20.000 Y=0.000 Z=-0.000), Max=(X=0.000 Y=3600.000 Z=400.000) RuntimeGrid:None EditorOnly:false LevelBoundsRelevant:true HLODRelevant:true FolderPath:Playground FolderGuid:6C02BB504B69D1F3D7A624B130C18E5B Parent:00000000000000000000000000000000
   |      - Guid:FAC6C7024ECA4ACD228A8FAFB6D200D9 Class:StaticMeshActor Name:StaticMeshActor_UAID_244BFEDF890FC71C01_1684125753 SpatiallyLoaded:true Bounds:IsValid=true, Min=(X=-600.000 Y=2380.000 Z=-0.000), Max=(X=-20.000 Y=2400.000 Z=400.000) RuntimeGrid:None EditorOnly:false LevelBoundsRelevant:true HLODRelevant:true FolderPath:Playground FolderGuid:6C02BB504B69D1F3D7A624B130C18E5B Parent:00000000000000000000000000000000
   |      - Guid:FDE365C64A000B50288C86A19D91D4B9 Class:StaticMeshActor Name:StaticMeshActor_UAID_244BFEDF890FDD1E01_1633224742 SpatiallyLoaded:true Bounds:IsValid=true, Min=(X=775.668 Y=1056.525 Z=43.641), Max=(X=905.683 Y=1360.252 Z=174.660) RuntimeGrid:None EditorOnly:false LevelBoundsRelevant:true HLODRelevant:true FolderPath:AssetsMapa/Maca FolderGuid:D0B87D0A42E084B077B4DFAAF8CB7C55 Parent:00000000000000000000000000000000
