Containers:
  [+] MainContainer:
   |            ID: 0x0000000000000000
   |        Bounds: IsValid=false, Min=(X=0.000 Y=0.000 Z=0.000), Max=(X=0.000 Y=0.000 Z=0.000)
   |     Transform: 0.000000,0.000000,0.000000|0.000000,0.000000,-0.000000|1.000000,1.000000,1.000000
   |     Container: /Game/FirstPerson/Maps/FirstPersonMap
   |  ActorDescs:
   |      - Guid:048E71BA48E6A117C577A89010DA85D3 Class:StaticMeshActor Name:StaticMeshActor_UAID_244BFEDF890F6E1901_2130527939 SpatiallyLoaded:true Bounds:IsValid=true, Min=(X=-320.000 Y=-20.000 Z=-0.000), Max=(X=-300.000 Y=420.000 Z=350.000) RuntimeGrid:None EditorOnly:false LevelBoundsRelevant:true HLODRelevant:true FolderPath:Playground FolderGuid:6C02BB504B69D1F3D7A624B130C18E5B Parent:00000000000000000000000000000000
   |      - Guid:0C1B6950401F5B88C32A6F8F20C513AE Class:StaticMeshActor Name:StaticMeshActor_UAID_244BFEDF890F6E1901_2130443933 SpatiallyLoaded:true Bounds:IsValid=true, Min=(X=2020.000 Y=2800.000 Z=-0.000), Max=(X=2300.000 Y=2820.000 Z=350.000) RuntimeGrid:None EditorOnly:false LevelBoundsRelevant:true HLODRelevant:true FolderPath:Playground FolderGuid:6C02BB504B69D1F3D7A624B130C18E5B Parent:00000000000000000000000000000000
   |      - Guid:0FD01C954E3A63419B3100B549CB8138 Class:StaticMeshActor Name:StaticMeshActor_UAID_244BFEDF890F6E1901_2130615945 SpatiallyLoaded:true Bounds:IsValid=true, Min=(X=-20.000 Y=0.000 Z=-0.000), Max=(X=-0.000 Y=3300.000 Z=350.000) RuntimeGrid:None EditorOnly:false LevelBoundsRelevant:true HLODRelevant:true FolderPath:Playground FolderGuid:6C02BB504B69D1F3D7A624B130C18E5B Parent:00000000000000000000000000000000
   |      - Guid:1B05E5B8410FC4475F88BD9A498EF942 Class:StaticMeshActor Name:StaticMeshActor_UAID_244BFEDF890F6E1901_2130260920 SpatiallyLoaded:true Bounds:IsValid=true, Min=(X=400.000 Y=1000.000 Z=50.000), Max=(X=1600.000 Y=2600.000 Z=350.000) RuntimeGrid:None EditorOnly:false LevelBoundsRelevant:true HLODRelevant:true FolderPath:Playground FolderGuid:6C02BB504B69D1F3D7A624B130C18E5B Parent:00000000000000000000000000000000
   |      - Guid:21262252453B37957EF29F82ABA2413B Class:TextRenderActor Name:TextRenderActor_1 SpatiallyLoaded:true Bounds:IsValid=true, Min=(X=-0.100 Y=1100.000 Z=65.013), Max=(X=-0.100 Y=2363.461 Z=215.013) RuntimeGrid:None EditorOnly:false LevelBoundsRelevant:true HLODRelevant:false FolderPath:None FolderGuid:00000000000000000000000000000000 Parent:00000000000000000000000000000000
   |      - Guid:2379121D4B9EC1BB3FF48192EE2066C3 Class:SpotLight Name:SpotLight_UAID_244BFEDF890FFC1701_1513425800 SpatiallyLoaded:true Bounds:IsValid=true, Min=(X=-209.820 Y=-1299.616 Z=-1873.616), Max=(X=3729.412 Y=2639.616 Z=2065.616) RuntimeGrid:None EditorOnly:false LevelBoundsRelevant:false HLODRelevant:false FolderPath:None FolderGuid:00000000000000000000000000000000 Parent:AABC6173459FDA64C717FF9DA9903700
   |      - Guid:4165EBF44081F8C71345E2A97A83AF16 Class:StaticMeshActor Name:StaticMeshActor_UAID_244BFEDF890F6E1901_2130485936 SpatiallyLoaded:true Bounds:IsValid=true, Min=(X=-320.000 Y=2380.000 Z=-0.000), Max=(X=-300.000 Y=2820.000 Z=350.000) RuntimeGrid:None EditorOnly:false LevelBoundsRelevant:true HLODRelevant:true FolderPath:Playground FolderGuid:6C02BB504B69D1F3D7A624B130C18E5B Parent:00000000000000000000000000000000
   |      - Guid:4792DBAF430A0A2D2C51BD8DD64BFB4A Class:StaticMeshActor Name:StaticMeshActor_UAID_244BFEDF890F6E1901_2130345926 SpatiallyLoaded:true Bounds:IsValid=true, Min=(X=-300.000 Y=2100.000 Z=-0.000), Max=(X=-20.000 Y=2120.000 Z=350.000) RuntimeGrid:None EditorOnly:false LevelBoundsRelevant:true HLODRelevant:true FolderPath:Playground FolderGuid:6C02BB504B69D1F3D7A624B130C18E5B Parent:00000000000000000000000000000000
   |      - Guid:4A04B3864E21F658604B58BC636006B3 Class:StaticMeshActor Name:StaticMeshActor_UAID_244BFEDF890F6E1901_2130289922 SpatiallyLoaded:true Bounds:IsValid=true, Min=(X=-300.000 Y=2380.000 Z=-0.000), Max=(X=-20.000 Y=2400.000 Z=350.000) RuntimeGrid:None EditorOnly:false LevelBoundsRelevant:true HLODRelevant:true FolderPath:Playground FolderGuid:6C02BB504B69D1F3D7A624B130C18E5B Parent:00000000000000000000000000000000
   |      - Guid:5DF970C3424CA17C66D64B9947AF7F3C Class:StaticMeshActor Name:StaticMeshActor_UAID_244BFEDF890F6E1901_2130657948 SpatiallyLoaded:true Bounds:IsValid=true, Min=(X=-300.000 Y=-20.000 Z=-0.000), Max=(X=2000.000 Y=0.000 Z=350.000) RuntimeGrid:None EditorOnly:false LevelBoundsRelevant:true HLODRelevant:true FolderPath:Playground FolderGuid:6C02BB504B69D1F3D7A624B130C18E5B Parent:00000000000000000000000000000000
   |      - Guid:5FE7584649BB6F09265329A6C57CFD0D Class:VolumetricCloud Name:VolumetricCloud_0 SpatiallyLoaded:false Bounds:IsValid=true, Min=(X=0.000 Y=0.000 Z=820.000), Max=(X=0.000 Y=0.000 Z=820.000) RuntimeGrid:None EditorOnly:false LevelBoundsRelevant:false HLODRelevant:false FolderPath:Lighting FolderGuid:0BA5F0A04EADB18E70D5B180D08FA34B Parent:00000000000000000000000000000000
   |      - Guid:61391D344900612A77DFC3BA3E354907 Class:ExponentialHeightFog Name:ExponentialHeightFog_0 SpatiallyLoaded:false Bounds:IsValid=true, Min=(X=-5600.000 Y=-50.000 Z=-6850.000), Max=(X=-5600.000 Y=-50.000 Z=-6850.000) RuntimeGrid:None EditorOnly:false LevelBoundsRelevant:false HLODRelevant:false FolderPath:Lighting FolderGuid:0BA5F0A04EADB18E70D5B180D08FA34B Parent:00000000000000000000000000000000
   |      - Guid:6FEFB3BD4EB37B849EF0D4AC80F83855 Class:WorldDataLayers Name:WorldDataLayers SpatiallyLoaded:false Bounds:IsValid=true, Min=(X=0.000 Y=0.000 Z=0.000), Max=(X=0.000 Y=0.000 Z=0.000) RuntimeGrid:None EditorOnly:false LevelBoundsRelevant:false HLODRelevant:false FolderPath:None FolderGuid:00000000000000000000000000000000 Parent:00000000000000000000000000000000
   |      - Guid:73D064884D9FA2044B465E8675AA0696 Class:StaticMeshActor Name:StaticMeshActor_UAID_244BFEDF890F6E1901_2130386929 SpatiallyLoaded:true Bounds:IsValid=true, Min=(X=2020.000 Y=1400.000 Z=-0.000), Max=(X=2300.000 Y=1420.000 Z=350.000) RuntimeGrid:None EditorOnly:false LevelBoundsRelevant:true HLODRelevant:true FolderPath:Playground FolderGuid:6C02BB504B69D1F3D7A624B130C18E5B Parent:00000000000000000000000000000000
   |      - Guid:77F8F7A74ACCA7FA20557CBA3BDB0481 Class:Actor Name:BP_LanternaGrande_C_UAID_244BFEDF890FA31901_1434755248 SpatiallyLoaded:true Bounds:IsValid=true, Min=(X=1064.139 Y=733.118 Z=128.625), Max=(X=1131.339 Y=800.318 Z=195.825) RuntimeGrid:None EditorOnly:false LevelBoundsRelevant:true HLODRelevant:false FolderPath:None FolderGuid:00000000000000000000000000000000 Parent:00000000000000000000000000000000
   |      - Guid:7867053749F204B83DBD4BB14CF81FBC Class:StaticMeshActor Name:StaticMeshActor_UAID_244BFEDF890F6E1901_2130556941 SpatiallyLoaded:true Bounds:IsValid=true, Min=(X=2300.000 Y=1680.000 Z=-0.000), Max=(X=2320.000 Y=2120.000 Z=350.000) RuntimeGrid:None EditorOnly:false LevelBoundsRelevant:true HLODRelevant:true FolderPath:Playground FolderGuid:6C02BB504B69D1F3D7A624B130C18E5B Parent:00000000000000000000000000000000
   |      - Guid:7A0184B74074168DA9228AA412FF75B4 Class:StaticMeshActor Name:StaticMeshActor_UAID_244BFEDF890F6E1901_2130629946 SpatiallyLoaded:true Bounds:IsValid=true, Min=(X=2000.000 Y=-20.000 Z=-0.000), Max=(X=2020.000 Y=3300.000 Z=350.000) RuntimeGrid:None EditorOnly:false LevelBoundsRelevant:true HLODRelevant:true FolderPath:Playground FolderGuid:6C02BB504B69D1F3D7A624B130C18E5B Parent:00000000000000000000000000000000
   |      - Guid:804E9A624A063CEE89B7468C5A167246 Class:StaticMeshActor Name:StaticMeshActor_UAID_244BFEDF890F6E1901_2130600944 SpatiallyLoaded:true Bounds:IsValid=true, Min=(X=-20.000 Y=3300.000 Z=0.000), Max=(X=420.000 Y=3320.000 Z=350.000) RuntimeGrid:None EditorOnly:false LevelBoundsRelevant:true HLODRelevant:true FolderPath:Playground FolderGuid:6C02BB504B69D1F3D7A624B130C18E5B Parent:00000000000000000000000000000000
   |      - Guid:813E2AA447E03123D3C4F486B14B2A71 Class:StaticMeshActor Name:StaticMeshActor_UAID_244BFEDF890F6E1901_2130643947 SpatiallyLoaded:true Bounds:IsValid=true, Min=(X=-0.000 Y=3000.000 Z=0.000), Max=(X=2000.000 Y=3020.000 Z=350.000) RuntimeGrid:None EditorOnly:false LevelBoundsRelevant:true HLODRelevant:true FolderPath:Playground FolderGuid:6C02BB504B69D1F3D7A624B130C18E5B Parent:00000000000000000000000000000000
   |      - Guid:84272C114CB421E56BA525A4F57EC739 Class:StaticMeshActor Name:StaticMeshActor_UAID_244BFEDF890F6E1901_2130586943 SpatiallyLoaded:true Bounds:IsValid=true, Min=(X=1580.000 Y=3300.000 Z=0.000), Max=(X=2020.000 Y=3320.000 Z=350.000) RuntimeGrid:None EditorOnly:false LevelBoundsRelevant:true HLODRelevant:true FolderPath:Playground FolderGuid:6C02BB504B69D1F3D7A624B130C18E5B Parent:00000000000000000000000000000000
   |      - Guid:878E289C4B5AA4BF89D67EA4C9E23F23 Class:StaticMeshActor Name:StaticMeshActor_UAID_244BFEDF890F6E1901_2130331925 SpatiallyLoaded:true Bounds:IsValid=true, Min=(X=-300.000 Y=980.000 Z=-0.000), Max=(X=-20.000 Y=1000.000 Z=350.000) RuntimeGrid:None EditorOnly:false LevelBoundsRelevant:true HLODRelevant:true FolderPath:Playground FolderGuid:6C02BB504B69D1F3D7A624B130C18E5B Parent:00000000000000000000000000000000
   |      - Guid:9864769C4DD77CA3ABA0ABBE09A43D8A Class:StaticMeshActor Name:StaticMeshActor_UAID_244BFEDF890F6E1901_2130415931 SpatiallyLoaded:true Bounds:IsValid=true, Min=(X=2020.000 Y=2100.000 Z=-0.000), Max=(X=2300.000 Y=2120.000 Z=350.000) RuntimeGrid:None EditorOnly:false LevelBoundsRelevant:true HLODRelevant:true FolderPath:Playground FolderGuid:6C02BB504B69D1F3D7A624B130C18E5B Parent:00000000000000000000000000000000
   |      - Guid:A354B1B24E617A525DC6B48CCDE2417E Class:PlayerStart Name:PlayerStart_0 SpatiallyLoaded:false Bounds:IsValid=true, Min=(X=883.944 Y=680.000 Z=68.000), Max=(X=963.944 Y=760.000 Z=252.000) RuntimeGrid:None EditorOnly:false LevelBoundsRelevant:true HLODRelevant:false FolderPath:None FolderGuid:00000000000000000000000000000000 Parent:00000000000000000000000000000000
   |      - Guid:A3FE76DF4D1D1711BD37ECAAD99F4FAE Class:StaticMeshActor Name:StaticMeshActor_UAID_244BFEDF890F6E1901_2130373928 SpatiallyLoaded:true Bounds:IsValid=true, Min=(X=2020.000 Y=980.000 Z=-0.000), Max=(X=2300.000 Y=1000.000 Z=350.000) RuntimeGrid:None EditorOnly:false LevelBoundsRelevant:true HLODRelevant:true FolderPath:Playground FolderGuid:6C02BB504B69D1F3D7A624B130C18E5B Parent:00000000000000000000000000000000
   |      - Guid:AABC6173459FDA64C717FF9DA9903700 Class:Actor Name:Actor_Blueprint1_C_UAID_244BFEDF890FFF1701_1723635341 SpatiallyLoaded:true Bounds:IsValid=true, Min=(X=1396.010 Y=658.840 Z=79.809), Max=(X=1417.817 Y=681.078 Z=111.423) RuntimeGrid:None EditorOnly:false LevelBoundsRelevant:true HLODRelevant:false FolderPath:None FolderGuid:00000000000000000000000000000000 Parent:00000000000000000000000000000000
   |      - Guid:AE9A6F1F4E47017FFB6FC1BFCC95AC50 Class:StaticMeshActor Name:StaticMeshActor_UAID_244BFEDF890F6E1901_2130570942 SpatiallyLoaded:true Bounds:IsValid=true, Min=(X=2300.000 Y=2380.000 Z=-0.000), Max=(X=2320.000 Y=2820.000 Z=350.000) RuntimeGrid:None EditorOnly:false LevelBoundsRelevant:true HLODRelevant:true FolderPath:Playground FolderGuid:6C02BB504B69D1F3D7A624B130C18E5B Parent:00000000000000000000000000000000
   |      - Guid:B356F8DF41264E206AAFA08536ACEE9E Class:StaticMeshActor Name:StaticMeshActor_UAID_244BFEDF890F6E1901_2130429932 SpatiallyLoaded:true Bounds:IsValid=true, Min=(X=2020.000 Y=2380.000 Z=-0.000), Max=(X=2300.000 Y=2400.000 Z=350.000) RuntimeGrid:None EditorOnly:false LevelBoundsRelevant:true HLODRelevant:true FolderPath:Playground FolderGuid:6C02BB504B69D1F3D7A624B130C18E5B Parent:00000000000000000000000000000000
   |      - Guid:B5427D164DB484C7C1A5FB87B93EC67B Class:SpotLight Name:SpotLight_UAID_244BFEDF890F671101_1684051241 SpatiallyLoaded:true Bounds:IsValid=true, Min=(X=1456.000 Y=264.918 Z=-589.082), Max=(X=2846.164 Y=1655.082 Z=801.082) RuntimeGrid:None EditorOnly:false LevelBoundsRelevant:false HLODRelevant:false FolderPath:None FolderGuid:00000000000000000000000000000000 Parent:EE66F4454A4A9F99393F559AB739C05E
   |      - Guid:B56FF1D54AA4931CE56BA48FAF7829C6 Class:StaticMeshActor Name:StaticMeshActor_UAID_244BFEDF890F6E1901_2130457934 SpatiallyLoaded:true Bounds:IsValid=true, Min=(X=1580.000 Y=3020.000 Z=0.000), Max=(X=1600.000 Y=3300.000 Z=350.000) RuntimeGrid:None EditorOnly:false LevelBoundsRelevant:true HLODRelevant:true FolderPath:Playground FolderGuid:6C02BB504B69D1F3D7A624B130C18E5B Parent:00000000000000000000000000000000
   |      - Guid:B643DAB04943892AEF0961B53A482119 Class:StaticMeshActor Name:StaticMeshActor_UAID_244BFEDF890F6E1901_2061675919 SpatiallyLoaded:true Bounds:IsValid=true, Min=(X=-300.000 Y=0.000 Z=-0.000), Max=(X=2300.000 Y=3300.000 Z=50.000) RuntimeGrid:None EditorOnly:false LevelBoundsRelevant:true HLODRelevant:true FolderPath:Playground FolderGuid:6C02BB504B69D1F3D7A624B130C18E5B Parent:00000000000000000000000000000000
   |      - Guid:C0C56B9644AE3D40CAFF6A878DB29844 Class:StaticMeshActor Name:StaticMeshActor_UAID_A4AE111137DC5EFB00_2001720423 SpatiallyLoaded:true Bounds:IsValid=true, Min=(X=-1638400.000 Y=-1638400.000 Z=-1638400.000), Max=(X=1638400.000 Y=1638400.000 Z=1638400.000) RuntimeGrid:None EditorOnly:false LevelBoundsRelevant:true HLODRelevant:true FolderPath:Lighting FolderGuid:0BA5F0A04EADB18E70D5B180D08FA34B Parent:00000000000000000000000000000000
   |      - Guid:C121207746CB4E73BAA099B1A989944D Class:StaticMeshActor Name:StaticMeshActor_UAID_244BFEDF890F6E1901_2130401930 SpatiallyLoaded:true Bounds:IsValid=true, Min=(X=2020.000 Y=1680.000 Z=-0.000), Max=(X=2300.000 Y=1700.000 Z=350.000) RuntimeGrid:None EditorOnly:false LevelBoundsRelevant:true HLODRelevant:true FolderPath:Playground FolderGuid:6C02BB504B69D1F3D7A624B130C18E5B Parent:00000000000000000000000000000000
   |      - Guid:C22CE07C4B87D685137FDBBC10FC92C6 Class:SkyAtmosphere Name:SkyAtmosphere_0 SpatiallyLoaded:false Bounds:IsValid=true, Min=(X=0.000 Y=0.000 Z=1020.000), Max=(X=0.000 Y=0.000 Z=1020.000) RuntimeGrid:None EditorOnly:false LevelBoundsRelevant:false HLODRelevant:false FolderPath:Lighting FolderGuid:0BA5F0A04EADB18E70D5B180D08FA34B Parent:00000000000000000000000000000000
   |      - Guid:CE8D82634660FCDB3120E2B8D547C533 Class:PostProcessVolume Name:PostProcessVolume_0 SpatiallyLoaded:false Bounds:IsValid=true, Min=(X=-100.000 Y=2900.000 Z=-150.000), Max=(X=100.000 Y=3100.000 Z=50.000) RuntimeGrid:None EditorOnly:false LevelBoundsRelevant:false HLODRelevant:false FolderPath:Lighting FolderGuid:0BA5F0A04EADB18E70D5B180D08FA34B Parent:00000000000000000000000000000000
   |      - Guid:CE96A4EE499D3E62C687B3881BBE5DAF Class:StaticMeshActor Name:StaticMeshActor_UAID_244BFEDF890F3D1701_1538614183 SpatiallyLoaded:true Bounds:IsValid=true, Min=(X=-730.000 Y=-600.000 Z=350.000), Max=(X=4270.000 Y=4400.000 Z=400.000) RuntimeGrid:None EditorOnly:false LevelBoundsRelevant:true HLODRelevant:true FolderPath:Playground FolderGuid:6C02BB504B69D1F3D7A624B130C18E5B Parent:00000000000000000000000000000000
   |      - Guid:D5DE95F74B15074374D4AD84B4A3807D Class:StaticMeshActor Name:StaticMeshActor_UAID_244BFEDF890F6E1901_2130359927 SpatiallyLoaded:true Bounds:IsValid=true, Min=(X=-300.000 Y=400.000 Z=-0.000), Max=(X=-20.000 Y=420.000 Z=350.000) RuntimeGrid:None EditorOnly:false LevelBoundsRelevant:true HLODRelevant:true FolderPath:Playground FolderGuid:6C02BB504B69D1F3D7A624B130C18E5B Parent:00000000000000000000000000000000
   |      - Guid:DE4E73934391E5CA8F14DD9F611DEADA Class:StaticMeshActor Name:StaticMeshActor_UAID_244BFEDF890F6E1901_2130303923 SpatiallyLoaded:true Bounds:IsValid=true, Min=(X=-300.000 Y=1680.000 Z=-0.000), Max=(X=-20.000 Y=1700.000 Z=350.000) RuntimeGrid:None EditorOnly:false LevelBoundsRelevant:true HLODRelevant:true FolderPath:Playground FolderGuid:6C02BB504B69D1F3D7A624B130C18E5B Parent:00000000000000000000000000000000
   |      - Guid:E5320C1B4FD9764CE7B54D8487AEC613 Class:SkyLight Name:SkyLight_0 SpatiallyLoaded:false Bounds:IsValid=true, Min=(X=0.000 Y=0.000 Z=690.000), Max=(X=0.000 Y=0.000 Z=690.000) RuntimeGrid:None EditorOnly:false LevelBoundsRelevant:false HLODRelevant:false FolderPath:Lighting FolderGuid:0BA5F0A04EADB18E70D5B180D08FA34B Parent:00000000000000000000000000000000
   |      - Guid:EC55114940B31C23F89A4EAF90D90A0A Class:StaticMeshActor Name:StaticMeshActor_UAID_244BFEDF890F6E1901_2130541940 SpatiallyLoaded:true Bounds:IsValid=true, Min=(X=2300.000 Y=980.000 Z=-0.000), Max=(X=2320.000 Y=1420.000 Z=350.000) RuntimeGrid:None EditorOnly:false LevelBoundsRelevant:true HLODRelevant:true FolderPath:Playground FolderGuid:6C02BB504B69D1F3D7A624B130C18E5B Parent:00000000000000000000000000000000
   |      - Guid:EE66F4454A4A9F99393F559AB739C05E Class:Actor Name:BP_Rifle_C_1 SpatiallyLoaded:true Bounds:IsValid=true, Min=(X=1378.000 Y=928.000 Z=64.000), Max=(X=1442.000 Y=992.000 Z=128.000) RuntimeGrid:None EditorOnly:false LevelBoundsRelevant:true HLODRelevant:false FolderPath:None FolderGuid:00000000000000000000000000000000 Parent:00000000000000000000000000000000
   |      - Guid:EFFA57734B715B0F58F5B9B19F59D4F0 Class:StaticMeshActor Name:StaticMeshActor_UAID_244BFEDF890F6E1901_2130471935 SpatiallyLoaded:true Bounds:IsValid=true, Min=(X=400.000 Y=3020.000 Z=0.000), Max=(X=420.000 Y=3300.000 Z=350.000) RuntimeGrid:None EditorOnly:false LevelBoundsRelevant:true HLODRelevant:true FolderPath:Playground FolderGuid:6C02BB504B69D1F3D7A624B130C18E5B Parent:00000000000000000000000000000000
   |      - Guid:F641F38341016E14852B33A53426A247 Class:StaticMeshActor Name:StaticMeshActor_UAID_244BFEDF890F6E1901_2130513938 SpatiallyLoaded:true Bounds:IsValid=true, Min=(X=-320.000 Y=980.000 Z=-0.000), Max=(X=-300.000 Y=1420.000 Z=350.000) RuntimeGrid:None EditorOnly:false LevelBoundsRelevant:true HLODRelevant:true FolderPath:Playground FolderGuid:6C02BB504B69D1F3D7A624B130C18E5B Parent:00000000000000000000000000000000
   |      - Guid:F724DC9148390D304DB7EF9F0FA8F008 Class:StaticMeshActor Name:StaticMeshActor_UAID_244BFEDF890F6E1901_2130317924 SpatiallyLoaded:true Bounds:IsValid=true, Min=(X=-300.000 Y=1400.000 Z=-0.000), Max=(X=-20.000 Y=1420.000 Z=350.000) RuntimeGrid:None EditorOnly:false LevelBoundsRelevant:true HLODRelevant:true FolderPath:Playground FolderGuid:6C02BB504B69D1F3D7A624B130C18E5B Parent:00000000000000000000000000000000
   |      - Guid:F80621C9446867154938FE81375207DA Class:DirectionalLight Name:DirectionalLight_1 SpatiallyLoaded:false Bounds:IsValid=true, Min=(X=-1048576.000 Y=-1048576.000 Z=-1048576.000), Max=(X=1048576.000 Y=1048576.000 Z=1048576.000) RuntimeGrid:None EditorOnly:false LevelBoundsRelevant:false HLODRelevant:false FolderPath:Lighting FolderGuid:0BA5F0A04EADB18E70D5B180D08FA34B Parent:00000000000000000000000000000000
   |      - Guid:FACB67064A6396BDD3C068B0157C281C Class:StaticMeshActor Name:StaticMeshActor_UAID_244BFEDF890F6E1901_2130499937 SpatiallyLoaded:true Bounds:IsValid=true, Min=(X=-320.000 Y=1680.000 Z=-0.000), Max=(X=-300.000 Y=2120.000 Z=350.000) RuntimeGrid:None EditorOnly:false LevelBoundsRelevant:true HLODRelevant:true FolderPath:Playground FolderGuid:6C02BB504B69D1F3D7A624B130C18E5B Parent:00000000000000000000000000000000
