Containers:
  [+] MainContainer:
   |            ID: 0x0000000000000000
   |        Bounds: IsValid=false, Min=(X=0.000 Y=0.000 Z=0.000), Max=(X=0.000 Y=0.000 Z=0.000)
   |     Transform: 0.000000,0.000000,0.000000|0.000000,0.000000,-0.000000|1.000000,1.000000,1.000000
   |     Container: /Game/FirstPerson/Maps/FirstPersonMap
   |  ActorDescs:
   |      - Guid:008F3B7F4AFB6D4FE4C782A767ABD3C9 Class:StaticMeshActor Name:StaticMeshActor_UAID_244BFEDF890FC71C01_1684268763 SpatiallyLoaded:true Bounds:IsValid=true, Min=(X=2020.000 Y=2380.000 Z=-0.000), Max=(X=2600.000 Y=2400.000 Z=400.000) RuntimeGrid:None EditorOnly:false LevelBoundsRelevant:true HLODRelevant:true FolderPath:Playground FolderGuid:6C02BB504B69D1F3D7A624B130C18E5B Parent:00000000000000000000000000000000
   |      - Guid:0A75C0FE4D02DEAA2B694682E8E3E5EF Class:StaticMeshActor Name:StaticMeshActor_UAID_244BFEDF890FC71C01_1684382771 SpatiallyLoaded:true Bounds:IsValid=true, Min=(X=2600.000 Y=980.000 Z=-0.000), Max=(X=2620.000 Y=1520.000 Z=400.000) RuntimeGrid:None EditorOnly:false LevelBoundsRelevant:true HLODRelevant:true FolderPath:Playground FolderGuid:6C02BB504B69D1F3D7A624B130C18E5B Parent:00000000000000000000000000000000
   |      - Guid:0C027FC64F70B37478BD7EBC95FF0195 Class:StaticMeshActor Name:StaticMeshActor_UAID_244BFEDF890FC71C01_1684510780 SpatiallyLoaded:true Bounds:IsValid=true, Min=(X=-600.000 Y=2900.000 Z=0.000), Max=(X=-20.000 Y=2920.000 Z=400.000) RuntimeGrid:None EditorOnly:false LevelBoundsRelevant:true HLODRelevant:true FolderPath:Playground FolderGuid:6C02BB504B69D1F3D7A624B130C18E5B Parent:00000000000000000000000000000000
   |      - Guid:19CD13D444A98538BB0134BBC4830E65 Class:StaticMeshActor Name:StaticMeshActor_UAID_244BFEDF890F321E01_1527829642 SpatiallyLoaded:true Bounds:IsValid=true, Min=(X=2400.000 Y=0.000 Z=219.999), Max=(X=2600.000 Y=980.000 Z=230.000) RuntimeGrid:None EditorOnly:false LevelBoundsRelevant:true HLODRelevant:true FolderPath:Playground FolderGuid:6C02BB504B69D1F3D7A624B130C18E5B Parent:00000000000000000000000000000000
   |      - Guid:1B7C390F427F3E999D8610AC8A3AD650 Class:TargetPoint Name:TargetPoint_UAID_244BFEDF890FA01E01_1340904006 SpatiallyLoaded:true Bounds:IsValid=true, Min=(X=176.939 Y=2783.877 Z=50.000), Max=(X=176.939 Y=2783.877 Z=50.000) RuntimeGrid:None EditorOnly:false LevelBoundsRelevant:true HLODRelevant:false FolderPath:ThePoliEyedBeast FolderGuid:37FDFF2E45D440B018DCF1B46B4EDEB2 Parent:00000000000000000000000000000000
   |      - Guid:21262252453B37957EF29F82ABA2413B Class:TextRenderActor Name:TextRenderActor_1 SpatiallyLoaded:true Bounds:IsValid=true, Min=(X=-642.522 Y=1100.000 Z=65.013), Max=(X=-642.522 Y=2363.461 Z=215.013) RuntimeGrid:None EditorOnly:false LevelBoundsRelevant:true HLODRelevant:false FolderPath:None FolderGuid:00000000000000000000000000000000 Parent:00000000000000000000000000000000
   |      - Guid:273C2CC5412D9EB92B7A5F9FA92BCE03 Class:StaticMeshActor Name:StaticMeshActor_UAID_244BFEDF890FC71C01_1684353769 SpatiallyLoaded:true Bounds:IsValid=true, Min=(X=-620.000 Y=980.000 Z=-0.000), Max=(X=-600.000 Y=1520.000 Z=400.000) RuntimeGrid:None EditorOnly:false LevelBoundsRelevant:true HLODRelevant:true FolderPath:Playground FolderGuid:6C02BB504B69D1F3D7A624B130C18E5B Parent:00000000000000000000000000000000
   |      - Guid:2A83DB2540AFFA7DC9AD7489FC45796E Class:StaticMeshActor Name:StaticMeshActor_UAID_244BFEDF890F321E01_1527843643 SpatiallyLoaded:true Bounds:IsValid=true, Min=(X=2000.000 Y=0.000 Z=50.000), Max=(X=2400.000 Y=490.000 Z=230.000) RuntimeGrid:None EditorOnly:false LevelBoundsRelevant:true HLODRelevant:true FolderPath:Playground FolderGuid:6C02BB504B69D1F3D7A624B130C18E5B Parent:00000000000000000000000000000000
   |      - Guid:2AEA77BC480E3F75D5346C9A9DCE3BAE Class:Actor Name:BP_PortaMetal_C_UAID_244BFEDF890FB71C01_2033554941 SpatiallyLoaded:true Bounds:IsValid=true, Min=(X=1906.000 Y=1859.000 Z=50.000), Max=(X=2114.000 Y=2038.000 Z=325.000) RuntimeGrid:None EditorOnly:false LevelBoundsRelevant:true HLODRelevant:false FolderPath:AssetsMapa/PortasMetalOposto FolderGuid:BAF1D96E45B523E6867C0F97CFFB56C1 Parent:00000000000000000000000000000000
   |      - Guid:2F8D5E8B43626C7034E288B450739D59 Class:TargetPoint Name:TargetPoint_UAID_244BFEDF890F9E1E01_1943634649 SpatiallyLoaded:true Bounds:IsValid=true, Min=(X=215.902 Y=622.053 Z=50.000), Max=(X=215.902 Y=622.053 Z=50.000) RuntimeGrid:None EditorOnly:false LevelBoundsRelevant:true HLODRelevant:false FolderPath:ThePoliEyedBeast FolderGuid:37FDFF2E45D440B018DCF1B46B4EDEB2 Parent:00000000000000000000000000000000
   |      - Guid:37352E884C99F2E5D58AA78967821FFD Class:Actor Name:BP_PortaMetal_C_UAID_244BFEDF890FB81C01_1428872121 SpatiallyLoaded:true Bounds:IsValid=true, Min=(X=1486.000 Y=2262.000 Z=50.000), Max=(X=1694.000 Y=2441.000 Z=325.000) RuntimeGrid:None EditorOnly:false LevelBoundsRelevant:true HLODRelevant:false FolderPath:AssetsMapa/PortasMetalNecroterio FolderGuid:8762A59C4EAD95AF9754BA896C3AE7A6 Parent:00000000000000000000000000000000
   |      - Guid:3AC46EA84C719A524D6A5DB493FCC001 Class:StaticMeshActor Name:StaticMeshActor_UAID_244BFEDF890FC71C01_1684197758 SpatiallyLoaded:true Bounds:IsValid=true, Min=(X=-600.000 Y=500.000 Z=-0.000), Max=(X=-20.000 Y=520.000 Z=400.000) RuntimeGrid:None EditorOnly:false LevelBoundsRelevant:true HLODRelevant:true FolderPath:Playground FolderGuid:6C02BB504B69D1F3D7A624B130C18E5B Parent:00000000000000000000000000000000
   |      - Guid:3B5790934D372E137B75AF82C62918D7 Class:StaticMeshActor Name:StaticMeshActor_UAID_244BFEDF890FC71C01_1684425774 SpatiallyLoaded:true Bounds:IsValid=true, Min=(X=1480.000 Y=3600.000 Z=-0.000), Max=(X=2020.000 Y=3620.000 Z=400.000) RuntimeGrid:None EditorOnly:false LevelBoundsRelevant:true HLODRelevant:true FolderPath:Playground FolderGuid:6C02BB504B69D1F3D7A624B130C18E5B Parent:00000000000000000000000000000000
   |      - Guid:40FD2BB24244799A9A2AD9A7C0DBE424 Class:Actor Name:BP_PortaMetal_C_UAID_244BFEDF890FB81C01_1293476120 SpatiallyLoaded:true Bounds:IsValid=true, Min=(X=1664.000 Y=2906.000 Z=50.000), Max=(X=1843.000 Y=3114.000 Z=325.000) RuntimeGrid:None EditorOnly:false LevelBoundsRelevant:true HLODRelevant:false FolderPath:AssetsMapa/PortasMetalFundo FolderGuid:A67102E142E574C2B23AA387B1C8EBE4 Parent:00000000000000000000000000000000
   |      - Guid:4149CFE24DF9E23FD1E2F88DF634B620 Class:StaticMeshActor Name:StaticMeshActor_UAID_244BFEDF890FAC1E01_1493173111 SpatiallyLoaded:true Bounds:IsValid=true, Min=(X=1100.000 Y=-10.000 Z=50.000), Max=(X=1225.000 Y=20.000 Z=300.000) RuntimeGrid:None EditorOnly:false LevelBoundsRelevant:true HLODRelevant:true FolderPath:AssetsMapa/PortasMadeira FolderGuid:354B99B749BAC3243C0C1D8964C4884C Parent:00000000000000000000000000000000
   |      - Guid:43F2CA084E59DCAB6F3032B41CA1A29F Class:StaticMeshActor Name:StaticMeshActor_UAID_244BFEDF890FC71C01_1684282764 SpatiallyLoaded:true Bounds:IsValid=true, Min=(X=2020.000 Y=2900.000 Z=-0.000), Max=(X=2600.000 Y=2920.000 Z=400.000) RuntimeGrid:None EditorOnly:false LevelBoundsRelevant:true HLODRelevant:true FolderPath:Playground FolderGuid:6C02BB504B69D1F3D7A624B130C18E5B Parent:00000000000000000000000000000000
   |      - Guid:4D537AC94C5D6BFA212CC5BC076CE353 Class:Actor Name:BP_PortaMetal_C_UAID_244BFEDF890FB71C01_1799819937 SpatiallyLoaded:true Bounds:IsValid=true, Min=(X=-114.000 Y=1165.000 Z=50.000), Max=(X=94.000 Y=1344.000 Z=325.000) RuntimeGrid:None EditorOnly:false LevelBoundsRelevant:true HLODRelevant:false FolderPath:AssetsMapa/PortasMetalSpawn FolderGuid:007B29964E565AD7015CB894A926EA2B Parent:00000000000000000000000000000000
   |      - Guid:51E3A9D247E6C1FD88FAEC9A6DA972D0 Class:StaticMeshActor Name:StaticMeshActor_UAID_244BFEDF890FC71C01_1684211759 SpatiallyLoaded:true Bounds:IsValid=true, Min=(X=2020.000 Y=980.000 Z=-0.000), Max=(X=2600.000 Y=1000.000 Z=400.000) RuntimeGrid:None EditorOnly:false LevelBoundsRelevant:true HLODRelevant:true FolderPath:Playground FolderGuid:6C02BB504B69D1F3D7A624B130C18E5B Parent:00000000000000000000000000000000
   |      - Guid:525A168D4FD670B04C01D3B16DF6A078 Class:StaticMeshActor Name:StaticMeshActor_UAID_244BFEDF890FC71C01_1684254762 SpatiallyLoaded:true Bounds:IsValid=true, Min=(X=2020.000 Y=2200.000 Z=-0.000), Max=(X=2600.000 Y=2220.000 Z=400.000) RuntimeGrid:None EditorOnly:false LevelBoundsRelevant:true HLODRelevant:true FolderPath:Playground FolderGuid:6C02BB504B69D1F3D7A624B130C18E5B Parent:00000000000000000000000000000000
   |      - Guid:5635BEC147B45D365B2AF18360797442 Class:Actor Name:BP_PortaMetal_C_UAID_244BFEDF890FB71C01_1929777940 SpatiallyLoaded:true Bounds:IsValid=true, Min=(X=1906.000 Y=2559.000 Z=50.000), Max=(X=2114.000 Y=2738.000 Z=325.000) RuntimeGrid:None EditorOnly:false LevelBoundsRelevant:true HLODRelevant:false FolderPath:AssetsMapa/PortasMetalOposto FolderGuid:BAF1D96E45B523E6867C0F97CFFB56C1 Parent:00000000000000000000000000000000
   |      - Guid:56DF8CAC42451DDFEF180C80C32B9F97 Class:TargetPoint Name:TargetPoint_UAID_244BFEDF890FAD1E01_1196103289 SpatiallyLoaded:true Bounds:IsValid=true, Min=(X=-284.979 Y=1956.833 Z=100.000), Max=(X=-284.979 Y=1956.833 Z=100.000) RuntimeGrid:None EditorOnly:false LevelBoundsRelevant:true HLODRelevant:false FolderPath:Chaves FolderGuid:99194F1542A5ED8A8277B78F1D034CBF Parent:00000000000000000000000000000000
   |      - Guid:597C383F4ED66D47B728A5AC61312135 Class:TargetPoint Name:TargetPoint_UAID_244BFEDF890FAD1E01_1276911292 SpatiallyLoaded:true Bounds:IsValid=true, Min=(X=1754.770 Y=3236.941 Z=100.000), Max=(X=1754.770 Y=3236.941 Z=100.000) RuntimeGrid:None EditorOnly:false LevelBoundsRelevant:true HLODRelevant:false FolderPath:Chaves FolderGuid:99194F1542A5ED8A8277B78F1D034CBF Parent:00000000000000000000000000000000
   |      - Guid:5DF161994CC5D7C2DCF4B185C3C7C489 Class:StaticMeshActor Name:StaticMeshActor_UAID_244BFEDF890FC71C01_1684482778 SpatiallyLoaded:true Bounds:IsValid=true, Min=(X=-0.000 Y=3000.000 Z=-0.000), Max=(X=2000.000 Y=3020.000 Z=400.000) RuntimeGrid:None EditorOnly:false LevelBoundsRelevant:true HLODRelevant:true FolderPath:Playground FolderGuid:6C02BB504B69D1F3D7A624B130C18E5B Parent:00000000000000000000000000000000
   |      - Guid:5FE7584649BB6F09265329A6C57CFD0D Class:VolumetricCloud Name:VolumetricCloud_0 SpatiallyLoaded:false Bounds:IsValid=true, Min=(X=0.000 Y=0.000 Z=820.000), Max=(X=0.000 Y=0.000 Z=820.000) RuntimeGrid:None EditorOnly:false LevelBoundsRelevant:false HLODRelevant:false FolderPath:Lighting FolderGuid:0BA5F0A04EADB18E70D5B180D08FA34B Parent:00000000000000000000000000000000
   |      - Guid:61391D344900612A77DFC3BA3E354907 Class:ExponentialHeightFog Name:ExponentialHeightFog_0 SpatiallyLoaded:false Bounds:IsValid=true, Min=(X=-5600.000 Y=-50.000 Z=-6850.000), Max=(X=-5600.000 Y=-50.000 Z=-6850.000) RuntimeGrid:None EditorOnly:false LevelBoundsRelevant:false HLODRelevant:false FolderPath:Lighting FolderGuid:0BA5F0A04EADB18E70D5B180D08FA34B Parent:00000000000000000000000000000000
   |      - Guid:67A1059646642D95E5E44299C7472B69 Class:StaticMeshActor Name:StaticMeshActor_UAID_244BFEDF890FC71C01_1684090751 SpatiallyLoaded:true Bounds:IsValid=true, Min=(X=0.000 Y=0.000 Z=-0.000), Max=(X=2000.000 Y=3000.000 Z=50.000) RuntimeGrid:None EditorOnly:false LevelBoundsRelevant:true HLODRelevant:true FolderPath:Playground FolderGuid:6C02BB504B69D1F3D7A624B130C18E5B Parent:00000000000000000000000000000000
   |      - Guid:6903B08F4D29453AF61E5CB36B9A3456 Class:NavMeshBoundsVolume Name:NavMeshBoundsVolume_UAID_244BFEDF890F9F1E01_1892799829 SpatiallyLoaded:false Bounds:IsValid=true, Min=(X=17.127 Y=-132.000 Z=50.000), Max=(X=2152.627 Y=3146.000 Z=250.000) RuntimeGrid:None EditorOnly:false LevelBoundsRelevant:false HLODRelevant:false FolderPath:ThePoliEyedBeast FolderGuid:37FDFF2E45D440B018DCF1B46B4EDEB2 Parent:00000000000000000000000000000000
   |      - Guid:6B046BAD4C13FEFC5E0AE1A23EDB6949 Class:Actor Name:BP_PortaMetal_C_UAID_244BFEDF890FB81C01_1203987119 SpatiallyLoaded:true Bounds:IsValid=true, Min=(X=164.000 Y=2906.000 Z=50.000), Max=(X=343.000 Y=3114.000 Z=325.000) RuntimeGrid:None EditorOnly:false LevelBoundsRelevant:true HLODRelevant:false FolderPath:AssetsMapa/PortasMetalFundo FolderGuid:A67102E142E574C2B23AA387B1C8EBE4 Parent:00000000000000000000000000000000
   |      - Guid:6FEFB3BD4EB37B849EF0D4AC80F83855 Class:WorldDataLayers Name:WorldDataLayers SpatiallyLoaded:false Bounds:IsValid=true, Min=(X=0.000 Y=0.000 Z=0.000), Max=(X=0.000 Y=0.000 Z=0.000) RuntimeGrid:None EditorOnly:false LevelBoundsRelevant:false HLODRelevant:false FolderPath:None FolderGuid:00000000000000000000000000000000 Parent:00000000000000000000000000000000
   |      - Guid:72BEE6274EDD9487ED1FC2BD8A2DBC2D Class:TargetPoint Name:TargetPoint_UAID_244BFEDF890FAD1E01_1203936290 SpatiallyLoaded:true Bounds:IsValid=true, Min=(X=-284.979 Y=2669.261 Z=100.000), Max=(X=-284.979 Y=2669.261 Z=100.000) RuntimeGrid:None EditorOnly:false LevelBoundsRelevant:true HLODRelevant:false FolderPath:Chaves FolderGuid:99194F1542A5ED8A8277B78F1D034CBF Parent:00000000000000000000000000000000
   |      - Guid:77F8F7A74ACCA7FA20557CBA3BDB0481 Class:Actor Name:BP_LanternaGrande_C_UAID_244BFEDF890FA31901_1434755248 SpatiallyLoaded:true Bounds:IsValid=true, Min=(X=933.500 Y=1073.771 Z=105.200), Max=(X=1023.100 Y=1163.371 Z=194.800) RuntimeGrid:None EditorOnly:false LevelBoundsRelevant:true HLODRelevant:false FolderPath:None FolderGuid:00000000000000000000000000000000 Parent:00000000000000000000000000000000
   |      - Guid:789728734DA39FCED770838CD00A0619 Class:StaticMeshActor Name:StaticMeshActor_UAID_244BFEDF890FC71C01_1684310766 SpatiallyLoaded:true Bounds:IsValid=true, Min=(X=500.000 Y=3020.000 Z=-0.000), Max=(X=520.000 Y=3600.000 Z=400.000) RuntimeGrid:None EditorOnly:false LevelBoundsRelevant:true HLODRelevant:true FolderPath:Playground FolderGuid:6C02BB504B69D1F3D7A624B130C18E5B Parent:00000000000000000000000000000000
   |      - Guid:78C51267446D4314552E579F683616B7 Class:StaticMeshActor Name:StaticMeshActor_UAID_244BFEDF890FC71C01_1684153755 SpatiallyLoaded:true Bounds:IsValid=true, Min=(X=-600.000 Y=1500.000 Z=-0.000), Max=(X=-20.000 Y=1520.000 Z=400.000) RuntimeGrid:None EditorOnly:false LevelBoundsRelevant:true HLODRelevant:true FolderPath:Playground FolderGuid:6C02BB504B69D1F3D7A624B130C18E5B Parent:00000000000000000000000000000000
   |      - Guid:7AF72EE94C0D8CCFEB273BB931931EF1 Class:StaticMeshActor Name:StaticMeshActor_UAID_244BFEDF890FC71C01_1684140754 SpatiallyLoaded:true Bounds:IsValid=true, Min=(X=-600.000 Y=1680.000 Z=-0.000), Max=(X=-20.000 Y=1700.000 Z=400.000) RuntimeGrid:None EditorOnly:false LevelBoundsRelevant:true HLODRelevant:true FolderPath:Playground FolderGuid:6C02BB504B69D1F3D7A624B130C18E5B Parent:00000000000000000000000000000000
   |      - Guid:7B1A90B9435D743EB225788ECC8EAD04 Class:TargetPoint Name:TargetPoint_UAID_244BFEDF890FAD1E01_1229427291 SpatiallyLoaded:true Bounds:IsValid=true, Min=(X=280.111 Y=3236.941 Z=100.000), Max=(X=280.111 Y=3236.941 Z=100.000) RuntimeGrid:None EditorOnly:false LevelBoundsRelevant:true HLODRelevant:false FolderPath:Chaves FolderGuid:99194F1542A5ED8A8277B78F1D034CBF Parent:00000000000000000000000000000000
   |      - Guid:7B2D7A2D4E706453586F7B886D90A19B Class:TargetPoint Name:TargetPoint_UAID_244BFEDF890F9E1E01_2023967651 SpatiallyLoaded:true Bounds:IsValid=true, Min=(X=1774.346 Y=2783.877 Z=50.000), Max=(X=1774.346 Y=2783.877 Z=50.000) RuntimeGrid:None EditorOnly:false LevelBoundsRelevant:true HLODRelevant:false FolderPath:ThePoliEyedBeast FolderGuid:37FDFF2E45D440B018DCF1B46B4EDEB2 Parent:00000000000000000000000000000000
   |      - Guid:7E530FFA4466B25ECC204782F355082E Class:StaticMeshActor Name:StaticMeshActor_UAID_244BFEDF890F321E01_1901270648 SpatiallyLoaded:true Bounds:IsValid=true, Min=(X=1970.000 Y=-600.000 Z=450.000), Max=(X=2020.000 Y=1400.000 Z=1070.000) RuntimeGrid:None EditorOnly:false LevelBoundsRelevant:true HLODRelevant:true FolderPath:Playground FolderGuid:6C02BB504B69D1F3D7A624B130C18E5B Parent:00000000000000000000000000000000
   |      - Guid:818EB3EB49852944833D49BB4F70D492 Class:StaticMeshActor Name:StaticMeshActor_UAID_244BFEDF890FC71C01_1684226760 SpatiallyLoaded:true Bounds:IsValid=true, Min=(X=2020.000 Y=1500.000 Z=-0.000), Max=(X=2600.000 Y=1520.000 Z=400.000) RuntimeGrid:None EditorOnly:false LevelBoundsRelevant:true HLODRelevant:true FolderPath:Playground FolderGuid:6C02BB504B69D1F3D7A624B130C18E5B Parent:00000000000000000000000000000000
   |      - Guid:83BA84BC40F5F4F550BF1DA5B58FDE24 Class:StaticMeshActor Name:StaticMeshActor_UAID_244BFEDF890FC71C01_1684325767 SpatiallyLoaded:true Bounds:IsValid=true, Min=(X=-620.000 Y=2380.000 Z=-0.000), Max=(X=-600.000 Y=2920.000 Z=400.000) RuntimeGrid:None EditorOnly:false LevelBoundsRelevant:true HLODRelevant:true FolderPath:Playground FolderGuid:6C02BB504B69D1F3D7A624B130C18E5B Parent:00000000000000000000000000000000
   |      - Guid:84B05EFE47F306F60CD47E9E7488B2D8 Class:StaticMeshActor Name:StaticMeshActor_UAID_244BFEDF890F321E01_1527782639 SpatiallyLoaded:true Bounds:IsValid=true, Min=(X=2000.000 Y=0.000 Z=-300.000), Max=(X=2400.000 Y=490.000 Z=-120.000) RuntimeGrid:None EditorOnly:false LevelBoundsRelevant:true HLODRelevant:true FolderPath:Playground FolderGuid:6C02BB504B69D1F3D7A624B130C18E5B Parent:00000000000000000000000000000000
   |      - Guid:8661704F42A4042967B288B64AEF4184 Class:Character Name:BP_Monstro_C_UAID_244BFEDF890F9F1E01_1226310828 SpatiallyLoaded:true Bounds:IsValid=true, Min=(X=1014.513 Y=2585.823 Z=50.000), Max=(X=1291.473 Y=3004.318 Z=234.230) RuntimeGrid:None EditorOnly:false LevelBoundsRelevant:true HLODRelevant:false FolderPath:ThePoliEyedBeast FolderGuid:37FDFF2E45D440B018DCF1B46B4EDEB2 Parent:00000000000000000000000000000000
   |      - Guid:871139334CEE6B8D45EF0CB7B6A8FB13 Class:StaticMeshActor Name:StaticMeshActor_UAID_244BFEDF890FC71C01_1684439775 SpatiallyLoaded:true Bounds:IsValid=true, Min=(X=-20.000 Y=3600.000 Z=-0.000), Max=(X=520.000 Y=3620.000 Z=400.000) RuntimeGrid:None EditorOnly:false LevelBoundsRelevant:true HLODRelevant:true FolderPath:Playground FolderGuid:6C02BB504B69D1F3D7A624B130C18E5B Parent:00000000000000000000000000000000
   |      - Guid:8A21BE7E46E53A0B82DF8D84627B4B78 Class:StaticMeshActor Name:StaticMeshActor_UAID_244BFEDF890FC71C01_1684496779 SpatiallyLoaded:true Bounds:IsValid=true, Min=(X=-600.000 Y=-20.000 Z=-0.000), Max=(X=2000.000 Y=0.000 Z=400.000) RuntimeGrid:None EditorOnly:false LevelBoundsRelevant:true HLODRelevant:true FolderPath:Playground FolderGuid:6C02BB504B69D1F3D7A624B130C18E5B Parent:00000000000000000000000000000000
   |      - Guid:8B4549D84A44462ECA2DDD9B2C83BAF7 Class:StaticMeshActor Name:StaticMeshActor_UAID_244BFEDF890FC71C01_1684367770 SpatiallyLoaded:true Bounds:IsValid=true, Min=(X=-620.000 Y=-20.000 Z=-0.000), Max=(X=-600.000 Y=520.000 Z=400.000) RuntimeGrid:None EditorOnly:false LevelBoundsRelevant:true HLODRelevant:true FolderPath:Playground FolderGuid:6C02BB504B69D1F3D7A624B130C18E5B Parent:00000000000000000000000000000000
   |      - Guid:8BD585EC480FE5EB54B121B1CA771171 Class:StaticMeshActor Name:StaticMeshActor_UAID_244BFEDF890F321E01_1527885646 SpatiallyLoaded:true Bounds:IsValid=true, Min=(X=2600.000 Y=-20.000 Z=-130.000), Max=(X=2620.000 Y=980.000 Z=800.000) RuntimeGrid:None EditorOnly:false LevelBoundsRelevant:true HLODRelevant:true FolderPath:Playground FolderGuid:6C02BB504B69D1F3D7A624B130C18E5B Parent:00000000000000000000000000000000
   |      - Guid:95C4E6E948F9B338A5FBD79873D6A8D6 Class:StaticMeshActor Name:StaticMeshActor_UAID_244BFEDF890FC71C01_1684467777 SpatiallyLoaded:true Bounds:IsValid=true, Min=(X=2000.000 Y=-20.000 Z=-0.000), Max=(X=2020.000 Y=3600.000 Z=400.000) RuntimeGrid:None EditorOnly:false LevelBoundsRelevant:true HLODRelevant:true FolderPath:Playground FolderGuid:6C02BB504B69D1F3D7A624B130C18E5B Parent:00000000000000000000000000000000
   |      - Guid:964AE062422B24656AD7C7A6F774E36D Class:StaticMeshActor Name:StaticMeshActor_UAID_244BFEDF890F321E01_1527816641 SpatiallyLoaded:true Bounds:IsValid=true, Min=(X=2400.000 Y=0.000 Z=-129.988), Max=(X=2600.000 Y=980.000 Z=-119.988) RuntimeGrid:None EditorOnly:false LevelBoundsRelevant:true HLODRelevant:true FolderPath:Playground FolderGuid:6C02BB504B69D1F3D7A624B130C18E5B Parent:00000000000000000000000000000000
   |      - Guid:998246C24DCB981DAFE175AE4E75C866 Class:StaticMeshActor Name:StaticMeshActor_UAID_244BFEDF890F621C01_1644994979 SpatiallyLoaded:true Bounds:IsValid=true, Min=(X=975.000 Y=-10.000 Z=50.000), Max=(X=1100.000 Y=20.000 Z=300.000) RuntimeGrid:None EditorOnly:false LevelBoundsRelevant:true HLODRelevant:true FolderPath:AssetsMapa/PortasMadeira FolderGuid:354B99B749BAC3243C0C1D8964C4884C Parent:00000000000000000000000000000000
   |      - Guid:A354B1B24E617A525DC6B48CCDE2417E Class:PlayerStart Name:PlayerStart_0 SpatiallyLoaded:false Bounds:IsValid=true, Min=(X=-570.000 Y=210.000 Z=103.548), Max=(X=-490.000 Y=290.000 Z=287.548) RuntimeGrid:None EditorOnly:false LevelBoundsRelevant:true HLODRelevant:false FolderPath:None FolderGuid:00000000000000000000000000000000 Parent:00000000000000000000000000000000
   |      - Guid:A8DA24C54BAB278DE3CCF2AFA4CF8DEE Class:StaticMeshActor Name:StaticMeshActor_UAID_244BFEDF890F321E01_1527801640 SpatiallyLoaded:true Bounds:IsValid=true, Min=(X=2000.000 Y=490.000 Z=-119.988), Max=(X=2400.000 Y=980.000 Z=50.012) RuntimeGrid:None EditorOnly:false LevelBoundsRelevant:true HLODRelevant:true FolderPath:Playground FolderGuid:6C02BB504B69D1F3D7A624B130C18E5B Parent:00000000000000000000000000000000
   |      - Guid:A96686CC47948FECC53CC5887E80806D Class:StaticMeshActor Name:StaticMeshActor_UAID_244BFEDF890FC71C01_1684296765 SpatiallyLoaded:true Bounds:IsValid=true, Min=(X=1480.000 Y=3020.000 Z=-0.000), Max=(X=1500.000 Y=3600.000 Z=400.000) RuntimeGrid:None EditorOnly:false LevelBoundsRelevant:true HLODRelevant:true FolderPath:Playground FolderGuid:6C02BB504B69D1F3D7A624B130C18E5B Parent:00000000000000000000000000000000
   |      - Guid:AC04B9B5406A8C302E05FBBCF94EE6DB Class:StaticMeshActor Name:StaticMeshActor_UAID_244BFEDF890F321E01_1527871645 SpatiallyLoaded:true Bounds:IsValid=true, Min=(X=2000.000 Y=-19.818 Z=-300.000), Max=(X=2600.000 Y=0.182 Z=800.000) RuntimeGrid:None EditorOnly:false LevelBoundsRelevant:true HLODRelevant:true FolderPath:Playground FolderGuid:6C02BB504B69D1F3D7A624B130C18E5B Parent:00000000000000000000000000000000
   |      - Guid:ADD4B6414151569908702AAD8E0BCA31 Class:StaticMeshActor Name:StaticMeshActor_UAID_244BFEDF890FC71C01_1684168756 SpatiallyLoaded:true Bounds:IsValid=true, Min=(X=-600.000 Y=980.000 Z=-0.000), Max=(X=-20.000 Y=1000.000 Z=400.000) RuntimeGrid:None EditorOnly:false LevelBoundsRelevant:true HLODRelevant:true FolderPath:Playground FolderGuid:6C02BB504B69D1F3D7A624B130C18E5B Parent:00000000000000000000000000000000
   |      - Guid:AE5C1E7C48108CDE997E20AFF9FC400E Class:TargetPoint Name:TargetPoint_UAID_244BFEDF890FAD1E01_1357165295 SpatiallyLoaded:true Bounds:IsValid=true, Min=(X=2310.500 Y=1194.197 Z=100.000), Max=(X=2310.500 Y=1194.197 Z=100.000) RuntimeGrid:None EditorOnly:false LevelBoundsRelevant:true HLODRelevant:false FolderPath:Chaves FolderGuid:99194F1542A5ED8A8277B78F1D034CBF Parent:00000000000000000000000000000000
   |      - Guid:B0B51B5A413AE0D595DA0B9FC3464FB7 Class:TargetPoint Name:TargetPoint_UAID_244BFEDF890FAD1E01_1158837288 SpatiallyLoaded:true Bounds:IsValid=true, Min=(X=-284.979 Y=1270.726 Z=100.000), Max=(X=-284.979 Y=1270.726 Z=100.000) RuntimeGrid:None EditorOnly:false LevelBoundsRelevant:true HLODRelevant:false FolderPath:Chaves FolderGuid:99194F1542A5ED8A8277B78F1D034CBF Parent:00000000000000000000000000000000
   |      - Guid:B3EADAD94F4ABD73D6DD89AA40D58FAA Class:TargetPoint Name:TargetPoint_UAID_244BFEDF890FAD1E01_1319468293 SpatiallyLoaded:true Bounds:IsValid=true, Min=(X=2310.500 Y=2600.317 Z=100.000), Max=(X=2310.500 Y=2600.317 Z=100.000) RuntimeGrid:None EditorOnly:false LevelBoundsRelevant:true HLODRelevant:false FolderPath:Chaves FolderGuid:99194F1542A5ED8A8277B78F1D034CBF Parent:00000000000000000000000000000000
   |      - Guid:BCB621A444EBE7E047FD968849B49946 Class:TriggerVolume Name:TriggerVolume_UAID_244BFEDF890FA11E01_1926000185 SpatiallyLoaded:true Bounds:IsValid=true, Min=(X=913.294 Y=-88.817 Z=50.896), Max=(X=1243.294 Y=89.683 Z=391.896) RuntimeGrid:None EditorOnly:false LevelBoundsRelevant:false HLODRelevant:false FolderPath:AssetsMapa/PortasMadeira FolderGuid:354B99B749BAC3243C0C1D8964C4884C Parent:00000000000000000000000000000000
   |      - Guid:BCFD90BB475350DEEDEF64B1535D583F Class:StaticMeshActor Name:StaticMeshActor_UAID_244BFEDF890FC71C01_1684109752 SpatiallyLoaded:true Bounds:IsValid=true, Min=(X=400.000 Y=1000.000 Z=50.000), Max=(X=1600.000 Y=2600.000 Z=400.000) RuntimeGrid:None EditorOnly:false LevelBoundsRelevant:true HLODRelevant:true FolderPath:Playground FolderGuid:6C02BB504B69D1F3D7A624B130C18E5B Parent:00000000000000000000000000000000
   |      - Guid:BDDF3AC640154940F9942E9CF5331E56 Class:Actor Name:BP_LanternaMedia_C_UAID_244BFEDF890F331A01_2066503591 SpatiallyLoaded:true Bounds:IsValid=true, Min=(X=-238.080 Y=211.920 Z=111.920), Max=(X=-161.920 Y=288.080 Z=188.080) RuntimeGrid:None EditorOnly:false LevelBoundsRelevant:true HLODRelevant:false FolderPath:None FolderGuid:00000000000000000000000000000000 Parent:00000000000000000000000000000000
   |      - Guid:BF65B1F0465AC151EF652E9A025DA288 Class:Actor Name:BP_PortaMetal_C_UAID_244BFEDF890FB81C01_1459454122 SpatiallyLoaded:true Bounds:IsValid=true, Min=(X=306.000 Y=1159.000 Z=50.000), Max=(X=514.000 Y=1338.000 Z=325.000) RuntimeGrid:None EditorOnly:false LevelBoundsRelevant:true HLODRelevant:false FolderPath:AssetsMapa/PortasMetalNecroterio FolderGuid:8762A59C4EAD95AF9754BA896C3AE7A6 Parent:00000000000000000000000000000000
   |      - Guid:C06C0A124580ACF8395E3984450EC33B Class:StaticMeshActor Name:StaticMeshActor_UAID_244BFEDF890FC71C01_1684411773 SpatiallyLoaded:true Bounds:IsValid=true, Min=(X=2600.000 Y=2380.000 Z=-0.000), Max=(X=2620.000 Y=2920.000 Z=400.000) RuntimeGrid:None EditorOnly:false LevelBoundsRelevant:true HLODRelevant:true FolderPath:Playground FolderGuid:6C02BB504B69D1F3D7A624B130C18E5B Parent:00000000000000000000000000000000
   |      - Guid:C0C56B9644AE3D40CAFF6A878DB29844 Class:StaticMeshActor Name:StaticMeshActor_UAID_A4AE111137DC5EFB00_2001720423 SpatiallyLoaded:true Bounds:IsValid=true, Min=(X=-1638400.000 Y=-1638400.000 Z=-1638400.000), Max=(X=1638400.000 Y=1638400.000 Z=1638400.000) RuntimeGrid:None EditorOnly:false LevelBoundsRelevant:true HLODRelevant:true FolderPath:Lighting FolderGuid:0BA5F0A04EADB18E70D5B180D08FA34B Parent:00000000000000000000000000000000
   |      - Guid:C139357D446EE08D71B7F79CE740B435 Class:StaticMeshActor Name:StaticMeshActor_UAID_244BFEDF890FC71C01_1684240761 SpatiallyLoaded:true Bounds:IsValid=true, Min=(X=2020.000 Y=1680.000 Z=-0.000), Max=(X=2600.000 Y=1700.000 Z=400.000) RuntimeGrid:None EditorOnly:false LevelBoundsRelevant:true HLODRelevant:true FolderPath:Playground FolderGuid:6C02BB504B69D1F3D7A624B130C18E5B Parent:00000000000000000000000000000000
   |      - Guid:C22CE07C4B87D685137FDBBC10FC92C6 Class:SkyAtmosphere Name:SkyAtmosphere_0 SpatiallyLoaded:false Bounds:IsValid=true, Min=(X=0.000 Y=0.000 Z=1020.000), Max=(X=0.000 Y=0.000 Z=1020.000) RuntimeGrid:None EditorOnly:false LevelBoundsRelevant:false HLODRelevant:false FolderPath:Lighting FolderGuid:0BA5F0A04EADB18E70D5B180D08FA34B Parent:00000000000000000000000000000000
   |      - Guid:C583A5684652258B0C03DA8D1127A9AE Class:StaticMeshActor Name:StaticMeshActor_UAID_244BFEDF890F621C01_1298549975 SpatiallyLoaded:true Bounds:IsValid=true, Min=(X=950.000 Y=-12.750 Z=50.000), Max=(X=1250.000 Y=22.250 Z=325.000) RuntimeGrid:None EditorOnly:false LevelBoundsRelevant:true HLODRelevant:true FolderPath:AssetsMapa/PortasMadeira FolderGuid:354B99B749BAC3243C0C1D8964C4884C Parent:00000000000000000000000000000000
   |      - Guid:C9B346C3491CACA98D795C8DE9AF294E Class:Actor Name:BP_PortaMetal_C_UAID_244BFEDF890FB71C01_1888597939 SpatiallyLoaded:true Bounds:IsValid=true, Min=(X=-114.000 Y=2564.000 Z=50.000), Max=(X=94.000 Y=2743.000 Z=325.000) RuntimeGrid:None EditorOnly:false LevelBoundsRelevant:true HLODRelevant:false FolderPath:AssetsMapa/PortasMetalSpawn FolderGuid:007B29964E565AD7015CB894A926EA2B Parent:00000000000000000000000000000000
   |      - Guid:CE6E2CDD4E7B42012F2432A93EEF75B6 Class:StaticMeshActor Name:StaticMeshActor_UAID_244BFEDF890F321E01_1763078647 SpatiallyLoaded:true Bounds:IsValid=true, Min=(X=2000.000 Y=-600.000 Z=800.000), Max=(X=2620.000 Y=1400.000 Z=850.000) RuntimeGrid:None EditorOnly:false LevelBoundsRelevant:true HLODRelevant:true FolderPath:Playground FolderGuid:6C02BB504B69D1F3D7A624B130C18E5B Parent:00000000000000000000000000000000
   |      - Guid:CE8D82634660FCDB3120E2B8D547C533 Class:PostProcessVolume Name:PostProcessVolume_0 SpatiallyLoaded:false Bounds:IsValid=true, Min=(X=-100.000 Y=2900.000 Z=-150.000), Max=(X=100.000 Y=3100.000 Z=50.000) RuntimeGrid:None EditorOnly:false LevelBoundsRelevant:false HLODRelevant:false FolderPath:Lighting FolderGuid:0BA5F0A04EADB18E70D5B180D08FA34B Parent:00000000000000000000000000000000
   |      - Guid:CE96A4EE499D3E62C687B3881BBE5DAF Class:StaticMeshActor Name:StaticMeshActor_UAID_244BFEDF890F3D1701_1538614183 SpatiallyLoaded:true Bounds:IsValid=true, Min=(X=-730.000 Y=-600.000 Z=400.000), Max=(X=2020.000 Y=3900.000 Z=450.000) RuntimeGrid:None EditorOnly:false LevelBoundsRelevant:true HLODRelevant:true FolderPath:Playground FolderGuid:6C02BB504B69D1F3D7A624B130C18E5B Parent:00000000000000000000000000000000
   |      - Guid:D0DCCDE64C00C96C9E9ACD8522CCC8C5 Class:Actor Name:BP_PortaMetal_C_UAID_244BFEDF890FB71C01_1477904936 SpatiallyLoaded:true Bounds:IsValid=true, Min=(X=-114.000 Y=163.000 Z=50.000), Max=(X=94.000 Y=342.000 Z=325.000) RuntimeGrid:None EditorOnly:false LevelBoundsRelevant:true HLODRelevant:false FolderPath:AssetsMapa/PortasMetalSpawn FolderGuid:007B29964E565AD7015CB894A926EA2B Parent:00000000000000000000000000000000
   |      - Guid:D5815FF6446B28C1E00E45B1C18963B7 Class:StaticMeshActor Name:StaticMeshActor_UAID_244BFEDF890F321E01_1527857644 SpatiallyLoaded:true Bounds:IsValid=true, Min=(X=2000.000 Y=490.000 Z=230.000), Max=(X=2400.000 Y=980.000 Z=400.000) RuntimeGrid:None EditorOnly:false LevelBoundsRelevant:true HLODRelevant:true FolderPath:Playground FolderGuid:6C02BB504B69D1F3D7A624B130C18E5B Parent:00000000000000000000000000000000
   |      - Guid:D6DF7C1E4A9DF425BBE2C4A61EEFC522 Class:StaticMeshActor Name:StaticMeshActor_UAID_244BFEDF890F321E01_2012739649 SpatiallyLoaded:true Bounds:IsValid=true, Min=(X=2020.000 Y=1000.000 Z=400.000), Max=(X=2620.000 Y=3000.000 Z=450.000) RuntimeGrid:None EditorOnly:false LevelBoundsRelevant:true HLODRelevant:true FolderPath:Playground FolderGuid:6C02BB504B69D1F3D7A624B130C18E5B Parent:00000000000000000000000000000000
   |      - Guid:E38B199845C8A6C706D86FA10D1B839B Class:StaticMeshActor Name:StaticMeshActor_UAID_244BFEDF890FC71C01_1684526781 SpatiallyLoaded:true Bounds:IsValid=true, Min=(X=-600.000 Y=0.000 Z=-0.001), Max=(X=2600.000 Y=3600.000 Z=50.000) RuntimeGrid:None EditorOnly:false LevelBoundsRelevant:true HLODRelevant:true FolderPath:Playground FolderGuid:6C02BB504B69D1F3D7A624B130C18E5B Parent:00000000000000000000000000000000
   |      - Guid:E5320C1B4FD9764CE7B54D8487AEC613 Class:SkyLight Name:SkyLight_0 SpatiallyLoaded:false Bounds:IsValid=true, Min=(X=0.000 Y=0.000 Z=690.000), Max=(X=0.000 Y=0.000 Z=690.000) RuntimeGrid:None EditorOnly:false LevelBoundsRelevant:false HLODRelevant:false FolderPath:Lighting FolderGuid:330DD0C24ABF5C9593AF29A1C7DC2EFB Parent:00000000000000000000000000000000
   |      - Guid:EAE51E414626998FCC24E0959201D58A Class:Actor Name:BP_PortaMetal_C_UAID_244BFEDF890FB71C01_1855327938 SpatiallyLoaded:true Bounds:IsValid=true, Min=(X=-114.000 Y=1864.000 Z=50.000), Max=(X=94.000 Y=2043.000 Z=325.000) RuntimeGrid:None EditorOnly:false LevelBoundsRelevant:true HLODRelevant:false FolderPath:AssetsMapa/PortasMetalSpawn FolderGuid:007B29964E565AD7015CB894A926EA2B Parent:00000000000000000000000000000000
   |      - Guid:EEBD71024302D2AD934298B2FA11E825 Class:TargetPoint Name:TargetPoint_UAID_244BFEDF890F9E1E01_2011766650 SpatiallyLoaded:true Bounds:IsValid=true, Min=(X=1837.792 Y=697.047 Z=50.000), Max=(X=1837.792 Y=697.047 Z=50.000) RuntimeGrid:None EditorOnly:false LevelBoundsRelevant:true HLODRelevant:false FolderPath:ThePoliEyedBeast FolderGuid:37FDFF2E45D440B018DCF1B46B4EDEB2 Parent:00000000000000000000000000000000
   |      - Guid:F1698A8B419ED906477449810B9D8060 Class:StaticMeshActor Name:StaticMeshActor_UAID_244BFEDF890FC71C01_1684183757 SpatiallyLoaded:true Bounds:IsValid=true, Min=(X=-600.000 Y=2200.000 Z=-0.000), Max=(X=-20.000 Y=2220.000 Z=400.000) RuntimeGrid:None EditorOnly:false LevelBoundsRelevant:true HLODRelevant:true FolderPath:Playground FolderGuid:6C02BB504B69D1F3D7A624B130C18E5B Parent:00000000000000000000000000000000
   |      - Guid:F1EFEDD54D54AEE415E7BD972E429FE3 Class:StaticMeshActor Name:StaticMeshActor_UAID_244BFEDF890FC71C01_1684339768 SpatiallyLoaded:true Bounds:IsValid=true, Min=(X=-620.000 Y=1680.000 Z=-0.000), Max=(X=-600.000 Y=2220.000 Z=400.000) RuntimeGrid:None EditorOnly:false LevelBoundsRelevant:true HLODRelevant:true FolderPath:Playground FolderGuid:6C02BB504B69D1F3D7A624B130C18E5B Parent:00000000000000000000000000000000
   |      - Guid:F2D437E449BDBECAAD477D9AD83F4656 Class:Actor Name:BP_PortaMetal_C_UAID_244BFEDF890FB81C01_1095687118 SpatiallyLoaded:true Bounds:IsValid=true, Min=(X=1906.000 Y=1159.000 Z=50.000), Max=(X=2114.000 Y=1338.000 Z=325.000) RuntimeGrid:None EditorOnly:false LevelBoundsRelevant:true HLODRelevant:false FolderPath:AssetsMapa/PortasMetalOposto FolderGuid:BAF1D96E45B523E6867C0F97CFFB56C1 Parent:00000000000000000000000000000000
   |      - Guid:F4AB0A7A47A477266E794CAFD47AABB5 Class:TargetPoint Name:TargetPoint_UAID_244BFEDF890FAD1E01_1348375294 SpatiallyLoaded:true Bounds:IsValid=true, Min=(X=2310.500 Y=1908.012 Z=100.000), Max=(X=2310.500 Y=1908.012 Z=100.000) RuntimeGrid:None EditorOnly:false LevelBoundsRelevant:true HLODRelevant:false FolderPath:Chaves FolderGuid:99194F1542A5ED8A8277B78F1D034CBF Parent:00000000000000000000000000000000
   |      - Guid:F63450BD4301609FE3341C93350C6008 Class:StaticMeshActor Name:StaticMeshActor_UAID_244BFEDF890FC71C01_1684396772 SpatiallyLoaded:true Bounds:IsValid=true, Min=(X=2600.000 Y=1680.000 Z=-0.000), Max=(X=2620.000 Y=2220.000 Z=400.000) RuntimeGrid:None EditorOnly:false LevelBoundsRelevant:true HLODRelevant:true FolderPath:Playground FolderGuid:6C02BB504B69D1F3D7A624B130C18E5B Parent:00000000000000000000000000000000
   |      - Guid:F7EF639B4C87272499A6B4B1A2CDB8F1 Class:Actor Name:BP_ChaveReal_C_UAID_244BFEDF890FA11E01_1711280184 SpatiallyLoaded:true Bounds:IsValid=true, Min=(X=429.600 Y=423.200 Z=58.848), Max=(X=570.400 Y=576.800 Z=161.248) RuntimeGrid:None EditorOnly:false LevelBoundsRelevant:true HLODRelevant:false FolderPath:None FolderGuid:00000000000000000000000000000000 Parent:00000000000000000000000000000000
   |      - Guid:F80621C9446867154938FE81375207DA Class:DirectionalLight Name:DirectionalLight_1 SpatiallyLoaded:false Bounds:IsValid=true, Min=(X=-1048576.000 Y=-1048576.000 Z=-1048576.000), Max=(X=1048576.000 Y=1048576.000 Z=1048576.000) RuntimeGrid:None EditorOnly:false LevelBoundsRelevant:false HLODRelevant:false FolderPath:Lighting FolderGuid:0BA5F0A04EADB18E70D5B180D08FA34B Parent:00000000000000000000000000000000
   |      - Guid:F8EAED174D63C392B437CA996DD89C8C Class:StaticMeshActor Name:StaticMeshActor_UAID_244BFEDF890FC71C01_1684453776 SpatiallyLoaded:true Bounds:IsValid=true, Min=(X=-20.000 Y=0.000 Z=-0.000), Max=(X=0.000 Y=3600.000 Z=400.000) RuntimeGrid:None EditorOnly:false LevelBoundsRelevant:true HLODRelevant:true FolderPath:Playground FolderGuid:6C02BB504B69D1F3D7A624B130C18E5B Parent:00000000000000000000000000000000
   |      - Guid:FAC6C7024ECA4ACD228A8FAFB6D200D9 Class:StaticMeshActor Name:StaticMeshActor_UAID_244BFEDF890FC71C01_1684125753 SpatiallyLoaded:true Bounds:IsValid=true, Min=(X=-600.000 Y=2380.000 Z=-0.000), Max=(X=-20.000 Y=2400.000 Z=400.000) RuntimeGrid:None EditorOnly:false LevelBoundsRelevant:true HLODRelevant:true FolderPath:Playground FolderGuid:6C02BB504B69D1F3D7A624B130C18E5B Parent:00000000000000000000000000000000
